[Mon, 31 Oct 16 07:12:24 -0500][DEBUG] DESCRIBE `usuario`
[Mon, 31 Oct 16 14:38:28 -0500][DEBUG] DESCRIBE `usuario`
[Mon, 31 Oct 16 14:38:28 -0500][DEBUG] SELECT id,nombre,apellido,login,password,perfil_id,email,tema,app_ajax,datagrid,fotografia,pool,usuario_at,usuario_in FROM usuario WHERE email = 'admin' AND password = '2953fc3e379fa941e38225c1e90984722232c626' LIMIT 1
[Mon, 31 Oct 16 14:38:28 -0500][DEBUG] DESCRIBE `usuario`
[Mon, 31 Oct 16 14:38:33 -0500][DEBUG] DESCRIBE `usuario`
[Mon, 31 Oct 16 14:38:33 -0500][DEBUG] SELECT id,nombre,apellido,login,password,perfil_id,email,tema,app_ajax,datagrid,fotografia,pool,usuario_at,usuario_in FROM usuario WHERE email = 'admin@servidigital.co' AND password = '2953fc3e379fa941e38225c1e90984722232c626' LIMIT 1
[Mon, 31 Oct 16 14:38:33 -0500][DEBUG] DESCRIBE `usuario`
[Mon, 31 Oct 16 14:38:39 -0500][DEBUG] DESCRIBE `usuario`
[Mon, 31 Oct 16 14:38:39 -0500][DEBUG] SELECT id,nombre,apellido,login,password,perfil_id,email,tema,app_ajax,datagrid,fotografia,pool,usuario_at,usuario_in FROM usuario WHERE email = 'admin@servidigital.co' AND password = '7c4a8d09ca3762af61e59520943dc26494f8941b' LIMIT 1
[Mon, 31 Oct 16 14:38:39 -0500][DEBUG] SELECT usuario.*, perfil.perfil, estado_usuario.estado_usuario FROM usuario INNER JOIN perfil ON perfil.id = usuario.perfil_id INNER JOIN (SELECT usuario_id, estado_usuario, descripcion, estado_usuario_at FROM (SELECT * FROM estado_usuario ORDER BY estado_usuario.id DESC ) AS estado_usuario GROUP BY estado_usuario.usuario_id ) AS estado_usuario ON estado_usuario.usuario_id = usuario.id  WHERE usuario.id = '2' LIMIT 1
[Mon, 31 Oct 16 14:38:39 -0500][DEBUG] DESCRIBE `acceso`
[Mon, 31 Oct 16 14:38:39 -0500][DEBUG] INSERT INTO acceso (usuario_id,tipo_acceso,ip,acceso_at) VALUES ('2','1','::1','2016-10-31 14:38:39')
[Mon, 31 Oct 16 14:38:39 -0500][DEBUG] SELECT id,usuario_id,tipo_acceso,ip,acceso_at FROM acceso WHERE id = 108 LIMIT 1
[Mon, 31 Oct 16 14:38:39 -0500][DEBUG] DESCRIBE `usuario`
[Mon, 31 Oct 16 14:38:39 -0500][DEBUG] DESCRIBE `cliente`
[Mon, 31 Oct 16 14:38:39 -0500][DEBUG] SELECT COUNT(*) FROM cliente 
[Mon, 31 Oct 16 14:38:39 -0500][DEBUG] DESCRIBE `cotizacion`
[Mon, 31 Oct 16 14:38:39 -0500][DEBUG] SELECT COUNT(*) FROM cotizacion 
[Mon, 31 Oct 16 14:38:39 -0500][DEBUG] DESCRIBE `proveedor`
[Mon, 31 Oct 16 14:38:39 -0500][DEBUG] SELECT id,nombre,contacto,link,img,estado,proveedor_at FROM proveedor WHERE estado=1
[Mon, 31 Oct 16 14:38:39 -0500][DEBUG] DESCRIBE `menu`
[Mon, 31 Oct 16 14:39:37 -0500][DEBUG] DESCRIBE `usuario`
[Mon, 31 Oct 16 14:39:37 -0500][DEBUG] DESCRIBE `usuario`
[Mon, 31 Oct 16 14:39:37 -0500][DEBUG] DESCRIBE `cliente`
[Mon, 31 Oct 16 14:39:37 -0500][DEBUG] SELECT COUNT(*) FROM cliente 
[Mon, 31 Oct 16 14:39:37 -0500][DEBUG] SELECT cliente.* FROM cliente ORDER BY id ASC LIMIT 30 OFFSET 0
[Mon, 31 Oct 16 14:39:39 -0500][DEBUG] DESCRIBE `usuario`
[Mon, 31 Oct 16 14:39:39 -0500][DEBUG] DESCRIBE `usuario`
[Mon, 31 Oct 16 14:39:39 -0500][DEBUG] DESCRIBE `cotizacion`
[Mon, 31 Oct 16 14:39:39 -0500][DEBUG] SELECT COUNT(*) FROM cotizacion 
[Mon, 31 Oct 16 14:39:39 -0500][DEBUG] SELECT cotizacion.* FROM cotizacion ORDER BY id ASC LIMIT 30 OFFSET 0
[Mon, 31 Oct 16 14:39:39 -0500][DEBUG] DESCRIBE `cliente`
[Mon, 31 Oct 16 14:39:39 -0500][DEBUG] SELECT id,nombre,cc,direccion,ciudad,email,telefono,celular,nota,estado,cliente_at FROM cliente WHERE id = 1 LIMIT 1
[Mon, 31 Oct 16 14:39:39 -0500][DEBUG] DESCRIBE `cotizacion_item`
[Mon, 31 Oct 16 14:39:39 -0500][DEBUG] SELECT COUNT(*) FROM cotizacion_item  WHERE cotizacion_id =1 AND estado>=1
[Mon, 31 Oct 16 14:39:39 -0500][DEBUG] SELECT SUM(valor) FROM cotizacion_item 
[Mon, 31 Oct 16 14:39:39 -0500][DEBUG] SELECT id,nombre,cc,direccion,ciudad,email,telefono,celular,nota,estado,cliente_at FROM cliente WHERE id = 2 LIMIT 1
[Mon, 31 Oct 16 14:39:39 -0500][DEBUG] SELECT COUNT(*) FROM cotizacion_item  WHERE cotizacion_id =2 AND estado>=1
[Mon, 31 Oct 16 14:39:39 -0500][DEBUG] SELECT SUM(valor) FROM cotizacion_item 
[Mon, 31 Oct 16 14:39:39 -0500][DEBUG] SELECT id,nombre,cc,direccion,ciudad,email,telefono,celular,nota,estado,cliente_at FROM cliente WHERE id = 1 LIMIT 1
[Mon, 31 Oct 16 14:39:39 -0500][DEBUG] SELECT COUNT(*) FROM cotizacion_item  WHERE cotizacion_id =3 AND estado>=1
[Mon, 31 Oct 16 14:39:39 -0500][DEBUG] SELECT SUM(valor) FROM cotizacion_item 
[Mon, 31 Oct 16 14:39:39 -0500][DEBUG] SELECT id,nombre,cc,direccion,ciudad,email,telefono,celular,nota,estado,cliente_at FROM cliente WHERE id = 1 LIMIT 1
[Mon, 31 Oct 16 14:39:39 -0500][DEBUG] SELECT COUNT(*) FROM cotizacion_item  WHERE cotizacion_id =4 AND estado>=1
[Mon, 31 Oct 16 14:39:39 -0500][DEBUG] SELECT SUM(valor) FROM cotizacion_item 
[Mon, 31 Oct 16 14:39:39 -0500][DEBUG] SELECT id,nombre,cc,direccion,ciudad,email,telefono,celular,nota,estado,cliente_at FROM cliente WHERE id = 1 LIMIT 1
[Mon, 31 Oct 16 14:39:39 -0500][DEBUG] SELECT COUNT(*) FROM cotizacion_item  WHERE cotizacion_id =5 AND estado>=1
[Mon, 31 Oct 16 14:39:39 -0500][DEBUG] SELECT SUM(valor) FROM cotizacion_item 
[Mon, 31 Oct 16 14:39:39 -0500][DEBUG] SELECT id,nombre,cc,direccion,ciudad,email,telefono,celular,nota,estado,cliente_at FROM cliente WHERE id = 1 LIMIT 1
[Mon, 31 Oct 16 14:39:39 -0500][DEBUG] SELECT COUNT(*) FROM cotizacion_item  WHERE cotizacion_id =6 AND estado>=1
[Mon, 31 Oct 16 14:39:39 -0500][DEBUG] SELECT SUM(valor) FROM cotizacion_item 
[Mon, 31 Oct 16 14:39:39 -0500][DEBUG] SELECT id,nombre,cc,direccion,ciudad,email,telefono,celular,nota,estado,cliente_at FROM cliente WHERE id = 3 LIMIT 1
[Mon, 31 Oct 16 14:39:39 -0500][DEBUG] SELECT COUNT(*) FROM cotizacion_item  WHERE cotizacion_id =7 AND estado>=1
[Mon, 31 Oct 16 14:39:39 -0500][DEBUG] SELECT SUM(valor) FROM cotizacion_item 
[Mon, 31 Oct 16 14:39:40 -0500][DEBUG] DESCRIBE `usuario`
[Mon, 31 Oct 16 14:39:40 -0500][DEBUG] DESCRIBE `cliente`
[Mon, 31 Oct 16 14:39:40 -0500][DEBUG] SELECT id,nombre,cc,direccion,ciudad,email,telefono,celular,nota,estado,cliente_at FROM cliente WHERE id = 1 LIMIT 1
[Mon, 31 Oct 16 14:39:43 -0500][DEBUG] DESCRIBE `usuario`
[Mon, 31 Oct 16 14:39:43 -0500][DEBUG] DESCRIBE `cliente`
[Mon, 31 Oct 16 14:39:43 -0500][DEBUG] SELECT COUNT(*) FROM cliente 
[Mon, 31 Oct 16 14:39:43 -0500][DEBUG] SELECT cliente.* FROM cliente ORDER BY id ASC LIMIT 30 OFFSET 0
[Mon, 31 Oct 16 14:40:20 -0500][DEBUG] DESCRIBE `usuario`
[Mon, 31 Oct 16 14:40:20 -0500][DEBUG] DESCRIBE `usuario`
[Mon, 31 Oct 16 14:40:20 -0500][DEBUG] DESCRIBE `proveedor`
[Mon, 31 Oct 16 14:40:20 -0500][DEBUG] SELECT COUNT(*) FROM proveedor 
[Mon, 31 Oct 16 14:40:20 -0500][DEBUG] SELECT proveedor.* FROM proveedor ORDER BY id ASC LIMIT 30 OFFSET 0
[Mon, 31 Oct 16 14:40:21 -0500][DEBUG] DESCRIBE `usuario`
[Mon, 31 Oct 16 14:40:21 -0500][DEBUG] DESCRIBE `usuario`
[Mon, 31 Oct 16 14:40:21 -0500][DEBUG] DESCRIBE `producto`
[Mon, 31 Oct 16 14:40:21 -0500][DEBUG] SELECT COUNT(*) FROM producto 
[Mon, 31 Oct 16 14:40:21 -0500][DEBUG] SELECT producto.* FROM producto ORDER BY id ASC LIMIT 30 OFFSET 0
[Mon, 31 Oct 16 14:40:23 -0500][DEBUG] DESCRIBE `usuario`
[Mon, 31 Oct 16 14:40:23 -0500][DEBUG] DESCRIBE `usuario`
[Mon, 31 Oct 16 14:40:23 -0500][DEBUG] DESCRIBE `politica`
[Mon, 31 Oct 16 14:40:23 -0500][DEBUG] SELECT COUNT(*) FROM politica 
[Mon, 31 Oct 16 14:40:23 -0500][DEBUG] SELECT politica.* FROM politica ORDER BY id ASC LIMIT 30 OFFSET 0
[Mon, 31 Oct 16 14:40:25 -0500][DEBUG] DESCRIBE `usuario`
[Mon, 31 Oct 16 14:40:25 -0500][DEBUG] DESCRIBE `usuario`
[Mon, 31 Oct 16 14:40:25 -0500][DEBUG] DESCRIBE `producto`
[Mon, 31 Oct 16 14:40:25 -0500][DEBUG] SELECT COUNT(*) FROM producto 
[Mon, 31 Oct 16 14:40:25 -0500][DEBUG] SELECT producto.* FROM producto ORDER BY id ASC LIMIT 30 OFFSET 0
[Mon, 31 Oct 16 14:40:26 -0500][DEBUG] DESCRIBE `usuario`
[Mon, 31 Oct 16 14:40:26 -0500][DEBUG] DESCRIBE `usuario`
[Mon, 31 Oct 16 14:40:27 -0500][DEBUG] DESCRIBE `proveedor`
[Mon, 31 Oct 16 14:40:27 -0500][DEBUG] SELECT COUNT(*) FROM proveedor 
[Mon, 31 Oct 16 14:40:27 -0500][DEBUG] SELECT proveedor.* FROM proveedor ORDER BY id ASC LIMIT 30 OFFSET 0
[Mon, 31 Oct 16 14:40:28 -0500][DEBUG] DESCRIBE `usuario`
[Mon, 31 Oct 16 14:40:28 -0500][DEBUG] DESCRIBE `usuario`
[Mon, 31 Oct 16 14:40:28 -0500][DEBUG] DESCRIBE `cotizacion`
[Mon, 31 Oct 16 14:40:28 -0500][DEBUG] SELECT COUNT(*) FROM cotizacion 
[Mon, 31 Oct 16 14:40:28 -0500][DEBUG] SELECT cotizacion.* FROM cotizacion ORDER BY id ASC LIMIT 30 OFFSET 0
[Mon, 31 Oct 16 14:40:28 -0500][DEBUG] DESCRIBE `cliente`
[Mon, 31 Oct 16 14:40:28 -0500][DEBUG] SELECT id,nombre,cc,direccion,ciudad,email,telefono,celular,nota,estado,cliente_at FROM cliente WHERE id = 1 LIMIT 1
[Mon, 31 Oct 16 14:40:28 -0500][DEBUG] DESCRIBE `cotizacion_item`
[Mon, 31 Oct 16 14:40:28 -0500][DEBUG] SELECT COUNT(*) FROM cotizacion_item  WHERE cotizacion_id =1 AND estado>=1
[Mon, 31 Oct 16 14:40:28 -0500][DEBUG] SELECT SUM(valor) FROM cotizacion_item 
[Mon, 31 Oct 16 14:40:28 -0500][DEBUG] SELECT id,nombre,cc,direccion,ciudad,email,telefono,celular,nota,estado,cliente_at FROM cliente WHERE id = 2 LIMIT 1
[Mon, 31 Oct 16 14:40:28 -0500][DEBUG] SELECT COUNT(*) FROM cotizacion_item  WHERE cotizacion_id =2 AND estado>=1
[Mon, 31 Oct 16 14:40:28 -0500][DEBUG] SELECT SUM(valor) FROM cotizacion_item 
[Mon, 31 Oct 16 14:40:28 -0500][DEBUG] SELECT id,nombre,cc,direccion,ciudad,email,telefono,celular,nota,estado,cliente_at FROM cliente WHERE id = 1 LIMIT 1
[Mon, 31 Oct 16 14:40:28 -0500][DEBUG] SELECT COUNT(*) FROM cotizacion_item  WHERE cotizacion_id =3 AND estado>=1
[Mon, 31 Oct 16 14:40:28 -0500][DEBUG] SELECT SUM(valor) FROM cotizacion_item 
[Mon, 31 Oct 16 14:40:28 -0500][DEBUG] SELECT id,nombre,cc,direccion,ciudad,email,telefono,celular,nota,estado,cliente_at FROM cliente WHERE id = 1 LIMIT 1
[Mon, 31 Oct 16 14:40:28 -0500][DEBUG] SELECT COUNT(*) FROM cotizacion_item  WHERE cotizacion_id =4 AND estado>=1
[Mon, 31 Oct 16 14:40:28 -0500][DEBUG] SELECT SUM(valor) FROM cotizacion_item 
[Mon, 31 Oct 16 14:40:28 -0500][DEBUG] SELECT id,nombre,cc,direccion,ciudad,email,telefono,celular,nota,estado,cliente_at FROM cliente WHERE id = 1 LIMIT 1
[Mon, 31 Oct 16 14:40:28 -0500][DEBUG] SELECT COUNT(*) FROM cotizacion_item  WHERE cotizacion_id =5 AND estado>=1
[Mon, 31 Oct 16 14:40:28 -0500][DEBUG] SELECT SUM(valor) FROM cotizacion_item 
[Mon, 31 Oct 16 14:40:28 -0500][DEBUG] SELECT id,nombre,cc,direccion,ciudad,email,telefono,celular,nota,estado,cliente_at FROM cliente WHERE id = 1 LIMIT 1
[Mon, 31 Oct 16 14:40:28 -0500][DEBUG] SELECT COUNT(*) FROM cotizacion_item  WHERE cotizacion_id =6 AND estado>=1
[Mon, 31 Oct 16 14:40:28 -0500][DEBUG] SELECT SUM(valor) FROM cotizacion_item 
[Mon, 31 Oct 16 14:40:28 -0500][DEBUG] SELECT id,nombre,cc,direccion,ciudad,email,telefono,celular,nota,estado,cliente_at FROM cliente WHERE id = 3 LIMIT 1
[Mon, 31 Oct 16 14:40:28 -0500][DEBUG] SELECT COUNT(*) FROM cotizacion_item  WHERE cotizacion_id =7 AND estado>=1
[Mon, 31 Oct 16 14:40:28 -0500][DEBUG] SELECT SUM(valor) FROM cotizacion_item 
[Mon, 31 Oct 16 14:41:07 -0500][DEBUG] DESCRIBE `usuario`
[Mon, 31 Oct 16 14:41:07 -0500][DEBUG] DESCRIBE `usuario`
[Mon, 31 Oct 16 14:41:07 -0500][DEBUG] DESCRIBE `proveedor`
[Mon, 31 Oct 16 14:41:07 -0500][DEBUG] SELECT COUNT(*) FROM proveedor 
[Mon, 31 Oct 16 14:41:07 -0500][DEBUG] SELECT proveedor.* FROM proveedor ORDER BY id ASC LIMIT 30 OFFSET 0
[Mon, 31 Oct 16 14:41:12 -0500][DEBUG] DESCRIBE `usuario`
[Mon, 31 Oct 16 14:41:12 -0500][DEBUG] DESCRIBE `usuario`
[Mon, 31 Oct 16 14:41:12 -0500][DEBUG] DESCRIBE `cotizacion`
[Mon, 31 Oct 16 14:41:12 -0500][DEBUG] SELECT COUNT(*) FROM cotizacion 
[Mon, 31 Oct 16 14:41:12 -0500][DEBUG] SELECT cotizacion.* FROM cotizacion ORDER BY id ASC LIMIT 30 OFFSET 0
[Mon, 31 Oct 16 14:41:12 -0500][DEBUG] DESCRIBE `cliente`
[Mon, 31 Oct 16 14:41:12 -0500][DEBUG] SELECT id,nombre,cc,direccion,ciudad,email,telefono,celular,nota,estado,cliente_at FROM cliente WHERE id = 1 LIMIT 1
[Mon, 31 Oct 16 14:41:12 -0500][DEBUG] DESCRIBE `cotizacion_item`
[Mon, 31 Oct 16 14:41:12 -0500][DEBUG] SELECT COUNT(*) FROM cotizacion_item  WHERE cotizacion_id =1 AND estado>=1
[Mon, 31 Oct 16 14:41:12 -0500][DEBUG] SELECT SUM(valor) FROM cotizacion_item 
[Mon, 31 Oct 16 14:41:12 -0500][DEBUG] SELECT id,nombre,cc,direccion,ciudad,email,telefono,celular,nota,estado,cliente_at FROM cliente WHERE id = 2 LIMIT 1
[Mon, 31 Oct 16 14:41:12 -0500][DEBUG] SELECT COUNT(*) FROM cotizacion_item  WHERE cotizacion_id =2 AND estado>=1
[Mon, 31 Oct 16 14:41:12 -0500][DEBUG] SELECT SUM(valor) FROM cotizacion_item 
[Mon, 31 Oct 16 14:41:12 -0500][DEBUG] SELECT id,nombre,cc,direccion,ciudad,email,telefono,celular,nota,estado,cliente_at FROM cliente WHERE id = 1 LIMIT 1
[Mon, 31 Oct 16 14:41:12 -0500][DEBUG] SELECT COUNT(*) FROM cotizacion_item  WHERE cotizacion_id =3 AND estado>=1
[Mon, 31 Oct 16 14:41:12 -0500][DEBUG] SELECT SUM(valor) FROM cotizacion_item 
[Mon, 31 Oct 16 14:41:12 -0500][DEBUG] SELECT id,nombre,cc,direccion,ciudad,email,telefono,celular,nota,estado,cliente_at FROM cliente WHERE id = 1 LIMIT 1
[Mon, 31 Oct 16 14:41:12 -0500][DEBUG] SELECT COUNT(*) FROM cotizacion_item  WHERE cotizacion_id =4 AND estado>=1
[Mon, 31 Oct 16 14:41:12 -0500][DEBUG] SELECT SUM(valor) FROM cotizacion_item 
[Mon, 31 Oct 16 14:41:12 -0500][DEBUG] SELECT id,nombre,cc,direccion,ciudad,email,telefono,celular,nota,estado,cliente_at FROM cliente WHERE id = 1 LIMIT 1
[Mon, 31 Oct 16 14:41:12 -0500][DEBUG] SELECT COUNT(*) FROM cotizacion_item  WHERE cotizacion_id =5 AND estado>=1
[Mon, 31 Oct 16 14:41:12 -0500][DEBUG] SELECT SUM(valor) FROM cotizacion_item 
[Mon, 31 Oct 16 14:41:12 -0500][DEBUG] SELECT id,nombre,cc,direccion,ciudad,email,telefono,celular,nota,estado,cliente_at FROM cliente WHERE id = 1 LIMIT 1
[Mon, 31 Oct 16 14:41:12 -0500][DEBUG] SELECT COUNT(*) FROM cotizacion_item  WHERE cotizacion_id =6 AND estado>=1
[Mon, 31 Oct 16 14:41:12 -0500][DEBUG] SELECT SUM(valor) FROM cotizacion_item 
[Mon, 31 Oct 16 14:41:12 -0500][DEBUG] SELECT id,nombre,cc,direccion,ciudad,email,telefono,celular,nota,estado,cliente_at FROM cliente WHERE id = 3 LIMIT 1
[Mon, 31 Oct 16 14:41:12 -0500][DEBUG] SELECT COUNT(*) FROM cotizacion_item  WHERE cotizacion_id =7 AND estado>=1
[Mon, 31 Oct 16 14:41:12 -0500][DEBUG] SELECT SUM(valor) FROM cotizacion_item 
[Mon, 31 Oct 16 14:41:13 -0500][DEBUG] DESCRIBE `usuario`
[Mon, 31 Oct 16 14:41:16 -0500][DEBUG] DESCRIBE `usuario`
[Mon, 31 Oct 16 14:41:16 -0500][DEBUG] DESCRIBE `cliente`
[Mon, 31 Oct 16 14:41:16 -0500][DEBUG] SELECT cliente.* FROM cliente WHERE  cliente.nombre LIKE '%CARLOS%'
[Mon, 31 Oct 16 14:41:18 -0500][DEBUG] DESCRIBE `usuario`
[Mon, 31 Oct 16 14:41:18 -0500][DEBUG] DESCRIBE `cliente`
[Mon, 31 Oct 16 14:41:18 -0500][DEBUG] SELECT id,nombre,cc,direccion,ciudad,email,telefono,celular,nota,estado,cliente_at FROM cliente WHERE id = 1 LIMIT 1
[Mon, 31 Oct 16 14:41:18 -0500][DEBUG] DESCRIBE `producto`
[Mon, 31 Oct 16 14:41:18 -0500][DEBUG] SELECT id,nombre,icono,estado,producto_at FROM producto WHERE estado=1
[Mon, 31 Oct 16 14:41:18 -0500][DEBUG] DESCRIBE `proveedor`
[Mon, 31 Oct 16 14:41:18 -0500][DEBUG] SELECT id,nombre,contacto,link,img,estado,proveedor_at FROM proveedor WHERE estado=1
[Mon, 31 Oct 16 14:45:38 -0500][DEBUG] DESCRIBE `usuario`
[Mon, 31 Oct 16 14:45:38 -0500][DEBUG] DESCRIBE `usuario`
[Mon, 31 Oct 16 14:45:38 -0500][DEBUG] DESCRIBE `producto`
[Mon, 31 Oct 16 14:45:38 -0500][DEBUG] SELECT COUNT(*) FROM producto 
[Mon, 31 Oct 16 14:45:38 -0500][DEBUG] SELECT producto.* FROM producto ORDER BY id ASC LIMIT 30 OFFSET 0
[Mon, 31 Oct 16 14:45:41 -0500][DEBUG] DESCRIBE `usuario`
[Mon, 31 Oct 16 14:47:27 -0500][DEBUG] DESCRIBE `usuario`
[Mon, 31 Oct 16 14:47:27 -0500][DEBUG] BEGIN
[Mon, 31 Oct 16 14:47:27 -0500][DEBUG] DESCRIBE `producto`
[Mon, 31 Oct 16 14:47:27 -0500][DEBUG] INSERT INTO producto (nombre,icono,estado,producto_at) VALUES ('ASISTENDIA MED','FA-HEARTBEAT','1','2016-10-31 14:47:27')
[Mon, 31 Oct 16 14:47:27 -0500][DEBUG] SELECT id,nombre,icono,estado,producto_at FROM producto WHERE id = 6 LIMIT 1
[Mon, 31 Oct 16 14:47:27 -0500][DEBUG] COMMIT
[Mon, 31 Oct 16 14:47:27 -0500][DEBUG] DESCRIBE `usuario`
[Mon, 31 Oct 16 14:47:27 -0500][DEBUG] DESCRIBE `producto`
[Mon, 31 Oct 16 14:47:27 -0500][DEBUG] SELECT COUNT(*) FROM producto 
[Mon, 31 Oct 16 14:47:27 -0500][DEBUG] SELECT producto.* FROM producto ORDER BY id ASC LIMIT 30 OFFSET 0
[Mon, 31 Oct 16 14:47:30 -0500][DEBUG] DESCRIBE `usuario`
[Mon, 31 Oct 16 14:47:30 -0500][DEBUG] DESCRIBE `usuario`
[Mon, 31 Oct 16 14:47:30 -0500][DEBUG] DESCRIBE `cotizacion`
[Mon, 31 Oct 16 14:47:30 -0500][DEBUG] SELECT COUNT(*) FROM cotizacion 
[Mon, 31 Oct 16 14:47:30 -0500][DEBUG] SELECT cotizacion.* FROM cotizacion ORDER BY id ASC LIMIT 30 OFFSET 0
[Mon, 31 Oct 16 14:47:30 -0500][DEBUG] DESCRIBE `cliente`
[Mon, 31 Oct 16 14:47:30 -0500][DEBUG] SELECT id,nombre,cc,direccion,ciudad,email,telefono,celular,nota,estado,cliente_at FROM cliente WHERE id = 1 LIMIT 1
[Mon, 31 Oct 16 14:47:30 -0500][DEBUG] DESCRIBE `cotizacion_item`
[Mon, 31 Oct 16 14:47:30 -0500][DEBUG] SELECT COUNT(*) FROM cotizacion_item  WHERE cotizacion_id =1 AND estado>=1
[Mon, 31 Oct 16 14:47:30 -0500][DEBUG] SELECT SUM(valor) FROM cotizacion_item 
[Mon, 31 Oct 16 14:47:30 -0500][DEBUG] SELECT id,nombre,cc,direccion,ciudad,email,telefono,celular,nota,estado,cliente_at FROM cliente WHERE id = 2 LIMIT 1
[Mon, 31 Oct 16 14:47:30 -0500][DEBUG] SELECT COUNT(*) FROM cotizacion_item  WHERE cotizacion_id =2 AND estado>=1
[Mon, 31 Oct 16 14:47:30 -0500][DEBUG] SELECT SUM(valor) FROM cotizacion_item 
[Mon, 31 Oct 16 14:47:30 -0500][DEBUG] SELECT id,nombre,cc,direccion,ciudad,email,telefono,celular,nota,estado,cliente_at FROM cliente WHERE id = 1 LIMIT 1
[Mon, 31 Oct 16 14:47:30 -0500][DEBUG] SELECT COUNT(*) FROM cotizacion_item  WHERE cotizacion_id =3 AND estado>=1
[Mon, 31 Oct 16 14:47:30 -0500][DEBUG] SELECT SUM(valor) FROM cotizacion_item 
[Mon, 31 Oct 16 14:47:30 -0500][DEBUG] SELECT id,nombre,cc,direccion,ciudad,email,telefono,celular,nota,estado,cliente_at FROM cliente WHERE id = 1 LIMIT 1
[Mon, 31 Oct 16 14:47:30 -0500][DEBUG] SELECT COUNT(*) FROM cotizacion_item  WHERE cotizacion_id =4 AND estado>=1
[Mon, 31 Oct 16 14:47:30 -0500][DEBUG] SELECT SUM(valor) FROM cotizacion_item 
[Mon, 31 Oct 16 14:47:30 -0500][DEBUG] SELECT id,nombre,cc,direccion,ciudad,email,telefono,celular,nota,estado,cliente_at FROM cliente WHERE id = 1 LIMIT 1
[Mon, 31 Oct 16 14:47:30 -0500][DEBUG] SELECT COUNT(*) FROM cotizacion_item  WHERE cotizacion_id =5 AND estado>=1
[Mon, 31 Oct 16 14:47:30 -0500][DEBUG] SELECT SUM(valor) FROM cotizacion_item 
[Mon, 31 Oct 16 14:47:30 -0500][DEBUG] SELECT id,nombre,cc,direccion,ciudad,email,telefono,celular,nota,estado,cliente_at FROM cliente WHERE id = 1 LIMIT 1
[Mon, 31 Oct 16 14:47:30 -0500][DEBUG] SELECT COUNT(*) FROM cotizacion_item  WHERE cotizacion_id =6 AND estado>=1
[Mon, 31 Oct 16 14:47:30 -0500][DEBUG] SELECT SUM(valor) FROM cotizacion_item 
[Mon, 31 Oct 16 14:47:30 -0500][DEBUG] SELECT id,nombre,cc,direccion,ciudad,email,telefono,celular,nota,estado,cliente_at FROM cliente WHERE id = 3 LIMIT 1
[Mon, 31 Oct 16 14:47:30 -0500][DEBUG] SELECT COUNT(*) FROM cotizacion_item  WHERE cotizacion_id =7 AND estado>=1
[Mon, 31 Oct 16 14:47:30 -0500][DEBUG] SELECT SUM(valor) FROM cotizacion_item 
[Mon, 31 Oct 16 14:47:32 -0500][DEBUG] DESCRIBE `usuario`
[Mon, 31 Oct 16 14:47:33 -0500][DEBUG] DESCRIBE `usuario`
[Mon, 31 Oct 16 14:47:33 -0500][DEBUG] DESCRIBE `cliente`
[Mon, 31 Oct 16 14:47:33 -0500][DEBUG] SELECT cliente.* FROM cliente WHERE  cliente.nombre LIKE '%CARLOS%'
[Mon, 31 Oct 16 14:47:35 -0500][DEBUG] DESCRIBE `usuario`
[Mon, 31 Oct 16 14:47:35 -0500][DEBUG] DESCRIBE `cliente`
[Mon, 31 Oct 16 14:47:35 -0500][DEBUG] SELECT id,nombre,cc,direccion,ciudad,email,telefono,celular,nota,estado,cliente_at FROM cliente WHERE id = 1 LIMIT 1
[Mon, 31 Oct 16 14:47:35 -0500][DEBUG] DESCRIBE `producto`
[Mon, 31 Oct 16 14:47:35 -0500][DEBUG] SELECT id,nombre,icono,estado,producto_at FROM producto WHERE estado=1
[Mon, 31 Oct 16 14:47:35 -0500][DEBUG] DESCRIBE `proveedor`
[Mon, 31 Oct 16 14:47:35 -0500][DEBUG] SELECT id,nombre,contacto,link,img,estado,proveedor_at FROM proveedor WHERE estado=1
[Mon, 31 Oct 16 14:47:43 -0500][DEBUG] DESCRIBE `usuario`
[Mon, 31 Oct 16 14:47:43 -0500][DEBUG] DESCRIBE `usuario`
[Mon, 31 Oct 16 14:47:43 -0500][DEBUG] DESCRIBE `producto`
[Mon, 31 Oct 16 14:47:43 -0500][DEBUG] SELECT COUNT(*) FROM producto 
[Mon, 31 Oct 16 14:47:43 -0500][DEBUG] SELECT producto.* FROM producto ORDER BY id ASC LIMIT 30 OFFSET 0
[Mon, 31 Oct 16 14:47:46 -0500][DEBUG] DESCRIBE `usuario`
[Mon, 31 Oct 16 14:47:46 -0500][DEBUG] DESCRIBE `producto`
[Mon, 31 Oct 16 14:47:46 -0500][DEBUG] SELECT id,nombre,icono,estado,producto_at FROM producto WHERE id = 6 LIMIT 1
[Mon, 31 Oct 16 14:47:51 -0500][DEBUG] DESCRIBE `usuario`
[Mon, 31 Oct 16 14:47:51 -0500][DEBUG] DESCRIBE `producto`
[Mon, 31 Oct 16 14:47:51 -0500][DEBUG] SELECT id,nombre,icono,estado,producto_at FROM producto WHERE id = 6 LIMIT 1
[Mon, 31 Oct 16 14:47:51 -0500][DEBUG] BEGIN
[Mon, 31 Oct 16 14:47:51 -0500][DEBUG] SELECT id,nombre,icono,estado,producto_at FROM producto WHERE id = 6 LIMIT 1
[Mon, 31 Oct 16 14:47:51 -0500][DEBUG] SELECT COUNT(*) FROM producto WHERE  id = '6'
[Mon, 31 Oct 16 14:47:51 -0500][DEBUG] SELECT COUNT(*) FROM producto WHERE  id = '6'
[Mon, 31 Oct 16 14:47:51 -0500][DEBUG] UPDATE producto SET nombre = 'ASISTENCIA MED',icono = 'FA-HEARTBEAT',estado = '1',producto_at = '2016-10-31 14:47:27' WHERE  id = '6'
[Mon, 31 Oct 16 14:47:51 -0500][DEBUG] COMMIT
[Mon, 31 Oct 16 14:47:51 -0500][DEBUG] DESCRIBE `usuario`
[Mon, 31 Oct 16 14:47:51 -0500][DEBUG] DESCRIBE `producto`
[Mon, 31 Oct 16 14:47:51 -0500][DEBUG] SELECT COUNT(*) FROM producto 
[Mon, 31 Oct 16 14:47:51 -0500][DEBUG] SELECT producto.* FROM producto ORDER BY id ASC LIMIT 30 OFFSET 0
[Mon, 31 Oct 16 14:47:53 -0500][DEBUG] DESCRIBE `usuario`
[Mon, 31 Oct 16 14:47:54 -0500][DEBUG] DESCRIBE `usuario`
[Mon, 31 Oct 16 14:47:54 -0500][DEBUG] DESCRIBE `proveedor`
[Mon, 31 Oct 16 14:47:54 -0500][DEBUG] SELECT COUNT(*) FROM proveedor 
[Mon, 31 Oct 16 14:47:54 -0500][DEBUG] SELECT proveedor.* FROM proveedor ORDER BY id ASC LIMIT 30 OFFSET 0
[Mon, 31 Oct 16 14:47:56 -0500][DEBUG] DESCRIBE `usuario`
[Mon, 31 Oct 16 14:47:56 -0500][DEBUG] DESCRIBE `usuario`
[Mon, 31 Oct 16 14:47:56 -0500][DEBUG] DESCRIBE `cotizacion`
[Mon, 31 Oct 16 14:47:56 -0500][DEBUG] SELECT COUNT(*) FROM cotizacion 
[Mon, 31 Oct 16 14:47:56 -0500][DEBUG] SELECT cotizacion.* FROM cotizacion ORDER BY id ASC LIMIT 30 OFFSET 0
[Mon, 31 Oct 16 14:47:56 -0500][DEBUG] DESCRIBE `cliente`
[Mon, 31 Oct 16 14:47:56 -0500][DEBUG] SELECT id,nombre,cc,direccion,ciudad,email,telefono,celular,nota,estado,cliente_at FROM cliente WHERE id = 1 LIMIT 1
[Mon, 31 Oct 16 14:47:56 -0500][DEBUG] DESCRIBE `cotizacion_item`
[Mon, 31 Oct 16 14:47:56 -0500][DEBUG] SELECT COUNT(*) FROM cotizacion_item  WHERE cotizacion_id =1 AND estado>=1
[Mon, 31 Oct 16 14:47:56 -0500][DEBUG] SELECT SUM(valor) FROM cotizacion_item 
[Mon, 31 Oct 16 14:47:56 -0500][DEBUG] SELECT id,nombre,cc,direccion,ciudad,email,telefono,celular,nota,estado,cliente_at FROM cliente WHERE id = 2 LIMIT 1
[Mon, 31 Oct 16 14:47:56 -0500][DEBUG] SELECT COUNT(*) FROM cotizacion_item  WHERE cotizacion_id =2 AND estado>=1
[Mon, 31 Oct 16 14:47:56 -0500][DEBUG] SELECT SUM(valor) FROM cotizacion_item 
[Mon, 31 Oct 16 14:47:56 -0500][DEBUG] SELECT id,nombre,cc,direccion,ciudad,email,telefono,celular,nota,estado,cliente_at FROM cliente WHERE id = 1 LIMIT 1
[Mon, 31 Oct 16 14:47:56 -0500][DEBUG] SELECT COUNT(*) FROM cotizacion_item  WHERE cotizacion_id =3 AND estado>=1
[Mon, 31 Oct 16 14:47:56 -0500][DEBUG] SELECT SUM(valor) FROM cotizacion_item 
[Mon, 31 Oct 16 14:47:56 -0500][DEBUG] SELECT id,nombre,cc,direccion,ciudad,email,telefono,celular,nota,estado,cliente_at FROM cliente WHERE id = 1 LIMIT 1
[Mon, 31 Oct 16 14:47:56 -0500][DEBUG] SELECT COUNT(*) FROM cotizacion_item  WHERE cotizacion_id =4 AND estado>=1
[Mon, 31 Oct 16 14:47:56 -0500][DEBUG] SELECT SUM(valor) FROM cotizacion_item 
[Mon, 31 Oct 16 14:47:56 -0500][DEBUG] SELECT id,nombre,cc,direccion,ciudad,email,telefono,celular,nota,estado,cliente_at FROM cliente WHERE id = 1 LIMIT 1
[Mon, 31 Oct 16 14:47:56 -0500][DEBUG] SELECT COUNT(*) FROM cotizacion_item  WHERE cotizacion_id =5 AND estado>=1
[Mon, 31 Oct 16 14:47:56 -0500][DEBUG] SELECT SUM(valor) FROM cotizacion_item 
[Mon, 31 Oct 16 14:47:56 -0500][DEBUG] SELECT id,nombre,cc,direccion,ciudad,email,telefono,celular,nota,estado,cliente_at FROM cliente WHERE id = 1 LIMIT 1
[Mon, 31 Oct 16 14:47:56 -0500][DEBUG] SELECT COUNT(*) FROM cotizacion_item  WHERE cotizacion_id =6 AND estado>=1
[Mon, 31 Oct 16 14:47:56 -0500][DEBUG] SELECT SUM(valor) FROM cotizacion_item 
[Mon, 31 Oct 16 14:47:56 -0500][DEBUG] SELECT id,nombre,cc,direccion,ciudad,email,telefono,celular,nota,estado,cliente_at FROM cliente WHERE id = 3 LIMIT 1
[Mon, 31 Oct 16 14:47:56 -0500][DEBUG] SELECT COUNT(*) FROM cotizacion_item  WHERE cotizacion_id =7 AND estado>=1
[Mon, 31 Oct 16 14:47:56 -0500][DEBUG] SELECT SUM(valor) FROM cotizacion_item 
[Mon, 31 Oct 16 14:47:58 -0500][DEBUG] DESCRIBE `usuario`
[Mon, 31 Oct 16 14:48:01 -0500][DEBUG] DESCRIBE `usuario`
[Mon, 31 Oct 16 14:48:01 -0500][DEBUG] DESCRIBE `cliente`
[Mon, 31 Oct 16 14:48:01 -0500][DEBUG] SELECT cliente.* FROM cliente WHERE  cliente.nombre LIKE '%CARLOS%'
[Mon, 31 Oct 16 14:48:03 -0500][DEBUG] DESCRIBE `usuario`
[Mon, 31 Oct 16 14:48:03 -0500][DEBUG] DESCRIBE `cliente`
[Mon, 31 Oct 16 14:48:03 -0500][DEBUG] SELECT id,nombre,cc,direccion,ciudad,email,telefono,celular,nota,estado,cliente_at FROM cliente WHERE id = 1 LIMIT 1
[Mon, 31 Oct 16 14:48:03 -0500][DEBUG] DESCRIBE `producto`
[Mon, 31 Oct 16 14:48:03 -0500][DEBUG] SELECT id,nombre,icono,estado,producto_at FROM producto WHERE estado=1
[Mon, 31 Oct 16 14:48:03 -0500][DEBUG] DESCRIBE `proveedor`
[Mon, 31 Oct 16 14:48:03 -0500][DEBUG] SELECT id,nombre,contacto,link,img,estado,proveedor_at FROM proveedor WHERE estado=1
[Mon, 31 Oct 16 14:48:16 -0500][DEBUG] DESCRIBE `usuario`
[Mon, 31 Oct 16 14:48:16 -0500][DEBUG] DESCRIBE `usuario`
[Mon, 31 Oct 16 14:48:16 -0500][DEBUG] DESCRIBE `producto`
[Mon, 31 Oct 16 14:48:16 -0500][DEBUG] SELECT COUNT(*) FROM producto 
[Mon, 31 Oct 16 14:48:16 -0500][DEBUG] SELECT producto.* FROM producto ORDER BY id ASC LIMIT 30 OFFSET 0
[Mon, 31 Oct 16 14:48:20 -0500][DEBUG] DESCRIBE `usuario`
[Mon, 31 Oct 16 14:48:20 -0500][DEBUG] DESCRIBE `producto`
[Mon, 31 Oct 16 14:48:20 -0500][DEBUG] SELECT id,nombre,icono,estado,producto_at FROM producto WHERE id = 6 LIMIT 1
[Mon, 31 Oct 16 14:48:32 -0500][DEBUG] DESCRIBE `usuario`
[Mon, 31 Oct 16 14:48:32 -0500][DEBUG] DESCRIBE `producto`
[Mon, 31 Oct 16 14:48:32 -0500][DEBUG] SELECT id,nombre,icono,estado,producto_at FROM producto WHERE id = 6 LIMIT 1
[Mon, 31 Oct 16 14:48:32 -0500][DEBUG] BEGIN
[Mon, 31 Oct 16 14:48:32 -0500][DEBUG] SELECT id,nombre,icono,estado,producto_at FROM producto WHERE id = 6 LIMIT 1
[Mon, 31 Oct 16 14:48:32 -0500][DEBUG] SELECT COUNT(*) FROM producto WHERE  id = '6'
[Mon, 31 Oct 16 14:48:32 -0500][DEBUG] SELECT COUNT(*) FROM producto WHERE  id = '6'
[Mon, 31 Oct 16 14:48:32 -0500][DEBUG] UPDATE producto SET nombre = 'ASIST. MED',icono = 'FA-HEARTBEAT',estado = '1',producto_at = '2016-10-31 14:47:27' WHERE  id = '6'
[Mon, 31 Oct 16 14:48:32 -0500][DEBUG] COMMIT
[Mon, 31 Oct 16 14:48:32 -0500][DEBUG] DESCRIBE `usuario`
[Mon, 31 Oct 16 14:48:32 -0500][DEBUG] DESCRIBE `producto`
[Mon, 31 Oct 16 14:48:32 -0500][DEBUG] SELECT COUNT(*) FROM producto 
[Mon, 31 Oct 16 14:48:32 -0500][DEBUG] SELECT producto.* FROM producto ORDER BY id ASC LIMIT 30 OFFSET 0
[Mon, 31 Oct 16 14:48:39 -0500][DEBUG] DESCRIBE `usuario`
[Mon, 31 Oct 16 14:48:39 -0500][DEBUG] DESCRIBE `usuario`
[Mon, 31 Oct 16 14:48:39 -0500][DEBUG] DESCRIBE `cotizacion`
[Mon, 31 Oct 16 14:48:39 -0500][DEBUG] SELECT COUNT(*) FROM cotizacion 
[Mon, 31 Oct 16 14:48:39 -0500][DEBUG] SELECT cotizacion.* FROM cotizacion ORDER BY id ASC LIMIT 30 OFFSET 0
[Mon, 31 Oct 16 14:48:39 -0500][DEBUG] DESCRIBE `cliente`
[Mon, 31 Oct 16 14:48:39 -0500][DEBUG] SELECT id,nombre,cc,direccion,ciudad,email,telefono,celular,nota,estado,cliente_at FROM cliente WHERE id = 1 LIMIT 1
[Mon, 31 Oct 16 14:48:39 -0500][DEBUG] DESCRIBE `cotizacion_item`
[Mon, 31 Oct 16 14:48:39 -0500][DEBUG] SELECT COUNT(*) FROM cotizacion_item  WHERE cotizacion_id =1 AND estado>=1
[Mon, 31 Oct 16 14:48:39 -0500][DEBUG] SELECT SUM(valor) FROM cotizacion_item 
[Mon, 31 Oct 16 14:48:39 -0500][DEBUG] SELECT id,nombre,cc,direccion,ciudad,email,telefono,celular,nota,estado,cliente_at FROM cliente WHERE id = 2 LIMIT 1
[Mon, 31 Oct 16 14:48:39 -0500][DEBUG] SELECT COUNT(*) FROM cotizacion_item  WHERE cotizacion_id =2 AND estado>=1
[Mon, 31 Oct 16 14:48:39 -0500][DEBUG] SELECT SUM(valor) FROM cotizacion_item 
[Mon, 31 Oct 16 14:48:39 -0500][DEBUG] SELECT id,nombre,cc,direccion,ciudad,email,telefono,celular,nota,estado,cliente_at FROM cliente WHERE id = 1 LIMIT 1
[Mon, 31 Oct 16 14:48:39 -0500][DEBUG] SELECT COUNT(*) FROM cotizacion_item  WHERE cotizacion_id =3 AND estado>=1
[Mon, 31 Oct 16 14:48:39 -0500][DEBUG] SELECT SUM(valor) FROM cotizacion_item 
[Mon, 31 Oct 16 14:48:39 -0500][DEBUG] SELECT id,nombre,cc,direccion,ciudad,email,telefono,celular,nota,estado,cliente_at FROM cliente WHERE id = 1 LIMIT 1
[Mon, 31 Oct 16 14:48:39 -0500][DEBUG] SELECT COUNT(*) FROM cotizacion_item  WHERE cotizacion_id =4 AND estado>=1
[Mon, 31 Oct 16 14:48:39 -0500][DEBUG] SELECT SUM(valor) FROM cotizacion_item 
[Mon, 31 Oct 16 14:48:39 -0500][DEBUG] SELECT id,nombre,cc,direccion,ciudad,email,telefono,celular,nota,estado,cliente_at FROM cliente WHERE id = 1 LIMIT 1
[Mon, 31 Oct 16 14:48:39 -0500][DEBUG] SELECT COUNT(*) FROM cotizacion_item  WHERE cotizacion_id =5 AND estado>=1
[Mon, 31 Oct 16 14:48:39 -0500][DEBUG] SELECT SUM(valor) FROM cotizacion_item 
[Mon, 31 Oct 16 14:48:39 -0500][DEBUG] SELECT id,nombre,cc,direccion,ciudad,email,telefono,celular,nota,estado,cliente_at FROM cliente WHERE id = 1 LIMIT 1
[Mon, 31 Oct 16 14:48:39 -0500][DEBUG] SELECT COUNT(*) FROM cotizacion_item  WHERE cotizacion_id =6 AND estado>=1
[Mon, 31 Oct 16 14:48:39 -0500][DEBUG] SELECT SUM(valor) FROM cotizacion_item 
[Mon, 31 Oct 16 14:48:39 -0500][DEBUG] SELECT id,nombre,cc,direccion,ciudad,email,telefono,celular,nota,estado,cliente_at FROM cliente WHERE id = 3 LIMIT 1
[Mon, 31 Oct 16 14:48:39 -0500][DEBUG] SELECT COUNT(*) FROM cotizacion_item  WHERE cotizacion_id =7 AND estado>=1
[Mon, 31 Oct 16 14:48:39 -0500][DEBUG] SELECT SUM(valor) FROM cotizacion_item 
[Mon, 31 Oct 16 14:48:44 -0500][DEBUG] DESCRIBE `usuario`
[Mon, 31 Oct 16 14:48:50 -0500][DEBUG] DESCRIBE `usuario`
[Mon, 31 Oct 16 14:48:50 -0500][DEBUG] DESCRIBE `cliente`
[Mon, 31 Oct 16 14:48:50 -0500][DEBUG] SELECT cliente.* FROM cliente WHERE  cliente.nombre LIKE '%CARLOS%'
[Mon, 31 Oct 16 14:48:54 -0500][DEBUG] DESCRIBE `usuario`
[Mon, 31 Oct 16 14:48:54 -0500][DEBUG] DESCRIBE `cliente`
[Mon, 31 Oct 16 14:48:54 -0500][DEBUG] SELECT id,nombre,cc,direccion,ciudad,email,telefono,celular,nota,estado,cliente_at FROM cliente WHERE id = 1 LIMIT 1
[Mon, 31 Oct 16 14:48:54 -0500][DEBUG] DESCRIBE `producto`
[Mon, 31 Oct 16 14:48:54 -0500][DEBUG] SELECT id,nombre,icono,estado,producto_at FROM producto WHERE estado=1
[Mon, 31 Oct 16 14:48:54 -0500][DEBUG] DESCRIBE `proveedor`
[Mon, 31 Oct 16 14:48:54 -0500][DEBUG] SELECT id,nombre,contacto,link,img,estado,proveedor_at FROM proveedor WHERE estado=1
[Mon, 31 Oct 16 14:50:13 -0500][DEBUG] DESCRIBE `usuario`
[Mon, 31 Oct 16 14:50:13 -0500][DEBUG] DESCRIBE `cliente`
[Mon, 31 Oct 16 14:50:13 -0500][DEBUG] SELECT id,nombre,cc,direccion,ciudad,email,telefono,celular,nota,estado,cliente_at FROM cliente WHERE id = 1 LIMIT 1
[Mon, 31 Oct 16 14:50:13 -0500][DEBUG] DESCRIBE `producto`
[Mon, 31 Oct 16 14:50:13 -0500][DEBUG] SELECT id,nombre,icono,estado,producto_at FROM producto WHERE estado=1
[Mon, 31 Oct 16 14:50:13 -0500][DEBUG] DESCRIBE `proveedor`
[Mon, 31 Oct 16 14:50:13 -0500][DEBUG] SELECT id,nombre,contacto,link,img,estado,proveedor_at FROM proveedor WHERE estado=1
[Mon, 31 Oct 16 14:50:13 -0500][DEBUG] DESCRIBE `menu`
[Mon, 31 Oct 16 14:51:09 -0500][DEBUG] DESCRIBE `usuario`
[Mon, 31 Oct 16 14:51:09 -0500][DEBUG] DESCRIBE `usuario`
[Mon, 31 Oct 16 14:51:09 -0500][DEBUG] DESCRIBE `producto`
[Mon, 31 Oct 16 14:51:09 -0500][DEBUG] SELECT COUNT(*) FROM producto 
[Mon, 31 Oct 16 14:51:09 -0500][DEBUG] SELECT producto.* FROM producto ORDER BY id ASC LIMIT 30 OFFSET 0
[Mon, 31 Oct 16 14:51:11 -0500][DEBUG] DESCRIBE `usuario`
[Mon, 31 Oct 16 14:51:11 -0500][DEBUG] DESCRIBE `producto`
[Mon, 31 Oct 16 14:51:11 -0500][DEBUG] SELECT id,nombre,icono,estado,producto_at FROM producto WHERE id = 6 LIMIT 1
[Mon, 31 Oct 16 14:51:17 -0500][DEBUG] DESCRIBE `usuario`
[Mon, 31 Oct 16 14:51:17 -0500][DEBUG] DESCRIBE `producto`
[Mon, 31 Oct 16 14:51:17 -0500][DEBUG] SELECT id,nombre,icono,estado,producto_at FROM producto WHERE id = 6 LIMIT 1
[Mon, 31 Oct 16 14:51:17 -0500][DEBUG] BEGIN
[Mon, 31 Oct 16 14:51:17 -0500][DEBUG] SELECT id,nombre,icono,estado,producto_at FROM producto WHERE id = 6 LIMIT 1
[Mon, 31 Oct 16 14:51:17 -0500][DEBUG] SELECT COUNT(*) FROM producto WHERE  id = '6'
[Mon, 31 Oct 16 14:51:17 -0500][DEBUG] SELECT COUNT(*) FROM producto WHERE  id = '6'
[Mon, 31 Oct 16 14:51:17 -0500][DEBUG] UPDATE producto SET nombre = 'ASISTENCIA',icono = 'FA-HEARTBEAT',estado = '1',producto_at = '2016-10-31 14:47:27' WHERE  id = '6'
[Mon, 31 Oct 16 14:51:17 -0500][DEBUG] COMMIT
[Mon, 31 Oct 16 14:51:17 -0500][DEBUG] DESCRIBE `usuario`
[Mon, 31 Oct 16 14:51:17 -0500][DEBUG] DESCRIBE `producto`
[Mon, 31 Oct 16 14:51:17 -0500][DEBUG] SELECT COUNT(*) FROM producto 
[Mon, 31 Oct 16 14:51:17 -0500][DEBUG] SELECT producto.* FROM producto ORDER BY id ASC LIMIT 30 OFFSET 0
[Mon, 31 Oct 16 14:51:19 -0500][DEBUG] DESCRIBE `usuario`
[Mon, 31 Oct 16 14:51:19 -0500][DEBUG] DESCRIBE `usuario`
[Mon, 31 Oct 16 14:51:19 -0500][DEBUG] DESCRIBE `cotizacion`
[Mon, 31 Oct 16 14:51:19 -0500][DEBUG] SELECT COUNT(*) FROM cotizacion 
[Mon, 31 Oct 16 14:51:19 -0500][DEBUG] SELECT cotizacion.* FROM cotizacion ORDER BY id ASC LIMIT 30 OFFSET 0
[Mon, 31 Oct 16 14:51:19 -0500][DEBUG] DESCRIBE `cliente`
[Mon, 31 Oct 16 14:51:19 -0500][DEBUG] SELECT id,nombre,cc,direccion,ciudad,email,telefono,celular,nota,estado,cliente_at FROM cliente WHERE id = 1 LIMIT 1
[Mon, 31 Oct 16 14:51:19 -0500][DEBUG] DESCRIBE `cotizacion_item`
[Mon, 31 Oct 16 14:51:19 -0500][DEBUG] SELECT COUNT(*) FROM cotizacion_item  WHERE cotizacion_id =1 AND estado>=1
[Mon, 31 Oct 16 14:51:19 -0500][DEBUG] SELECT SUM(valor) FROM cotizacion_item 
[Mon, 31 Oct 16 14:51:19 -0500][DEBUG] SELECT id,nombre,cc,direccion,ciudad,email,telefono,celular,nota,estado,cliente_at FROM cliente WHERE id = 2 LIMIT 1
[Mon, 31 Oct 16 14:51:19 -0500][DEBUG] SELECT COUNT(*) FROM cotizacion_item  WHERE cotizacion_id =2 AND estado>=1
[Mon, 31 Oct 16 14:51:19 -0500][DEBUG] SELECT SUM(valor) FROM cotizacion_item 
[Mon, 31 Oct 16 14:51:19 -0500][DEBUG] SELECT id,nombre,cc,direccion,ciudad,email,telefono,celular,nota,estado,cliente_at FROM cliente WHERE id = 1 LIMIT 1
[Mon, 31 Oct 16 14:51:19 -0500][DEBUG] SELECT COUNT(*) FROM cotizacion_item  WHERE cotizacion_id =3 AND estado>=1
[Mon, 31 Oct 16 14:51:19 -0500][DEBUG] SELECT SUM(valor) FROM cotizacion_item 
[Mon, 31 Oct 16 14:51:19 -0500][DEBUG] SELECT id,nombre,cc,direccion,ciudad,email,telefono,celular,nota,estado,cliente_at FROM cliente WHERE id = 1 LIMIT 1
[Mon, 31 Oct 16 14:51:19 -0500][DEBUG] SELECT COUNT(*) FROM cotizacion_item  WHERE cotizacion_id =4 AND estado>=1
[Mon, 31 Oct 16 14:51:19 -0500][DEBUG] SELECT SUM(valor) FROM cotizacion_item 
[Mon, 31 Oct 16 14:51:19 -0500][DEBUG] SELECT id,nombre,cc,direccion,ciudad,email,telefono,celular,nota,estado,cliente_at FROM cliente WHERE id = 1 LIMIT 1
[Mon, 31 Oct 16 14:51:19 -0500][DEBUG] SELECT COUNT(*) FROM cotizacion_item  WHERE cotizacion_id =5 AND estado>=1
[Mon, 31 Oct 16 14:51:19 -0500][DEBUG] SELECT SUM(valor) FROM cotizacion_item 
[Mon, 31 Oct 16 14:51:19 -0500][DEBUG] SELECT id,nombre,cc,direccion,ciudad,email,telefono,celular,nota,estado,cliente_at FROM cliente WHERE id = 1 LIMIT 1
[Mon, 31 Oct 16 14:51:19 -0500][DEBUG] SELECT COUNT(*) FROM cotizacion_item  WHERE cotizacion_id =6 AND estado>=1
[Mon, 31 Oct 16 14:51:19 -0500][DEBUG] SELECT SUM(valor) FROM cotizacion_item 
[Mon, 31 Oct 16 14:51:19 -0500][DEBUG] SELECT id,nombre,cc,direccion,ciudad,email,telefono,celular,nota,estado,cliente_at FROM cliente WHERE id = 3 LIMIT 1
[Mon, 31 Oct 16 14:51:19 -0500][DEBUG] SELECT COUNT(*) FROM cotizacion_item  WHERE cotizacion_id =7 AND estado>=1
[Mon, 31 Oct 16 14:51:19 -0500][DEBUG] SELECT SUM(valor) FROM cotizacion_item 
[Mon, 31 Oct 16 14:51:21 -0500][DEBUG] DESCRIBE `usuario`
[Mon, 31 Oct 16 14:51:23 -0500][DEBUG] DESCRIBE `usuario`
[Mon, 31 Oct 16 14:51:23 -0500][DEBUG] DESCRIBE `cliente`
[Mon, 31 Oct 16 14:51:23 -0500][DEBUG] SELECT cliente.* FROM cliente WHERE  cliente.nombre LIKE '%CARLOS%'
[Mon, 31 Oct 16 14:51:25 -0500][DEBUG] DESCRIBE `usuario`
[Mon, 31 Oct 16 14:51:25 -0500][DEBUG] DESCRIBE `cliente`
[Mon, 31 Oct 16 14:51:25 -0500][DEBUG] SELECT id,nombre,cc,direccion,ciudad,email,telefono,celular,nota,estado,cliente_at FROM cliente WHERE id = 1 LIMIT 1
[Mon, 31 Oct 16 14:51:25 -0500][DEBUG] DESCRIBE `producto`
[Mon, 31 Oct 16 14:51:25 -0500][DEBUG] SELECT id,nombre,icono,estado,producto_at FROM producto WHERE estado=1
[Mon, 31 Oct 16 14:51:25 -0500][DEBUG] DESCRIBE `proveedor`
[Mon, 31 Oct 16 14:51:25 -0500][DEBUG] SELECT id,nombre,contacto,link,img,estado,proveedor_at FROM proveedor WHERE estado=1
[Mon, 31 Oct 16 14:52:59 -0500][DEBUG] DESCRIBE `usuario`
[Mon, 31 Oct 16 14:52:59 -0500][DEBUG] DESCRIBE `cliente`
[Mon, 31 Oct 16 14:52:59 -0500][DEBUG] SELECT id,nombre,cc,direccion,ciudad,email,telefono,celular,nota,estado,cliente_at FROM cliente WHERE id = 1 LIMIT 1
[Mon, 31 Oct 16 14:52:59 -0500][DEBUG] DESCRIBE `producto`
[Mon, 31 Oct 16 14:52:59 -0500][DEBUG] SELECT id,nombre,icono,estado,producto_at FROM producto WHERE estado=1
[Mon, 31 Oct 16 14:52:59 -0500][DEBUG] DESCRIBE `proveedor`
[Mon, 31 Oct 16 14:52:59 -0500][DEBUG] SELECT id,nombre,contacto,link,img,estado,proveedor_at FROM proveedor WHERE estado=1
[Mon, 31 Oct 16 14:52:59 -0500][DEBUG] DESCRIBE `menu`
[Mon, 31 Oct 16 14:54:16 -0500][DEBUG] DESCRIBE `usuario`
[Mon, 31 Oct 16 14:54:16 -0500][DEBUG] DESCRIBE `cliente`
[Mon, 31 Oct 16 14:54:16 -0500][DEBUG] SELECT id,nombre,cc,direccion,ciudad,email,telefono,celular,nota,estado,cliente_at FROM cliente WHERE id = 1 LIMIT 1
[Mon, 31 Oct 16 14:54:16 -0500][DEBUG] DESCRIBE `producto`
[Mon, 31 Oct 16 14:54:16 -0500][DEBUG] SELECT id,nombre,icono,estado,producto_at FROM producto WHERE estado=1
[Mon, 31 Oct 16 14:54:16 -0500][DEBUG] DESCRIBE `proveedor`
[Mon, 31 Oct 16 14:54:16 -0500][DEBUG] SELECT id,nombre,contacto,link,img,estado,proveedor_at FROM proveedor WHERE estado=1
[Mon, 31 Oct 16 14:54:16 -0500][DEBUG] DESCRIBE `menu`
[Mon, 31 Oct 16 14:54:24 -0500][DEBUG] DESCRIBE `usuario`
[Mon, 31 Oct 16 14:54:24 -0500][DEBUG] DESCRIBE `cliente`
[Mon, 31 Oct 16 14:54:24 -0500][DEBUG] SELECT id,nombre,cc,direccion,ciudad,email,telefono,celular,nota,estado,cliente_at FROM cliente WHERE id = 1 LIMIT 1
[Mon, 31 Oct 16 14:54:24 -0500][DEBUG] DESCRIBE `producto`
[Mon, 31 Oct 16 14:54:24 -0500][DEBUG] SELECT id,nombre,icono,estado,producto_at FROM producto WHERE estado=1
[Mon, 31 Oct 16 14:54:24 -0500][DEBUG] DESCRIBE `proveedor`
[Mon, 31 Oct 16 14:54:24 -0500][DEBUG] SELECT id,nombre,contacto,link,img,estado,proveedor_at FROM proveedor WHERE estado=1
[Mon, 31 Oct 16 14:54:24 -0500][DEBUG] DESCRIBE `menu`
[Mon, 31 Oct 16 15:21:00 -0500][DEBUG] DESCRIBE `usuario`
[Mon, 31 Oct 16 15:21:00 -0500][DEBUG] DESCRIBE `cliente`
[Mon, 31 Oct 16 15:21:00 -0500][DEBUG] SELECT id,nombre,cc,direccion,ciudad,email,telefono,celular,nota,estado,cliente_at FROM cliente WHERE id = 1 LIMIT 1
[Mon, 31 Oct 16 15:21:00 -0500][DEBUG] DESCRIBE `producto`
[Mon, 31 Oct 16 15:21:00 -0500][DEBUG] SELECT id,nombre,icono,estado,producto_at FROM producto WHERE estado=1
[Mon, 31 Oct 16 15:21:00 -0500][DEBUG] DESCRIBE `proveedor`
[Mon, 31 Oct 16 15:21:00 -0500][DEBUG] SELECT id,nombre,contacto,link,img,estado,proveedor_at FROM proveedor WHERE estado=1
[Mon, 31 Oct 16 15:21:00 -0500][DEBUG] DESCRIBE `menu`
[Mon, 31 Oct 16 15:21:32 -0500][DEBUG] DESCRIBE `usuario`
[Mon, 31 Oct 16 15:21:32 -0500][DEBUG] DESCRIBE `cliente`
[Mon, 31 Oct 16 15:21:32 -0500][DEBUG] SELECT id,nombre,cc,direccion,ciudad,email,telefono,celular,nota,estado,cliente_at FROM cliente WHERE id = 1 LIMIT 1
[Mon, 31 Oct 16 15:21:32 -0500][DEBUG] DESCRIBE `producto`
[Mon, 31 Oct 16 15:21:32 -0500][DEBUG] SELECT id,nombre,icono,estado,producto_at FROM producto WHERE estado=1
[Mon, 31 Oct 16 15:21:32 -0500][DEBUG] DESCRIBE `proveedor`
[Mon, 31 Oct 16 15:21:32 -0500][DEBUG] SELECT id,nombre,contacto,link,img,estado,proveedor_at FROM proveedor WHERE estado=1
[Mon, 31 Oct 16 15:21:32 -0500][DEBUG] DESCRIBE `menu`
[Mon, 31 Oct 16 15:23:20 -0500][DEBUG] DESCRIBE `usuario`
[Mon, 31 Oct 16 15:23:20 -0500][DEBUG] DESCRIBE `cliente`
[Mon, 31 Oct 16 15:23:20 -0500][DEBUG] SELECT id,nombre,cc,direccion,ciudad,email,telefono,celular,nota,estado,cliente_at FROM cliente WHERE id = 1 LIMIT 1
[Mon, 31 Oct 16 15:23:20 -0500][DEBUG] DESCRIBE `producto`
[Mon, 31 Oct 16 15:23:20 -0500][DEBUG] SELECT id,nombre,icono,estado,producto_at FROM producto WHERE estado=1
[Mon, 31 Oct 16 15:23:20 -0500][DEBUG] DESCRIBE `proveedor`
[Mon, 31 Oct 16 15:23:21 -0500][DEBUG] SELECT id,nombre,contacto,link,img,estado,proveedor_at FROM proveedor WHERE estado=1
[Mon, 31 Oct 16 15:23:21 -0500][DEBUG] DESCRIBE `menu`
[Mon, 31 Oct 16 15:28:49 -0500][DEBUG] DESCRIBE `usuario`
[Mon, 31 Oct 16 15:28:49 -0500][DEBUG] DESCRIBE `cliente`
[Mon, 31 Oct 16 15:28:49 -0500][DEBUG] SELECT id,nombre,cc,direccion,ciudad,email,telefono,celular,nota,estado,cliente_at FROM cliente WHERE id = 1 LIMIT 1
[Mon, 31 Oct 16 15:28:49 -0500][DEBUG] DESCRIBE `producto`
[Mon, 31 Oct 16 15:28:49 -0500][DEBUG] SELECT id,nombre,icono,estado,producto_at FROM producto WHERE estado=1
[Mon, 31 Oct 16 15:28:49 -0500][DEBUG] DESCRIBE `proveedor`
[Mon, 31 Oct 16 15:28:49 -0500][DEBUG] SELECT id,nombre,contacto,link,img,estado,proveedor_at FROM proveedor WHERE estado=1
[Mon, 31 Oct 16 15:28:49 -0500][DEBUG] DESCRIBE `menu`
[Mon, 31 Oct 16 15:29:25 -0500][DEBUG] DESCRIBE `usuario`
[Mon, 31 Oct 16 15:29:25 -0500][DEBUG] DESCRIBE `cliente`
[Mon, 31 Oct 16 15:29:25 -0500][DEBUG] SELECT id,nombre,cc,direccion,ciudad,email,telefono,celular,nota,estado,cliente_at FROM cliente WHERE id = 1 LIMIT 1
[Mon, 31 Oct 16 15:29:25 -0500][DEBUG] DESCRIBE `producto`
[Mon, 31 Oct 16 15:29:25 -0500][DEBUG] SELECT id,nombre,icono,estado,producto_at FROM producto WHERE estado=1
[Mon, 31 Oct 16 15:29:25 -0500][DEBUG] DESCRIBE `proveedor`
[Mon, 31 Oct 16 15:29:25 -0500][DEBUG] SELECT id,nombre,contacto,link,img,estado,proveedor_at FROM proveedor WHERE estado=1
[Mon, 31 Oct 16 15:29:26 -0500][DEBUG] DESCRIBE `menu`
[Mon, 31 Oct 16 15:30:14 -0500][DEBUG] DESCRIBE `usuario`
[Mon, 31 Oct 16 15:30:14 -0500][DEBUG] DESCRIBE `cliente`
[Mon, 31 Oct 16 15:30:14 -0500][DEBUG] SELECT id,nombre,cc,direccion,ciudad,email,telefono,celular,nota,estado,cliente_at FROM cliente WHERE id = 1 LIMIT 1
[Mon, 31 Oct 16 15:30:14 -0500][DEBUG] DESCRIBE `producto`
[Mon, 31 Oct 16 15:30:14 -0500][DEBUG] SELECT id,nombre,icono,estado,producto_at FROM producto WHERE estado=1
[Mon, 31 Oct 16 15:30:14 -0500][DEBUG] DESCRIBE `proveedor`
[Mon, 31 Oct 16 15:30:14 -0500][DEBUG] SELECT id,nombre,contacto,link,img,estado,proveedor_at FROM proveedor WHERE estado=1
[Mon, 31 Oct 16 15:30:14 -0500][DEBUG] DESCRIBE `menu`
[Mon, 31 Oct 16 15:30:33 -0500][DEBUG] DESCRIBE `usuario`
[Mon, 31 Oct 16 15:30:33 -0500][DEBUG] DESCRIBE `cliente`
[Mon, 31 Oct 16 15:30:33 -0500][DEBUG] SELECT id,nombre,cc,direccion,ciudad,email,telefono,celular,nota,estado,cliente_at FROM cliente WHERE id = 1 LIMIT 1
[Mon, 31 Oct 16 15:30:33 -0500][DEBUG] DESCRIBE `producto`
[Mon, 31 Oct 16 15:30:33 -0500][DEBUG] SELECT id,nombre,icono,estado,producto_at FROM producto WHERE estado=1
[Mon, 31 Oct 16 15:30:33 -0500][DEBUG] DESCRIBE `proveedor`
[Mon, 31 Oct 16 15:30:33 -0500][DEBUG] SELECT id,nombre,contacto,link,img,estado,proveedor_at FROM proveedor WHERE estado=1
[Mon, 31 Oct 16 15:30:33 -0500][DEBUG] DESCRIBE `menu`
[Mon, 31 Oct 16 15:31:07 -0500][DEBUG] DESCRIBE `usuario`
[Mon, 31 Oct 16 15:31:07 -0500][DEBUG] DESCRIBE `cliente`
[Mon, 31 Oct 16 15:31:07 -0500][DEBUG] SELECT id,nombre,cc,direccion,ciudad,email,telefono,celular,nota,estado,cliente_at FROM cliente WHERE id = 1 LIMIT 1
[Mon, 31 Oct 16 15:31:07 -0500][DEBUG] DESCRIBE `producto`
[Mon, 31 Oct 16 15:31:07 -0500][DEBUG] SELECT id,nombre,icono,estado,producto_at FROM producto WHERE estado=1
[Mon, 31 Oct 16 15:31:07 -0500][DEBUG] DESCRIBE `proveedor`
[Mon, 31 Oct 16 15:31:07 -0500][DEBUG] SELECT id,nombre,contacto,link,img,estado,proveedor_at FROM proveedor WHERE estado=1
[Mon, 31 Oct 16 15:31:07 -0500][DEBUG] DESCRIBE `menu`
[Mon, 31 Oct 16 15:31:42 -0500][DEBUG] DESCRIBE `usuario`
[Mon, 31 Oct 16 15:31:42 -0500][DEBUG] DESCRIBE `cliente`
[Mon, 31 Oct 16 15:31:42 -0500][DEBUG] SELECT id,nombre,cc,direccion,ciudad,email,telefono,celular,nota,estado,cliente_at FROM cliente WHERE id = 1 LIMIT 1
[Mon, 31 Oct 16 15:31:42 -0500][DEBUG] DESCRIBE `producto`
[Mon, 31 Oct 16 15:31:42 -0500][DEBUG] SELECT id,nombre,icono,estado,producto_at FROM producto WHERE estado=1
[Mon, 31 Oct 16 15:31:42 -0500][DEBUG] DESCRIBE `proveedor`
[Mon, 31 Oct 16 15:31:42 -0500][DEBUG] SELECT id,nombre,contacto,link,img,estado,proveedor_at FROM proveedor WHERE estado=1
[Mon, 31 Oct 16 15:31:42 -0500][DEBUG] DESCRIBE `menu`
[Mon, 31 Oct 16 15:32:58 -0500][DEBUG] DESCRIBE `usuario`
[Mon, 31 Oct 16 15:32:58 -0500][DEBUG] DESCRIBE `cliente`
[Mon, 31 Oct 16 15:32:58 -0500][DEBUG] SELECT id,nombre,cc,direccion,ciudad,email,telefono,celular,nota,estado,cliente_at FROM cliente WHERE id = 1 LIMIT 1
[Mon, 31 Oct 16 15:32:58 -0500][DEBUG] DESCRIBE `producto`
[Mon, 31 Oct 16 15:32:58 -0500][DEBUG] SELECT id,nombre,icono,estado,producto_at FROM producto WHERE estado=1
[Mon, 31 Oct 16 15:32:58 -0500][DEBUG] DESCRIBE `proveedor`
[Mon, 31 Oct 16 15:32:59 -0500][DEBUG] SELECT id,nombre,contacto,link,img,estado,proveedor_at FROM proveedor WHERE estado=1
[Mon, 31 Oct 16 15:32:59 -0500][DEBUG] DESCRIBE `menu`
[Mon, 31 Oct 16 15:33:14 -0500][DEBUG] DESCRIBE `usuario`
[Mon, 31 Oct 16 15:33:14 -0500][DEBUG] DESCRIBE `cliente`
[Mon, 31 Oct 16 15:33:14 -0500][DEBUG] SELECT id,nombre,cc,direccion,ciudad,email,telefono,celular,nota,estado,cliente_at FROM cliente WHERE id = 1 LIMIT 1
[Mon, 31 Oct 16 15:33:14 -0500][DEBUG] DESCRIBE `producto`
[Mon, 31 Oct 16 15:33:14 -0500][DEBUG] SELECT id,nombre,icono,estado,producto_at FROM producto WHERE estado=1
[Mon, 31 Oct 16 15:33:14 -0500][DEBUG] DESCRIBE `proveedor`
[Mon, 31 Oct 16 15:33:14 -0500][DEBUG] SELECT id,nombre,contacto,link,img,estado,proveedor_at FROM proveedor WHERE estado=1
[Mon, 31 Oct 16 15:33:14 -0500][DEBUG] DESCRIBE `menu`
