[Sat, 03 Sep 16 07:49:00 -0500][DEBUG] DESCRIBE `usuario`
[Sat, 03 Sep 16 07:49:00 -0500][DEBUG] DESCRIBE `cliente`
[Sat, 03 Sep 16 07:49:00 -0500][DEBUG] SELECT COUNT(*) FROM cliente 
[Sat, 03 Sep 16 07:49:00 -0500][DEBUG] DESCRIBE `menu`
[Sat, 03 Sep 16 11:00:07 -0500][DEBUG] DESCRIBE `usuario`
[Sat, 03 Sep 16 11:00:12 -0500][DEBUG] DESCRIBE `usuario`
