[Mon, 28 Aug 17 10:43:24 -0500][DEBUG] DESCRIBE `usuario`
[Mon, 28 Aug 17 10:43:27 -0500][DEBUG] DESCRIBE `usuario`
[Mon, 28 Aug 17 10:43:27 -0500][DEBUG] SELECT id,nombre,apellido,password,perfil_id,email,tema,app_ajax,datagrid,fotografia,pool,usuario_at,usuario_in FROM usuario WHERE email = 'admin@servidigital.co' AND password = '7c4a8d09ca3762af61e59520943dc26494f8941b' LIMIT 1
[Mon, 28 Aug 17 10:43:27 -0500][DEBUG] SELECT usuario.*, perfil.perfil, estado_usuario.estado_usuario FROM usuario INNER JOIN perfil ON perfil.id = usuario.perfil_id INNER JOIN (SELECT usuario_id, estado_usuario, descripcion, estado_usuario_at FROM (SELECT * FROM estado_usuario ORDER BY estado_usuario.id DESC ) AS estado_usuario GROUP BY estado_usuario.usuario_id ) AS estado_usuario ON estado_usuario.usuario_id = usuario.id  WHERE usuario.id = '2' LIMIT 1
[Mon, 28 Aug 17 10:43:27 -0500][DEBUG] DESCRIBE `acceso`
[Mon, 28 Aug 17 10:43:27 -0500][DEBUG] INSERT INTO acceso (usuario_id,tipo_acceso,ip,acceso_at) VALUES ('2','1','::1','2017-08-28 10:43:27')
[Mon, 28 Aug 17 10:43:27 -0500][DEBUG] SELECT id,usuario_id,tipo_acceso,ip,acceso_at FROM acceso WHERE id = 218 LIMIT 1
[Mon, 28 Aug 17 10:43:27 -0500][DEBUG] DESCRIBE `usuario`
[Mon, 28 Aug 17 10:43:27 -0500][DEBUG] DESCRIBE `cliente`
[Mon, 28 Aug 17 10:43:27 -0500][DEBUG] SELECT COUNT(*) FROM cliente 
[Mon, 28 Aug 17 10:43:27 -0500][DEBUG] DESCRIBE `cotizacion`
[Mon, 28 Aug 17 10:43:27 -0500][DEBUG] SELECT COUNT(*) FROM cotizacion  WHERE usuario_id=2
[Mon, 28 Aug 17 10:43:27 -0500][DEBUG] DESCRIBE `proveedor`
[Mon, 28 Aug 17 10:43:27 -0500][DEBUG] SELECT id,nombre,contacto,link,img,estado,proveedor_at FROM proveedor WHERE estado=1
