[Sat, 19 Nov 16 09:30:48 -0500][DEBUG] DESCRIBE `usuario`
[Sat, 19 Nov 16 09:30:48 -0500][DEBUG] DESCRIBE `usuario`
[Sat, 19 Nov 16 09:30:48 -0500][DEBUG] DESCRIBE `cliente`
[Sat, 19 Nov 16 09:30:48 -0500][DEBUG] SELECT COUNT(*) FROM cliente 
[Sat, 19 Nov 16 09:30:48 -0500][DEBUG] SELECT cliente.* FROM cliente ORDER BY id DESC LIMIT 30 OFFSET 0
[Sat, 19 Nov 16 09:30:49 -0500][DEBUG] DESCRIBE `menu`
[Sat, 19 Nov 16 11:29:02 -0500][DEBUG] DESCRIBE `usuario`
[Sat, 19 Nov 16 11:29:02 -0500][DEBUG] DESCRIBE `cliente`
[Sat, 19 Nov 16 11:29:02 -0500][DEBUG] SELECT COUNT(*) FROM cliente 
[Sat, 19 Nov 16 11:29:02 -0500][DEBUG] DESCRIBE `cotizacion`
[Sat, 19 Nov 16 11:29:02 -0500][DEBUG] SELECT COUNT(*) FROM cotizacion 
[Sat, 19 Nov 16 11:29:02 -0500][DEBUG] DESCRIBE `proveedor`
[Sat, 19 Nov 16 11:29:02 -0500][DEBUG] SELECT id,nombre,contacto,link,img,estado,proveedor_at FROM proveedor WHERE estado=1
[Sat, 19 Nov 16 11:29:02 -0500][DEBUG] DESCRIBE `menu`
[Sat, 19 Nov 16 11:49:40 -0500][DEBUG] DESCRIBE `usuario`
[Sat, 19 Nov 16 11:49:40 -0500][DEBUG] DESCRIBE `usuario`
[Sat, 19 Nov 16 11:49:40 -0500][DEBUG] DESCRIBE `proveedor`
[Sat, 19 Nov 16 11:49:40 -0500][DEBUG] SELECT COUNT(*) FROM proveedor 
[Sat, 19 Nov 16 11:49:40 -0500][DEBUG] SELECT proveedor.* FROM proveedor ORDER BY id ASC LIMIT 30 OFFSET 0
[Sat, 19 Nov 16 11:49:47 -0500][DEBUG] DESCRIBE `usuario`
[Sat, 19 Nov 16 11:49:47 -0500][DEBUG] DESCRIBE `proveedor`
[Sat, 19 Nov 16 11:49:47 -0500][DEBUG] SELECT id,nombre,contacto,link,img,estado,proveedor_at FROM proveedor WHERE id = 1 LIMIT 1
[Sat, 19 Nov 16 11:50:00 -0500][DEBUG] DESCRIBE `usuario`
[Sat, 19 Nov 16 11:50:00 -0500][DEBUG] DESCRIBE `usuario`
[Sat, 19 Nov 16 11:50:00 -0500][DEBUG] DESCRIBE `proveedor`
[Sat, 19 Nov 16 11:50:00 -0500][DEBUG] SELECT COUNT(*) FROM proveedor 
[Sat, 19 Nov 16 11:50:00 -0500][DEBUG] SELECT proveedor.* FROM proveedor ORDER BY id ASC LIMIT 30 OFFSET 0
[Sat, 19 Nov 16 11:53:30 -0500][DEBUG] DESCRIBE `usuario`
[Sat, 19 Nov 16 11:53:44 -0500][DEBUG] DESCRIBE `usuario`
[Sat, 19 Nov 16 11:53:44 -0500][DEBUG] DESCRIBE `usuario`
[Sat, 19 Nov 16 11:53:44 -0500][DEBUG] DESCRIBE `proveedor`
[Sat, 19 Nov 16 11:53:44 -0500][DEBUG] SELECT COUNT(*) FROM proveedor 
[Sat, 19 Nov 16 11:53:44 -0500][DEBUG] SELECT proveedor.* FROM proveedor ORDER BY id ASC LIMIT 30 OFFSET 0
[Sat, 19 Nov 16 15:28:10 -0500][DEBUG] DESCRIBE `usuario`
[Sat, 19 Nov 16 15:28:10 -0500][DEBUG] DESCRIBE `usuario`
[Sat, 19 Nov 16 15:28:10 -0500][DEBUG] DESCRIBE `producto`
[Sat, 19 Nov 16 15:28:10 -0500][DEBUG] SELECT COUNT(*) FROM producto 
[Sat, 19 Nov 16 15:28:11 -0500][DEBUG] SELECT producto.* FROM producto ORDER BY id ASC LIMIT 30 OFFSET 0
[Sat, 19 Nov 16 15:28:30 -0500][DEBUG] DESCRIBE `usuario`
[Sat, 19 Nov 16 15:28:30 -0500][DEBUG] DESCRIBE `producto`
[Sat, 19 Nov 16 15:28:30 -0500][DEBUG] SELECT id,nombre,icono,estado,producto_at FROM producto WHERE id = 1 LIMIT 1
[Sat, 19 Nov 16 15:28:57 -0500][DEBUG] DESCRIBE `usuario`
[Sat, 19 Nov 16 15:28:57 -0500][DEBUG] DESCRIBE `usuario`
[Sat, 19 Nov 16 15:28:57 -0500][DEBUG] DESCRIBE `producto`
[Sat, 19 Nov 16 15:28:57 -0500][DEBUG] SELECT COUNT(*) FROM producto 
[Sat, 19 Nov 16 15:28:57 -0500][DEBUG] SELECT producto.* FROM producto ORDER BY id ASC LIMIT 30 OFFSET 0
[Sat, 19 Nov 16 16:28:33 -0500][DEBUG] DESCRIBE `usuario`
[Sat, 19 Nov 16 16:28:34 -0500][DEBUG] DESCRIBE `usuario`
[Sat, 19 Nov 16 16:28:34 -0500][DEBUG] DESCRIBE `cotizacion`
[Sat, 19 Nov 16 16:28:34 -0500][DEBUG] SELECT COUNT(*) FROM cotizacion 
[Sat, 19 Nov 16 16:28:34 -0500][DEBUG] SELECT cotizacion.* FROM cotizacion ORDER BY id DESC LIMIT 30 OFFSET 0
[Sat, 19 Nov 16 16:28:34 -0500][DEBUG] DESCRIBE `cliente`
[Sat, 19 Nov 16 16:28:34 -0500][DEBUG] SELECT id,nombre,cc,direccion,ciudad,email,telefono,celular,nota,estado,cliente_at FROM cliente WHERE id = 1 LIMIT 1
[Sat, 19 Nov 16 16:28:34 -0500][DEBUG] DESCRIBE `cotizacion_item`
[Sat, 19 Nov 16 16:28:34 -0500][DEBUG] SELECT COUNT(*) FROM cotizacion_item  WHERE cotizacion_id =12 AND estado >=1
[Sat, 19 Nov 16 16:28:34 -0500][DEBUG] SELECT SUM(valor) FROM cotizacion_item  WHERE cotizacion_id =12 AND estado >=1
[Sat, 19 Nov 16 16:28:34 -0500][DEBUG] SELECT id,nombre,cc,direccion,ciudad,email,telefono,celular,nota,estado,cliente_at FROM cliente WHERE id = 1 LIMIT 1
[Sat, 19 Nov 16 16:28:34 -0500][DEBUG] SELECT COUNT(*) FROM cotizacion_item  WHERE cotizacion_id =11 AND estado >=1
[Sat, 19 Nov 16 16:28:34 -0500][DEBUG] SELECT SUM(valor) FROM cotizacion_item  WHERE cotizacion_id =11 AND estado >=1
[Sat, 19 Nov 16 16:28:34 -0500][DEBUG] SELECT id,nombre,cc,direccion,ciudad,email,telefono,celular,nota,estado,cliente_at FROM cliente WHERE id = 4 LIMIT 1
[Sat, 19 Nov 16 16:28:34 -0500][DEBUG] SELECT COUNT(*) FROM cotizacion_item  WHERE cotizacion_id =10 AND estado >=1
[Sat, 19 Nov 16 16:28:34 -0500][DEBUG] SELECT SUM(valor) FROM cotizacion_item  WHERE cotizacion_id =10 AND estado >=1
[Sat, 19 Nov 16 16:28:34 -0500][DEBUG] SELECT id,nombre,cc,direccion,ciudad,email,telefono,celular,nota,estado,cliente_at FROM cliente WHERE id = 4 LIMIT 1
[Sat, 19 Nov 16 16:28:34 -0500][DEBUG] SELECT COUNT(*) FROM cotizacion_item  WHERE cotizacion_id =9 AND estado >=1
[Sat, 19 Nov 16 16:28:34 -0500][DEBUG] SELECT SUM(valor) FROM cotizacion_item  WHERE cotizacion_id =9 AND estado >=1
[Sat, 19 Nov 16 16:28:34 -0500][DEBUG] SELECT id,nombre,cc,direccion,ciudad,email,telefono,celular,nota,estado,cliente_at FROM cliente WHERE id = 1 LIMIT 1
[Sat, 19 Nov 16 16:28:34 -0500][DEBUG] SELECT COUNT(*) FROM cotizacion_item  WHERE cotizacion_id =8 AND estado >=1
[Sat, 19 Nov 16 16:28:34 -0500][DEBUG] SELECT SUM(valor) FROM cotizacion_item  WHERE cotizacion_id =8 AND estado >=1
[Sat, 19 Nov 16 16:28:34 -0500][DEBUG] SELECT id,nombre,cc,direccion,ciudad,email,telefono,celular,nota,estado,cliente_at FROM cliente WHERE id = 3 LIMIT 1
[Sat, 19 Nov 16 16:28:34 -0500][DEBUG] SELECT COUNT(*) FROM cotizacion_item  WHERE cotizacion_id =7 AND estado >=1
[Sat, 19 Nov 16 16:28:34 -0500][DEBUG] SELECT SUM(valor) FROM cotizacion_item  WHERE cotizacion_id =7 AND estado >=1
[Sat, 19 Nov 16 16:28:34 -0500][DEBUG] SELECT id,nombre,cc,direccion,ciudad,email,telefono,celular,nota,estado,cliente_at FROM cliente WHERE id = 1 LIMIT 1
[Sat, 19 Nov 16 16:28:34 -0500][DEBUG] SELECT COUNT(*) FROM cotizacion_item  WHERE cotizacion_id =6 AND estado >=1
[Sat, 19 Nov 16 16:28:34 -0500][DEBUG] SELECT SUM(valor) FROM cotizacion_item  WHERE cotizacion_id =6 AND estado >=1
[Sat, 19 Nov 16 16:28:34 -0500][DEBUG] SELECT id,nombre,cc,direccion,ciudad,email,telefono,celular,nota,estado,cliente_at FROM cliente WHERE id = 1 LIMIT 1
[Sat, 19 Nov 16 16:28:34 -0500][DEBUG] SELECT COUNT(*) FROM cotizacion_item  WHERE cotizacion_id =5 AND estado >=1
[Sat, 19 Nov 16 16:28:34 -0500][DEBUG] SELECT SUM(valor) FROM cotizacion_item  WHERE cotizacion_id =5 AND estado >=1
[Sat, 19 Nov 16 16:28:34 -0500][DEBUG] SELECT id,nombre,cc,direccion,ciudad,email,telefono,celular,nota,estado,cliente_at FROM cliente WHERE id = 1 LIMIT 1
[Sat, 19 Nov 16 16:28:34 -0500][DEBUG] SELECT COUNT(*) FROM cotizacion_item  WHERE cotizacion_id =4 AND estado >=1
[Sat, 19 Nov 16 16:28:34 -0500][DEBUG] SELECT SUM(valor) FROM cotizacion_item  WHERE cotizacion_id =4 AND estado >=1
[Sat, 19 Nov 16 16:28:34 -0500][DEBUG] SELECT id,nombre,cc,direccion,ciudad,email,telefono,celular,nota,estado,cliente_at FROM cliente WHERE id = 1 LIMIT 1
[Sat, 19 Nov 16 16:28:34 -0500][DEBUG] SELECT COUNT(*) FROM cotizacion_item  WHERE cotizacion_id =3 AND estado >=1
[Sat, 19 Nov 16 16:28:34 -0500][DEBUG] SELECT SUM(valor) FROM cotizacion_item  WHERE cotizacion_id =3 AND estado >=1
[Sat, 19 Nov 16 16:28:34 -0500][DEBUG] SELECT id,nombre,cc,direccion,ciudad,email,telefono,celular,nota,estado,cliente_at FROM cliente WHERE id = 2 LIMIT 1
[Sat, 19 Nov 16 16:28:34 -0500][DEBUG] SELECT COUNT(*) FROM cotizacion_item  WHERE cotizacion_id =2 AND estado >=1
[Sat, 19 Nov 16 16:28:34 -0500][DEBUG] SELECT SUM(valor) FROM cotizacion_item  WHERE cotizacion_id =2 AND estado >=1
[Sat, 19 Nov 16 16:28:34 -0500][DEBUG] SELECT id,nombre,cc,direccion,ciudad,email,telefono,celular,nota,estado,cliente_at FROM cliente WHERE id = 1 LIMIT 1
[Sat, 19 Nov 16 16:28:34 -0500][DEBUG] SELECT COUNT(*) FROM cotizacion_item  WHERE cotizacion_id =1 AND estado >=1
[Sat, 19 Nov 16 16:28:34 -0500][DEBUG] SELECT SUM(valor) FROM cotizacion_item  WHERE cotizacion_id =1 AND estado >=1
[Sat, 19 Nov 16 16:28:36 -0500][DEBUG] DESCRIBE `usuario`
[Sat, 19 Nov 16 16:28:39 -0500][DEBUG] DESCRIBE `usuario`
[Sat, 19 Nov 16 16:28:39 -0500][DEBUG] DESCRIBE `cliente`
[Sat, 19 Nov 16 16:28:39 -0500][DEBUG] SELECT cliente.* FROM cliente WHERE  cliente.nombre LIKE '%CARLOS%'
[Sat, 19 Nov 16 16:28:40 -0500][DEBUG] DESCRIBE `usuario`
[Sat, 19 Nov 16 16:28:41 -0500][DEBUG] DESCRIBE `cliente`
[Sat, 19 Nov 16 16:28:41 -0500][DEBUG] SELECT id,nombre,cc,direccion,ciudad,email,telefono,celular,nota,estado,cliente_at FROM cliente WHERE id = 1 LIMIT 1
[Sat, 19 Nov 16 16:28:41 -0500][DEBUG] DESCRIBE `producto`
[Sat, 19 Nov 16 16:28:41 -0500][DEBUG] SELECT id,nombre,icono,estado,producto_at FROM producto WHERE estado=1
[Sat, 19 Nov 16 16:28:41 -0500][DEBUG] DESCRIBE `proveedor`
[Sat, 19 Nov 16 16:28:41 -0500][DEBUG] SELECT id,nombre,contacto,link,img,estado,proveedor_at FROM proveedor WHERE estado=1
[Sat, 19 Nov 16 16:31:43 -0500][DEBUG] DESCRIBE `usuario`
[Sat, 19 Nov 16 16:31:43 -0500][DEBUG] DESCRIBE `usuario`
[Sat, 19 Nov 16 16:31:43 -0500][DEBUG] DESCRIBE `producto`
[Sat, 19 Nov 16 16:31:43 -0500][DEBUG] SELECT COUNT(*) FROM producto 
[Sat, 19 Nov 16 16:31:43 -0500][DEBUG] SELECT producto.* FROM producto ORDER BY id ASC LIMIT 30 OFFSET 0
[Sat, 19 Nov 16 16:31:43 -0500][DEBUG] DESCRIBE `menu`
[Sat, 19 Nov 16 16:32:24 -0500][DEBUG] DESCRIBE `usuario`
[Sat, 19 Nov 16 16:32:25 -0500][DEBUG] DESCRIBE `usuario`
[Sat, 19 Nov 16 16:32:25 -0500][DEBUG] DESCRIBE `producto`
[Sat, 19 Nov 16 16:32:25 -0500][DEBUG] SELECT COUNT(*) FROM producto 
[Sat, 19 Nov 16 16:32:25 -0500][DEBUG] SELECT producto.* FROM producto ORDER BY id ASC LIMIT 30 OFFSET 0
[Sat, 19 Nov 16 16:32:27 -0500][DEBUG] DESCRIBE `usuario`
[Sat, 19 Nov 16 16:32:27 -0500][DEBUG] DESCRIBE `usuario`
[Sat, 19 Nov 16 16:32:27 -0500][DEBUG] DESCRIBE `proveedor`
[Sat, 19 Nov 16 16:32:28 -0500][DEBUG] SELECT COUNT(*) FROM proveedor 
[Sat, 19 Nov 16 16:32:28 -0500][DEBUG] SELECT proveedor.* FROM proveedor ORDER BY id ASC LIMIT 30 OFFSET 0
[Sat, 19 Nov 16 16:32:29 -0500][DEBUG] DESCRIBE `usuario`
[Sat, 19 Nov 16 16:32:29 -0500][DEBUG] DESCRIBE `usuario`
[Sat, 19 Nov 16 16:32:29 -0500][DEBUG] DESCRIBE `producto`
[Sat, 19 Nov 16 16:32:29 -0500][DEBUG] SELECT COUNT(*) FROM producto 
[Sat, 19 Nov 16 16:32:29 -0500][DEBUG] SELECT producto.* FROM producto ORDER BY id ASC LIMIT 30 OFFSET 0
[Sat, 19 Nov 16 16:32:34 -0500][DEBUG] DESCRIBE `usuario`
[Sat, 19 Nov 16 16:32:34 -0500][DEBUG] DESCRIBE `menu`
[Sat, 19 Nov 16 16:32:34 -0500][DEBUG] SELECT id,menu_id,recurso_id,menu,url,posicion,icono,activo,visibilidad,custom FROM menu WHERE menu.menu_id IS NULL AND menu.visibilidad = 1 AND menu.activo = 1 GROUP BY menu.id ORDER BY menu.posicion ASC
[Sat, 19 Nov 16 16:32:34 -0500][DEBUG] SELECT id,menu_id,recurso_id,menu,url,posicion,icono,activo,visibilidad,custom FROM menu WHERE menu.menu_id IS NULL AND menu.visibilidad = 2 AND menu.activo = 1 GROUP BY menu.id ORDER BY menu.posicion ASC
[Sat, 19 Nov 16 16:32:34 -0500][DEBUG] SELECT menu.*, (padre.menu) AS padre, (padre.posicion) AS padre_posicion, recurso.recurso FROM menu LEFT JOIN recurso ON recurso.id = menu.recurso_id LEFT JOIN menu AS padre ON padre.id = menu.menu_id  WHERE menu.menu_id = 1 GROUP BY menu.id ORDER BY menu.posicion ASC
[Sat, 19 Nov 16 16:32:42 -0500][DEBUG] DESCRIBE `usuario`
[Sat, 19 Nov 16 16:32:42 -0500][DEBUG] DESCRIBE `menu`
[Sat, 19 Nov 16 16:32:42 -0500][DEBUG] SELECT id,menu_id,recurso_id,menu,url,posicion,icono,activo,visibilidad,custom FROM menu WHERE id = 19 LIMIT 1
[Sat, 19 Nov 16 16:32:42 -0500][DEBUG] SELECT menu.*, (padre.menu) AS padre, (padre.posicion) AS padre_posicion, recurso.recurso FROM menu LEFT JOIN recurso ON recurso.id = menu.recurso_id LEFT JOIN menu AS padre ON padre.id = menu.menu_id  WHERE menu.id IS NOT NULL AND menu.activo=1 ORDER BY padre_posicion  ASC
[Sat, 19 Nov 16 16:32:45 -0500][DEBUG] DESCRIBE `usuario`
[Sat, 19 Nov 16 16:32:46 -0500][DEBUG] DESCRIBE `menu`
[Sat, 19 Nov 16 16:32:46 -0500][DEBUG] SELECT id,menu_id,recurso_id,menu,url,posicion,icono,activo,visibilidad,custom FROM menu WHERE id = 19 LIMIT 1
[Sat, 19 Nov 16 16:32:46 -0500][DEBUG] SELECT id,menu_id,recurso_id,menu,url,posicion,icono,activo,visibilidad,custom FROM menu WHERE recurso_id='19' AND visibilidad=1 AND id != '19' LIMIT 1
[Sat, 19 Nov 16 16:32:46 -0500][DEBUG] SELECT COUNT(*) FROM menu WHERE  id = '19'
[Sat, 19 Nov 16 16:32:46 -0500][DEBUG] SELECT COUNT(*) FROM menu WHERE  id = '19'
[Sat, 19 Nov 16 16:32:46 -0500][DEBUG] UPDATE menu SET menu_id = '1',recurso_id = '19',menu = 'Productos',url = 'dashboard/productos/',posicion = '14',icono = 'fa-cubes',visibilidad = '1',custom = NULL WHERE  id = '19'
[Sat, 19 Nov 16 16:32:46 -0500][DEBUG] DESCRIBE `usuario`
[Sat, 19 Nov 16 16:32:46 -0500][DEBUG] DESCRIBE `menu`
[Sat, 19 Nov 16 16:32:46 -0500][DEBUG] SELECT id,menu_id,recurso_id,menu,url,posicion,icono,activo,visibilidad,custom FROM menu WHERE menu.menu_id IS NULL AND menu.visibilidad = 1 AND menu.activo = 1 GROUP BY menu.id ORDER BY menu.posicion ASC
[Sat, 19 Nov 16 16:32:46 -0500][DEBUG] SELECT id,menu_id,recurso_id,menu,url,posicion,icono,activo,visibilidad,custom FROM menu WHERE menu.menu_id IS NULL AND menu.visibilidad = 2 AND menu.activo = 1 GROUP BY menu.id ORDER BY menu.posicion ASC
[Sat, 19 Nov 16 16:32:46 -0500][DEBUG] SELECT menu.*, (padre.menu) AS padre, (padre.posicion) AS padre_posicion, recurso.recurso FROM menu LEFT JOIN recurso ON recurso.id = menu.recurso_id LEFT JOIN menu AS padre ON padre.id = menu.menu_id  WHERE menu.menu_id = 1 GROUP BY menu.id ORDER BY menu.posicion ASC
[Sat, 19 Nov 16 16:32:53 -0500][DEBUG] DESCRIBE `usuario`
[Sat, 19 Nov 16 16:32:53 -0500][DEBUG] DESCRIBE `menu`
[Sat, 19 Nov 16 16:32:53 -0500][DEBUG] SELECT id,menu_id,recurso_id,menu,url,posicion,icono,activo,visibilidad,custom FROM menu WHERE id = 17 LIMIT 1
[Sat, 19 Nov 16 16:32:53 -0500][DEBUG] SELECT menu.*, (padre.menu) AS padre, (padre.posicion) AS padre_posicion, recurso.recurso FROM menu LEFT JOIN recurso ON recurso.id = menu.recurso_id LEFT JOIN menu AS padre ON padre.id = menu.menu_id  WHERE menu.id IS NOT NULL AND menu.activo=1 ORDER BY padre_posicion  ASC
[Sat, 19 Nov 16 16:32:59 -0500][DEBUG] DESCRIBE `usuario`
[Sat, 19 Nov 16 16:32:59 -0500][DEBUG] DESCRIBE `menu`
[Sat, 19 Nov 16 16:32:59 -0500][DEBUG] SELECT id,menu_id,recurso_id,menu,url,posicion,icono,activo,visibilidad,custom FROM menu WHERE id = 17 LIMIT 1
[Sat, 19 Nov 16 16:32:59 -0500][DEBUG] SELECT id,menu_id,recurso_id,menu,url,posicion,icono,activo,visibilidad,custom FROM menu WHERE recurso_id='17' AND visibilidad=1 AND id != '17' LIMIT 1
[Sat, 19 Nov 16 16:32:59 -0500][DEBUG] SELECT COUNT(*) FROM menu WHERE  id = '17'
[Sat, 19 Nov 16 16:32:59 -0500][DEBUG] SELECT COUNT(*) FROM menu WHERE  id = '17'
[Sat, 19 Nov 16 16:32:59 -0500][DEBUG] UPDATE menu SET menu_id = '1',recurso_id = '17',menu = 'Proveedores',url = 'dashboard/proveedores/',posicion = '15',icono = 'fa-server',visibilidad = '1',custom = NULL WHERE  id = '17'
[Sat, 19 Nov 16 16:32:59 -0500][DEBUG] DESCRIBE `usuario`
[Sat, 19 Nov 16 16:32:59 -0500][DEBUG] DESCRIBE `menu`
[Sat, 19 Nov 16 16:32:59 -0500][DEBUG] SELECT id,menu_id,recurso_id,menu,url,posicion,icono,activo,visibilidad,custom FROM menu WHERE menu.menu_id IS NULL AND menu.visibilidad = 1 AND menu.activo = 1 GROUP BY menu.id ORDER BY menu.posicion ASC
[Sat, 19 Nov 16 16:32:59 -0500][DEBUG] SELECT id,menu_id,recurso_id,menu,url,posicion,icono,activo,visibilidad,custom FROM menu WHERE menu.menu_id IS NULL AND menu.visibilidad = 2 AND menu.activo = 1 GROUP BY menu.id ORDER BY menu.posicion ASC
[Sat, 19 Nov 16 16:32:59 -0500][DEBUG] SELECT menu.*, (padre.menu) AS padre, (padre.posicion) AS padre_posicion, recurso.recurso FROM menu LEFT JOIN recurso ON recurso.id = menu.recurso_id LEFT JOIN menu AS padre ON padre.id = menu.menu_id  WHERE menu.menu_id = 1 GROUP BY menu.id ORDER BY menu.posicion ASC
[Sat, 19 Nov 16 16:33:00 -0500][DEBUG] DESCRIBE `usuario`
[Sat, 19 Nov 16 16:33:00 -0500][DEBUG] DESCRIBE `cliente`
[Sat, 19 Nov 16 16:33:00 -0500][DEBUG] SELECT COUNT(*) FROM cliente 
[Sat, 19 Nov 16 16:33:00 -0500][DEBUG] DESCRIBE `cotizacion`
[Sat, 19 Nov 16 16:33:00 -0500][DEBUG] SELECT COUNT(*) FROM cotizacion 
[Sat, 19 Nov 16 16:33:00 -0500][DEBUG] DESCRIBE `proveedor`
[Sat, 19 Nov 16 16:33:00 -0500][DEBUG] SELECT id,nombre,contacto,link,img,estado,proveedor_at FROM proveedor WHERE estado=1
[Sat, 19 Nov 16 16:33:00 -0500][DEBUG] DESCRIBE `menu`
[Sat, 19 Nov 16 16:33:03 -0500][DEBUG] DESCRIBE `usuario`
[Sat, 19 Nov 16 16:33:03 -0500][DEBUG] DESCRIBE `usuario`
[Sat, 19 Nov 16 16:33:03 -0500][DEBUG] DESCRIBE `producto`
[Sat, 19 Nov 16 16:33:03 -0500][DEBUG] SELECT COUNT(*) FROM producto 
[Sat, 19 Nov 16 16:33:03 -0500][DEBUG] SELECT producto.* FROM producto ORDER BY id ASC LIMIT 30 OFFSET 0
[Sat, 19 Nov 16 16:34:40 -0500][DEBUG] DESCRIBE `usuario`
[Sat, 19 Nov 16 16:34:40 -0500][DEBUG] DESCRIBE `producto`
[Sat, 19 Nov 16 16:34:40 -0500][DEBUG] SELECT id,nombre,icono,estado,producto_at FROM producto WHERE id = 1 LIMIT 1
