[Fri, 03 Jun 16 00:20:00 -0500][DEBUG] DESCRIBE `usuario`
[Fri, 03 Jun 16 00:20:00 -0500][DEBUG] DESCRIBE `usuario`
[Fri, 03 Jun 16 00:20:00 -0500][DEBUG] DESCRIBE `contrato`
[Fri, 03 Jun 16 00:20:00 -0500][DEBUG] SELECT COUNT(*) FROM contrato 
[Fri, 03 Jun 16 00:20:00 -0500][DEBUG] SELECT contrato.* FROM contrato ORDER BY nombre ASC LIMIT 30 OFFSET 0
[Fri, 03 Jun 16 00:20:00 -0500][DEBUG] DESCRIBE `cliente`
[Fri, 03 Jun 16 00:20:00 -0500][DEBUG] SELECT id,nombre,nit,direccion,ciudad,email,telefono,celular,nota,registro_at FROM cliente WHERE id = 8 LIMIT 1
[Fri, 03 Jun 16 00:20:00 -0500][DEBUG] DESCRIBE `unidad_de_negocio`
[Fri, 03 Jun 16 00:20:00 -0500][DEBUG] SELECT COUNT(*) FROM unidad_de_negocio  WHERE contrato_id = '1' 
[Fri, 03 Jun 16 00:20:00 -0500][DEBUG] DESCRIBE `actividad`
[Fri, 03 Jun 16 00:20:00 -0500][DEBUG] SELECT COUNT(*) FROM actividad  WHERE contrato_id = '1' 
[Fri, 03 Jun 16 00:20:00 -0500][DEBUG] DESCRIBE `ot`
[Fri, 03 Jun 16 00:20:00 -0500][DEBUG] SELECT COUNT(*) FROM ot  WHERE contrato_id = '1' 
[Fri, 03 Jun 16 00:20:02 -0500][DEBUG] DESCRIBE `usuario`
[Fri, 03 Jun 16 00:20:09 -0500][DEBUG] DESCRIBE `usuario`
[Fri, 03 Jun 16 00:20:09 -0500][DEBUG] DESCRIBE `actividad`
[Fri, 03 Jun 16 00:20:09 -0500][DEBUG] SELECT id,contrato_id,item,descripcion,unidad,cantidad,acomulado,cantidad_estimada,mayores_menores,valor,valor_total,observacion,asignado,estado,actividad_at FROM actividad WHERE contrato_id = 1
[Fri, 03 Jun 16 00:20:09 -0500][DEBUG] SELECT SUM(valor_total) FROM actividad  WHERE contrato_id = 1
[Fri, 03 Jun 16 00:20:09 -0500][DEBUG] DESCRIBE `contrato`
[Fri, 03 Jun 16 00:20:09 -0500][DEBUG] SELECT id,nombre,referencia,vigencia,vigencia_duracion,ejecucion,ejecucion_duracion,nota,cliente_id,admin_tecnico_nombre,admin_tecnico_email,admin_tecnico_telefono,porce_admon,porce_imprevistos,porce_utilidad,valor_total_contrato,registro_at FROM contrato WHERE id = 1
[Fri, 03 Jun 16 00:20:09 -0500][DEBUG] DESCRIBE `menu`
[Fri, 03 Jun 16 00:20:21 -0500][DEBUG] DESCRIBE `usuario`
[Fri, 03 Jun 16 00:20:21 -0500][DEBUG] DESCRIBE `usuario`
[Fri, 03 Jun 16 00:20:21 -0500][DEBUG] DESCRIBE `contrato`
[Fri, 03 Jun 16 00:20:21 -0500][DEBUG] SELECT COUNT(*) FROM contrato 
[Fri, 03 Jun 16 00:20:21 -0500][DEBUG] SELECT contrato.* FROM contrato ORDER BY nombre ASC LIMIT 30 OFFSET 0
[Fri, 03 Jun 16 00:20:21 -0500][DEBUG] DESCRIBE `cliente`
[Fri, 03 Jun 16 00:20:21 -0500][DEBUG] SELECT id,nombre,nit,direccion,ciudad,email,telefono,celular,nota,registro_at FROM cliente WHERE id = 8 LIMIT 1
[Fri, 03 Jun 16 00:20:21 -0500][DEBUG] DESCRIBE `unidad_de_negocio`
[Fri, 03 Jun 16 00:20:21 -0500][DEBUG] SELECT COUNT(*) FROM unidad_de_negocio  WHERE contrato_id = '1' 
[Fri, 03 Jun 16 00:20:21 -0500][DEBUG] DESCRIBE `actividad`
[Fri, 03 Jun 16 00:20:21 -0500][DEBUG] SELECT COUNT(*) FROM actividad  WHERE contrato_id = '1' 
[Fri, 03 Jun 16 00:20:21 -0500][DEBUG] DESCRIBE `ot`
[Fri, 03 Jun 16 00:20:21 -0500][DEBUG] SELECT COUNT(*) FROM ot  WHERE contrato_id = '1' 
[Fri, 03 Jun 16 00:20:23 -0500][DEBUG] DESCRIBE `usuario`
[Fri, 03 Jun 16 00:20:23 -0500][DEBUG] DESCRIBE `actividad`
[Fri, 03 Jun 16 00:20:23 -0500][DEBUG] SELECT COUNT(*) FROM actividad  WHERE contrato_id = '1' 
[Fri, 03 Jun 16 00:20:23 -0500][DEBUG] DESCRIBE `contrato`
[Fri, 03 Jun 16 00:20:23 -0500][DEBUG] SELECT id,nombre,referencia,vigencia,vigencia_duracion,ejecucion,ejecucion_duracion,nota,cliente_id,admin_tecnico_nombre,admin_tecnico_email,admin_tecnico_telefono,porce_admon,porce_imprevistos,porce_utilidad,valor_total_contrato,registro_at FROM contrato WHERE id = 1 LIMIT 1
[Fri, 03 Jun 16 00:20:23 -0500][DEBUG] DESCRIBE `ot`
[Fri, 03 Jun 16 00:20:23 -0500][DEBUG] SELECT id,contrato_id,unidad_de_negocio_id,nombre_ot,n_ot,id_marco,duracion_inicio,duracion_fin,nota,valor_ot,registro_at FROM ot WHERE contrato_id = 1
[Fri, 03 Jun 16 00:20:23 -0500][DEBUG] DESCRIBE `unidad_de_negocio`
[Fri, 03 Jun 16 00:20:23 -0500][DEBUG] SELECT id,nombre,admin,email,telefono,ubicacion,contrato_id FROM unidad_de_negocio WHERE id = 1 LIMIT 1
[Fri, 03 Jun 16 00:20:23 -0500][DEBUG] DESCRIBE `actividad_asignada`
[Fri, 03 Jun 16 00:20:23 -0500][DEBUG] SELECT COUNT(*) FROM actividad_asignada  WHERE ot_id = 1
[Fri, 03 Jun 16 00:20:24 -0500][DEBUG] DESCRIBE `usuario`
[Fri, 03 Jun 16 00:20:24 -0500][DEBUG] DESCRIBE `actividad`
[Fri, 03 Jun 16 00:20:24 -0500][DEBUG] SELECT COUNT(*) FROM actividad  WHERE contrato_id = 1 AND asignado = 0
[Fri, 03 Jun 16 00:20:24 -0500][DEBUG] DESCRIBE `contrato`
[Fri, 03 Jun 16 00:20:24 -0500][DEBUG] SELECT id,nombre,referencia,vigencia,vigencia_duracion,ejecucion,ejecucion_duracion,nota,cliente_id,admin_tecnico_nombre,admin_tecnico_email,admin_tecnico_telefono,porce_admon,porce_imprevistos,porce_utilidad,valor_total_contrato,registro_at FROM contrato WHERE id = 1 LIMIT 1
[Fri, 03 Jun 16 00:20:24 -0500][DEBUG] DESCRIBE `cliente`
[Fri, 03 Jun 16 00:20:24 -0500][DEBUG] SELECT id,nombre,nit,direccion,ciudad,email,telefono,celular,nota,registro_at FROM cliente WHERE id = 8 LIMIT 1
[Fri, 03 Jun 16 00:20:24 -0500][DEBUG] SELECT id,contrato_id,item,descripcion,unidad,cantidad,acomulado,cantidad_estimada,mayores_menores,valor,valor_total,observacion,asignado,estado,actividad_at FROM actividad WHERE contrato_id =1 AND  asignado = '0' 
[Fri, 03 Jun 16 00:20:24 -0500][DEBUG] DESCRIBE `unidad_de_negocio`
[Fri, 03 Jun 16 00:20:24 -0500][DEBUG] SELECT id,nombre,admin,email,telefono,ubicacion,contrato_id FROM unidad_de_negocio WHERE contrato_id = 1
[Fri, 03 Jun 16 00:20:24 -0500][DEBUG] SELECT id,nombre,apellido,email,password,perfil_id,tema,app_ajax,datagrid,fotografia,pool,usuario_at,usuario_in FROM usuario WHERE perfil_id = 5
[Fri, 03 Jun 16 00:20:40 -0500][DEBUG] DESCRIBE `usuario`
[Fri, 03 Jun 16 00:20:40 -0500][DEBUG] DESCRIBE `ot`
[Fri, 03 Jun 16 00:20:40 -0500][DEBUG] SELECT id,contrato_id,unidad_de_negocio_id,nombre_ot,n_ot,id_marco,duracion_inicio,duracion_fin,nota,valor_ot,registro_at FROM ot WHERE id = 1 LIMIT 1
[Fri, 03 Jun 16 00:20:40 -0500][DEBUG] DESCRIBE `contrato`
[Fri, 03 Jun 16 00:20:40 -0500][DEBUG] SELECT id,nombre,referencia,vigencia,vigencia_duracion,ejecucion,ejecucion_duracion,nota,cliente_id,admin_tecnico_nombre,admin_tecnico_email,admin_tecnico_telefono,porce_admon,porce_imprevistos,porce_utilidad,valor_total_contrato,registro_at FROM contrato WHERE id = 1 LIMIT 1
[Fri, 03 Jun 16 00:20:40 -0500][DEBUG] DESCRIBE `actividad`
[Fri, 03 Jun 16 00:20:40 -0500][DEBUG] SELECT id,contrato_id,item,descripcion,unidad,cantidad,acomulado,cantidad_estimada,mayores_menores,valor,valor_total,observacion,asignado,estado,actividad_at FROM actividad WHERE contrato_id =1 
[Fri, 03 Jun 16 00:20:40 -0500][DEBUG] DESCRIBE `menu`
[Fri, 03 Jun 16 00:20:53 -0500][DEBUG] DESCRIBE `usuario`
[Fri, 03 Jun 16 00:20:53 -0500][DEBUG] DESCRIBE `ot`
[Fri, 03 Jun 16 00:20:53 -0500][DEBUG] SELECT id,contrato_id,unidad_de_negocio_id,nombre_ot,n_ot,id_marco,duracion_inicio,duracion_fin,nota,valor_ot,registro_at FROM ot WHERE id = 1 LIMIT 1
[Fri, 03 Jun 16 00:20:53 -0500][DEBUG] DESCRIBE `contrato`
[Fri, 03 Jun 16 00:20:53 -0500][DEBUG] SELECT id,nombre,referencia,vigencia,vigencia_duracion,ejecucion,ejecucion_duracion,nota,cliente_id,admin_tecnico_nombre,admin_tecnico_email,admin_tecnico_telefono,porce_admon,porce_imprevistos,porce_utilidad,valor_total_contrato,registro_at FROM contrato WHERE id = 1 LIMIT 1
[Fri, 03 Jun 16 00:20:53 -0500][DEBUG] DESCRIBE `actividad`
[Fri, 03 Jun 16 00:20:53 -0500][DEBUG] SELECT id,contrato_id,item,descripcion,unidad,cantidad,acomulado,cantidad_estimada,mayores_menores,valor,valor_total,observacion,asignado,estado,actividad_at FROM actividad WHERE contrato_id =1 
[Fri, 03 Jun 16 00:20:53 -0500][DEBUG] DESCRIBE `actividad_asignada`
[Fri, 03 Jun 16 00:20:53 -0500][DEBUG] INSERT INTO actividad_asignada (ot_id,actividad_id,cantidad,estado,actividad_asignada_at) VALUES ('1','1','0','0','2016-06-03 0:20:53')
[Fri, 03 Jun 16 00:20:53 -0500][DEBUG] SELECT id,ot_id,actividad_id,cantidad,estado,actividad_asignada_at FROM actividad_asignada WHERE id = 6 LIMIT 1
[Fri, 03 Jun 16 00:20:53 -0500][DEBUG] INSERT INTO actividad_asignada (ot_id,actividad_id,cantidad,estado,actividad_asignada_at) VALUES ('1','2','0','0','2016-06-03 0:20:53')
[Fri, 03 Jun 16 00:20:53 -0500][DEBUG] SELECT id,ot_id,actividad_id,cantidad,estado,actividad_asignada_at FROM actividad_asignada WHERE id = 7 LIMIT 1
[Fri, 03 Jun 16 00:20:53 -0500][DEBUG] INSERT INTO actividad_asignada (ot_id,actividad_id,cantidad,estado,actividad_asignada_at) VALUES ('1','3','0','0','2016-06-03 0:20:53')
[Fri, 03 Jun 16 00:20:53 -0500][DEBUG] SELECT id,ot_id,actividad_id,cantidad,estado,actividad_asignada_at FROM actividad_asignada WHERE id = 8 LIMIT 1
[Fri, 03 Jun 16 00:20:53 -0500][DEBUG] INSERT INTO actividad_asignada (ot_id,actividad_id,cantidad,estado,actividad_asignada_at) VALUES ('1','4','0','0','2016-06-03 0:20:53')
[Fri, 03 Jun 16 00:20:53 -0500][DEBUG] SELECT id,ot_id,actividad_id,cantidad,estado,actividad_asignada_at FROM actividad_asignada WHERE id = 9 LIMIT 1
[Fri, 03 Jun 16 00:20:53 -0500][DEBUG] INSERT INTO actividad_asignada (ot_id,actividad_id,cantidad,estado,actividad_asignada_at) VALUES ('1','5','0','0','2016-06-03 0:20:53')
[Fri, 03 Jun 16 00:20:53 -0500][DEBUG] SELECT id,ot_id,actividad_id,cantidad,estado,actividad_asignada_at FROM actividad_asignada WHERE id = 10 LIMIT 1
[Fri, 03 Jun 16 00:20:53 -0500][DEBUG] DESCRIBE `usuario`
[Fri, 03 Jun 16 00:20:53 -0500][DEBUG] DESCRIBE `actividad_asignada`
[Fri, 03 Jun 16 00:20:53 -0500][DEBUG] SELECT id,ot_id,actividad_id,cantidad,estado,actividad_asignada_at FROM actividad_asignada WHERE ot_id = 1
[Fri, 03 Jun 16 00:20:53 -0500][DEBUG] DESCRIBE `actividad`
[Fri, 03 Jun 16 00:20:53 -0500][DEBUG] SELECT id,contrato_id,item,descripcion,unidad,cantidad,acomulado,cantidad_estimada,mayores_menores,valor,valor_total,observacion,asignado,estado,actividad_at FROM actividad WHERE id = 1 LIMIT 1
[Fri, 03 Jun 16 00:20:53 -0500][DEBUG] SELECT id,contrato_id,item,descripcion,unidad,cantidad,acomulado,cantidad_estimada,mayores_menores,valor,valor_total,observacion,asignado,estado,actividad_at FROM actividad WHERE id = 1 LIMIT 1
[Fri, 03 Jun 16 00:20:53 -0500][DEBUG] SELECT SUM(cantidad) FROM actividad_asignada  WHERE actividad_id='1' AND estado='1' 
[Fri, 03 Jun 16 00:20:53 -0500][DEBUG] SELECT id,contrato_id,item,descripcion,unidad,cantidad,acomulado,cantidad_estimada,mayores_menores,valor,valor_total,observacion,asignado,estado,actividad_at FROM actividad WHERE id = 2 LIMIT 1
[Fri, 03 Jun 16 00:20:53 -0500][DEBUG] SELECT id,contrato_id,item,descripcion,unidad,cantidad,acomulado,cantidad_estimada,mayores_menores,valor,valor_total,observacion,asignado,estado,actividad_at FROM actividad WHERE id = 2 LIMIT 1
[Fri, 03 Jun 16 00:20:53 -0500][DEBUG] SELECT SUM(cantidad) FROM actividad_asignada  WHERE actividad_id='2' AND estado='1' 
[Fri, 03 Jun 16 00:20:53 -0500][DEBUG] SELECT id,contrato_id,item,descripcion,unidad,cantidad,acomulado,cantidad_estimada,mayores_menores,valor,valor_total,observacion,asignado,estado,actividad_at FROM actividad WHERE id = 3 LIMIT 1
[Fri, 03 Jun 16 00:20:53 -0500][DEBUG] SELECT id,contrato_id,item,descripcion,unidad,cantidad,acomulado,cantidad_estimada,mayores_menores,valor,valor_total,observacion,asignado,estado,actividad_at FROM actividad WHERE id = 3 LIMIT 1
[Fri, 03 Jun 16 00:20:53 -0500][DEBUG] SELECT SUM(cantidad) FROM actividad_asignada  WHERE actividad_id='3' AND estado='1' 
[Fri, 03 Jun 16 00:20:53 -0500][DEBUG] SELECT id,contrato_id,item,descripcion,unidad,cantidad,acomulado,cantidad_estimada,mayores_menores,valor,valor_total,observacion,asignado,estado,actividad_at FROM actividad WHERE id = 4 LIMIT 1
[Fri, 03 Jun 16 00:20:53 -0500][DEBUG] SELECT id,contrato_id,item,descripcion,unidad,cantidad,acomulado,cantidad_estimada,mayores_menores,valor,valor_total,observacion,asignado,estado,actividad_at FROM actividad WHERE id = 4 LIMIT 1
[Fri, 03 Jun 16 00:20:53 -0500][DEBUG] SELECT SUM(cantidad) FROM actividad_asignada  WHERE actividad_id='4' AND estado='1' 
[Fri, 03 Jun 16 00:20:53 -0500][DEBUG] SELECT id,contrato_id,item,descripcion,unidad,cantidad,acomulado,cantidad_estimada,mayores_menores,valor,valor_total,observacion,asignado,estado,actividad_at FROM actividad WHERE id = 5 LIMIT 1
[Fri, 03 Jun 16 00:20:53 -0500][DEBUG] SELECT id,contrato_id,item,descripcion,unidad,cantidad,acomulado,cantidad_estimada,mayores_menores,valor,valor_total,observacion,asignado,estado,actividad_at FROM actividad WHERE id = 5 LIMIT 1
[Fri, 03 Jun 16 00:20:53 -0500][DEBUG] SELECT SUM(cantidad) FROM actividad_asignada  WHERE actividad_id='5' AND estado='1' 
[Fri, 03 Jun 16 00:20:53 -0500][DEBUG] SELECT id,contrato_id,item,descripcion,unidad,cantidad,acomulado,cantidad_estimada,mayores_menores,valor,valor_total,observacion,asignado,estado,actividad_at FROM actividad WHERE id = 1 LIMIT 1
[Fri, 03 Jun 16 00:20:53 -0500][DEBUG] SELECT id,contrato_id,item,descripcion,unidad,cantidad,acomulado,cantidad_estimada,mayores_menores,valor,valor_total,observacion,asignado,estado,actividad_at FROM actividad WHERE id = 1 LIMIT 1
[Fri, 03 Jun 16 00:20:53 -0500][DEBUG] SELECT SUM(cantidad) FROM actividad_asignada  WHERE actividad_id='1' AND estado='1' 
[Fri, 03 Jun 16 00:20:53 -0500][DEBUG] SELECT id,contrato_id,item,descripcion,unidad,cantidad,acomulado,cantidad_estimada,mayores_menores,valor,valor_total,observacion,asignado,estado,actividad_at FROM actividad WHERE id = 2 LIMIT 1
[Fri, 03 Jun 16 00:20:53 -0500][DEBUG] SELECT id,contrato_id,item,descripcion,unidad,cantidad,acomulado,cantidad_estimada,mayores_menores,valor,valor_total,observacion,asignado,estado,actividad_at FROM actividad WHERE id = 2 LIMIT 1
[Fri, 03 Jun 16 00:20:53 -0500][DEBUG] SELECT SUM(cantidad) FROM actividad_asignada  WHERE actividad_id='2' AND estado='1' 
[Fri, 03 Jun 16 00:20:53 -0500][DEBUG] SELECT id,contrato_id,item,descripcion,unidad,cantidad,acomulado,cantidad_estimada,mayores_menores,valor,valor_total,observacion,asignado,estado,actividad_at FROM actividad WHERE id = 3 LIMIT 1
[Fri, 03 Jun 16 00:20:53 -0500][DEBUG] SELECT id,contrato_id,item,descripcion,unidad,cantidad,acomulado,cantidad_estimada,mayores_menores,valor,valor_total,observacion,asignado,estado,actividad_at FROM actividad WHERE id = 3 LIMIT 1
[Fri, 03 Jun 16 00:20:53 -0500][DEBUG] SELECT SUM(cantidad) FROM actividad_asignada  WHERE actividad_id='3' AND estado='1' 
[Fri, 03 Jun 16 00:20:53 -0500][DEBUG] SELECT id,contrato_id,item,descripcion,unidad,cantidad,acomulado,cantidad_estimada,mayores_menores,valor,valor_total,observacion,asignado,estado,actividad_at FROM actividad WHERE id = 4 LIMIT 1
[Fri, 03 Jun 16 00:20:53 -0500][DEBUG] SELECT id,contrato_id,item,descripcion,unidad,cantidad,acomulado,cantidad_estimada,mayores_menores,valor,valor_total,observacion,asignado,estado,actividad_at FROM actividad WHERE id = 4 LIMIT 1
[Fri, 03 Jun 16 00:20:53 -0500][DEBUG] SELECT SUM(cantidad) FROM actividad_asignada  WHERE actividad_id='4' AND estado='1' 
[Fri, 03 Jun 16 00:20:53 -0500][DEBUG] SELECT id,contrato_id,item,descripcion,unidad,cantidad,acomulado,cantidad_estimada,mayores_menores,valor,valor_total,observacion,asignado,estado,actividad_at FROM actividad WHERE id = 5 LIMIT 1
[Fri, 03 Jun 16 00:20:53 -0500][DEBUG] SELECT id,contrato_id,item,descripcion,unidad,cantidad,acomulado,cantidad_estimada,mayores_menores,valor,valor_total,observacion,asignado,estado,actividad_at FROM actividad WHERE id = 5 LIMIT 1
[Fri, 03 Jun 16 00:20:53 -0500][DEBUG] SELECT SUM(cantidad) FROM actividad_asignada  WHERE actividad_id='5' AND estado='1' 
[Fri, 03 Jun 16 00:21:07 -0500][DEBUG] DESCRIBE `usuario`
[Fri, 03 Jun 16 00:21:07 -0500][DEBUG] DESCRIBE `actividad_asignada`
[Fri, 03 Jun 16 00:21:07 -0500][DEBUG] SELECT id,ot_id,actividad_id,cantidad,estado,actividad_asignada_at FROM actividad_asignada WHERE ot_id = 1
[Fri, 03 Jun 16 00:21:07 -0500][DEBUG] DESCRIBE `actividad`
[Fri, 03 Jun 16 00:21:07 -0500][DEBUG] SELECT id,contrato_id,item,descripcion,unidad,cantidad,acomulado,cantidad_estimada,mayores_menores,valor,valor_total,observacion,asignado,estado,actividad_at FROM actividad WHERE id = 1 LIMIT 1
[Fri, 03 Jun 16 00:21:07 -0500][DEBUG] SELECT id,contrato_id,item,descripcion,unidad,cantidad,acomulado,cantidad_estimada,mayores_menores,valor,valor_total,observacion,asignado,estado,actividad_at FROM actividad WHERE id = 1 LIMIT 1
[Fri, 03 Jun 16 00:21:07 -0500][DEBUG] SELECT SUM(cantidad) FROM actividad_asignada  WHERE actividad_id='1' AND estado='1' 
[Fri, 03 Jun 16 00:21:07 -0500][DEBUG] SELECT id,contrato_id,item,descripcion,unidad,cantidad,acomulado,cantidad_estimada,mayores_menores,valor,valor_total,observacion,asignado,estado,actividad_at FROM actividad WHERE id = 2 LIMIT 1
[Fri, 03 Jun 16 00:21:07 -0500][DEBUG] SELECT id,contrato_id,item,descripcion,unidad,cantidad,acomulado,cantidad_estimada,mayores_menores,valor,valor_total,observacion,asignado,estado,actividad_at FROM actividad WHERE id = 2 LIMIT 1
[Fri, 03 Jun 16 00:21:07 -0500][DEBUG] SELECT SUM(cantidad) FROM actividad_asignada  WHERE actividad_id='2' AND estado='1' 
[Fri, 03 Jun 16 00:21:07 -0500][DEBUG] SELECT id,contrato_id,item,descripcion,unidad,cantidad,acomulado,cantidad_estimada,mayores_menores,valor,valor_total,observacion,asignado,estado,actividad_at FROM actividad WHERE id = 3 LIMIT 1
[Fri, 03 Jun 16 00:21:07 -0500][DEBUG] SELECT id,contrato_id,item,descripcion,unidad,cantidad,acomulado,cantidad_estimada,mayores_menores,valor,valor_total,observacion,asignado,estado,actividad_at FROM actividad WHERE id = 3 LIMIT 1
[Fri, 03 Jun 16 00:21:07 -0500][DEBUG] SELECT SUM(cantidad) FROM actividad_asignada  WHERE actividad_id='3' AND estado='1' 
[Fri, 03 Jun 16 00:21:07 -0500][DEBUG] SELECT id,contrato_id,item,descripcion,unidad,cantidad,acomulado,cantidad_estimada,mayores_menores,valor,valor_total,observacion,asignado,estado,actividad_at FROM actividad WHERE id = 4 LIMIT 1
[Fri, 03 Jun 16 00:21:07 -0500][DEBUG] SELECT id,contrato_id,item,descripcion,unidad,cantidad,acomulado,cantidad_estimada,mayores_menores,valor,valor_total,observacion,asignado,estado,actividad_at FROM actividad WHERE id = 4 LIMIT 1
[Fri, 03 Jun 16 00:21:07 -0500][DEBUG] SELECT SUM(cantidad) FROM actividad_asignada  WHERE actividad_id='4' AND estado='1' 
[Fri, 03 Jun 16 00:21:07 -0500][DEBUG] SELECT id,contrato_id,item,descripcion,unidad,cantidad,acomulado,cantidad_estimada,mayores_menores,valor,valor_total,observacion,asignado,estado,actividad_at FROM actividad WHERE id = 5 LIMIT 1
[Fri, 03 Jun 16 00:21:07 -0500][DEBUG] SELECT id,contrato_id,item,descripcion,unidad,cantidad,acomulado,cantidad_estimada,mayores_menores,valor,valor_total,observacion,asignado,estado,actividad_at FROM actividad WHERE id = 5 LIMIT 1
[Fri, 03 Jun 16 00:21:07 -0500][DEBUG] SELECT SUM(cantidad) FROM actividad_asignada  WHERE actividad_id='5' AND estado='1' 
[Fri, 03 Jun 16 00:21:07 -0500][DEBUG] SELECT id,contrato_id,item,descripcion,unidad,cantidad,acomulado,cantidad_estimada,mayores_menores,valor,valor_total,observacion,asignado,estado,actividad_at FROM actividad WHERE id = 1 LIMIT 1
[Fri, 03 Jun 16 00:21:07 -0500][DEBUG] SELECT id,contrato_id,item,descripcion,unidad,cantidad,acomulado,cantidad_estimada,mayores_menores,valor,valor_total,observacion,asignado,estado,actividad_at FROM actividad WHERE id = 1 LIMIT 1
[Fri, 03 Jun 16 00:21:07 -0500][DEBUG] SELECT SUM(cantidad) FROM actividad_asignada  WHERE actividad_id='1' AND estado='1' 
[Fri, 03 Jun 16 00:21:07 -0500][DEBUG] SELECT id,contrato_id,item,descripcion,unidad,cantidad,acomulado,cantidad_estimada,mayores_menores,valor,valor_total,observacion,asignado,estado,actividad_at FROM actividad WHERE id = 2 LIMIT 1
[Fri, 03 Jun 16 00:21:07 -0500][DEBUG] SELECT id,contrato_id,item,descripcion,unidad,cantidad,acomulado,cantidad_estimada,mayores_menores,valor,valor_total,observacion,asignado,estado,actividad_at FROM actividad WHERE id = 2 LIMIT 1
[Fri, 03 Jun 16 00:21:07 -0500][DEBUG] SELECT SUM(cantidad) FROM actividad_asignada  WHERE actividad_id='2' AND estado='1' 
[Fri, 03 Jun 16 00:21:07 -0500][DEBUG] SELECT id,contrato_id,item,descripcion,unidad,cantidad,acomulado,cantidad_estimada,mayores_menores,valor,valor_total,observacion,asignado,estado,actividad_at FROM actividad WHERE id = 3 LIMIT 1
[Fri, 03 Jun 16 00:21:07 -0500][DEBUG] SELECT id,contrato_id,item,descripcion,unidad,cantidad,acomulado,cantidad_estimada,mayores_menores,valor,valor_total,observacion,asignado,estado,actividad_at FROM actividad WHERE id = 3 LIMIT 1
[Fri, 03 Jun 16 00:21:07 -0500][DEBUG] SELECT SUM(cantidad) FROM actividad_asignada  WHERE actividad_id='3' AND estado='1' 
[Fri, 03 Jun 16 00:21:07 -0500][DEBUG] SELECT id,contrato_id,item,descripcion,unidad,cantidad,acomulado,cantidad_estimada,mayores_menores,valor,valor_total,observacion,asignado,estado,actividad_at FROM actividad WHERE id = 4 LIMIT 1
[Fri, 03 Jun 16 00:21:07 -0500][DEBUG] SELECT id,contrato_id,item,descripcion,unidad,cantidad,acomulado,cantidad_estimada,mayores_menores,valor,valor_total,observacion,asignado,estado,actividad_at FROM actividad WHERE id = 4 LIMIT 1
[Fri, 03 Jun 16 00:21:07 -0500][DEBUG] SELECT SUM(cantidad) FROM actividad_asignada  WHERE actividad_id='4' AND estado='1' 
[Fri, 03 Jun 16 00:21:07 -0500][DEBUG] SELECT id,contrato_id,item,descripcion,unidad,cantidad,acomulado,cantidad_estimada,mayores_menores,valor,valor_total,observacion,asignado,estado,actividad_at FROM actividad WHERE id = 5 LIMIT 1
[Fri, 03 Jun 16 00:21:07 -0500][DEBUG] SELECT id,contrato_id,item,descripcion,unidad,cantidad,acomulado,cantidad_estimada,mayores_menores,valor,valor_total,observacion,asignado,estado,actividad_at FROM actividad WHERE id = 5 LIMIT 1
[Fri, 03 Jun 16 00:21:07 -0500][DEBUG] SELECT SUM(cantidad) FROM actividad_asignada  WHERE actividad_id='5' AND estado='1' 
[Fri, 03 Jun 16 00:21:07 -0500][DEBUG] DESCRIBE `menu`
[Fri, 03 Jun 16 00:21:23 -0500][DEBUG] DESCRIBE `usuario`
[Fri, 03 Jun 16 00:21:23 -0500][DEBUG] DESCRIBE `usuario`
[Fri, 03 Jun 16 00:21:23 -0500][DEBUG] DESCRIBE `contrato`
[Fri, 03 Jun 16 00:21:23 -0500][DEBUG] SELECT COUNT(*) FROM contrato 
[Fri, 03 Jun 16 00:21:23 -0500][DEBUG] SELECT contrato.* FROM contrato ORDER BY nombre ASC LIMIT 30 OFFSET 0
[Fri, 03 Jun 16 00:21:23 -0500][DEBUG] DESCRIBE `cliente`
[Fri, 03 Jun 16 00:21:23 -0500][DEBUG] SELECT id,nombre,nit,direccion,ciudad,email,telefono,celular,nota,registro_at FROM cliente WHERE id = 8 LIMIT 1
[Fri, 03 Jun 16 00:21:23 -0500][DEBUG] DESCRIBE `unidad_de_negocio`
[Fri, 03 Jun 16 00:21:23 -0500][DEBUG] SELECT COUNT(*) FROM unidad_de_negocio  WHERE contrato_id = '1' 
[Fri, 03 Jun 16 00:21:23 -0500][DEBUG] DESCRIBE `actividad`
[Fri, 03 Jun 16 00:21:23 -0500][DEBUG] SELECT COUNT(*) FROM actividad  WHERE contrato_id = '1' 
[Fri, 03 Jun 16 00:21:23 -0500][DEBUG] DESCRIBE `ot`
[Fri, 03 Jun 16 00:21:23 -0500][DEBUG] SELECT COUNT(*) FROM ot  WHERE contrato_id = '1' 
[Fri, 03 Jun 16 00:21:23 -0500][DEBUG] DESCRIBE `menu`
[Fri, 03 Jun 16 00:21:26 -0500][DEBUG] DESCRIBE `usuario`
[Fri, 03 Jun 16 00:21:26 -0500][DEBUG] DESCRIBE `actividad`
[Fri, 03 Jun 16 00:21:26 -0500][DEBUG] SELECT COUNT(*) FROM actividad  WHERE contrato_id = '1' 
[Fri, 03 Jun 16 00:21:26 -0500][DEBUG] DESCRIBE `contrato`
[Fri, 03 Jun 16 00:21:26 -0500][DEBUG] SELECT id,nombre,referencia,vigencia,vigencia_duracion,ejecucion,ejecucion_duracion,nota,cliente_id,admin_tecnico_nombre,admin_tecnico_email,admin_tecnico_telefono,porce_admon,porce_imprevistos,porce_utilidad,valor_total_contrato,registro_at FROM contrato WHERE id = 1 LIMIT 1
[Fri, 03 Jun 16 00:21:26 -0500][DEBUG] DESCRIBE `ot`
[Fri, 03 Jun 16 00:21:26 -0500][DEBUG] SELECT id,contrato_id,unidad_de_negocio_id,nombre_ot,n_ot,id_marco,duracion_inicio,duracion_fin,nota,valor_ot,registro_at FROM ot WHERE contrato_id = 1
[Fri, 03 Jun 16 00:21:26 -0500][DEBUG] DESCRIBE `unidad_de_negocio`
[Fri, 03 Jun 16 00:21:26 -0500][DEBUG] SELECT id,nombre,admin,email,telefono,ubicacion,contrato_id FROM unidad_de_negocio WHERE id = 1 LIMIT 1
[Fri, 03 Jun 16 00:21:26 -0500][DEBUG] DESCRIBE `actividad_asignada`
[Fri, 03 Jun 16 00:21:26 -0500][DEBUG] SELECT COUNT(*) FROM actividad_asignada  WHERE ot_id = 1
[Fri, 03 Jun 16 00:21:28 -0500][DEBUG] DESCRIBE `usuario`
[Fri, 03 Jun 16 00:21:29 -0500][DEBUG] DESCRIBE `ot`
[Fri, 03 Jun 16 00:21:29 -0500][DEBUG] SELECT id,contrato_id,unidad_de_negocio_id,nombre_ot,n_ot,id_marco,duracion_inicio,duracion_fin,nota,valor_ot,registro_at FROM ot WHERE id = 1 LIMIT 1
[Fri, 03 Jun 16 00:21:29 -0500][DEBUG] DESCRIBE `contrato`
[Fri, 03 Jun 16 00:21:29 -0500][DEBUG] SELECT id,nombre,referencia,vigencia,vigencia_duracion,ejecucion,ejecucion_duracion,nota,cliente_id,admin_tecnico_nombre,admin_tecnico_email,admin_tecnico_telefono,porce_admon,porce_imprevistos,porce_utilidad,valor_total_contrato,registro_at FROM contrato WHERE id = 1 LIMIT 1
[Fri, 03 Jun 16 00:21:29 -0500][DEBUG] DESCRIBE `actividad_asignada`
[Fri, 03 Jun 16 00:21:29 -0500][DEBUG] SELECT actividad.descripcion, actividad.unidad, actividad.valor, actividad.valor_total, actividad.observacion, actividad_asignada.cantidad FROM actividad_asignada INNER JOIN actividad ON actividad.id = actividad_asignada.actividad_id WHERE actividad_asignada.ot_id = '1'
[Fri, 03 Jun 16 07:18:16 -0500][DEBUG] DESCRIBE `usuario`
[Fri, 03 Jun 16 07:18:16 -0500][DEBUG] DESCRIBE `actividad_asignada`
[Fri, 03 Jun 16 07:18:16 -0500][DEBUG] SELECT id,ot_id,actividad_id,cantidad,estado,actividad_asignada_at FROM actividad_asignada WHERE ot_id = 1
[Fri, 03 Jun 16 07:18:16 -0500][DEBUG] DESCRIBE `actividad`
[Fri, 03 Jun 16 07:18:16 -0500][DEBUG] SELECT id,contrato_id,item,descripcion,unidad,cantidad,acomulado,cantidad_estimada,mayores_menores,valor,valor_total,observacion,asignado,estado,actividad_at FROM actividad WHERE id = 1 LIMIT 1
[Fri, 03 Jun 16 07:18:16 -0500][DEBUG] SELECT id,contrato_id,item,descripcion,unidad,cantidad,acomulado,cantidad_estimada,mayores_menores,valor,valor_total,observacion,asignado,estado,actividad_at FROM actividad WHERE id = 1 LIMIT 1
[Fri, 03 Jun 16 07:18:16 -0500][DEBUG] SELECT SUM(cantidad) FROM actividad_asignada  WHERE actividad_id='1' AND estado='1' 
[Fri, 03 Jun 16 07:18:16 -0500][DEBUG] SELECT id,contrato_id,item,descripcion,unidad,cantidad,acomulado,cantidad_estimada,mayores_menores,valor,valor_total,observacion,asignado,estado,actividad_at FROM actividad WHERE id = 2 LIMIT 1
[Fri, 03 Jun 16 07:18:16 -0500][DEBUG] SELECT id,contrato_id,item,descripcion,unidad,cantidad,acomulado,cantidad_estimada,mayores_menores,valor,valor_total,observacion,asignado,estado,actividad_at FROM actividad WHERE id = 2 LIMIT 1
[Fri, 03 Jun 16 07:18:16 -0500][DEBUG] SELECT SUM(cantidad) FROM actividad_asignada  WHERE actividad_id='2' AND estado='1' 
[Fri, 03 Jun 16 07:18:16 -0500][DEBUG] SELECT id,contrato_id,item,descripcion,unidad,cantidad,acomulado,cantidad_estimada,mayores_menores,valor,valor_total,observacion,asignado,estado,actividad_at FROM actividad WHERE id = 3 LIMIT 1
[Fri, 03 Jun 16 07:18:16 -0500][DEBUG] SELECT id,contrato_id,item,descripcion,unidad,cantidad,acomulado,cantidad_estimada,mayores_menores,valor,valor_total,observacion,asignado,estado,actividad_at FROM actividad WHERE id = 3 LIMIT 1
[Fri, 03 Jun 16 07:18:16 -0500][DEBUG] SELECT SUM(cantidad) FROM actividad_asignada  WHERE actividad_id='3' AND estado='1' 
[Fri, 03 Jun 16 07:18:16 -0500][DEBUG] SELECT id,contrato_id,item,descripcion,unidad,cantidad,acomulado,cantidad_estimada,mayores_menores,valor,valor_total,observacion,asignado,estado,actividad_at FROM actividad WHERE id = 4 LIMIT 1
[Fri, 03 Jun 16 07:18:16 -0500][DEBUG] SELECT id,contrato_id,item,descripcion,unidad,cantidad,acomulado,cantidad_estimada,mayores_menores,valor,valor_total,observacion,asignado,estado,actividad_at FROM actividad WHERE id = 4 LIMIT 1
[Fri, 03 Jun 16 07:18:16 -0500][DEBUG] SELECT SUM(cantidad) FROM actividad_asignada  WHERE actividad_id='4' AND estado='1' 
[Fri, 03 Jun 16 07:18:16 -0500][DEBUG] SELECT id,contrato_id,item,descripcion,unidad,cantidad,acomulado,cantidad_estimada,mayores_menores,valor,valor_total,observacion,asignado,estado,actividad_at FROM actividad WHERE id = 5 LIMIT 1
[Fri, 03 Jun 16 07:18:16 -0500][DEBUG] SELECT id,contrato_id,item,descripcion,unidad,cantidad,acomulado,cantidad_estimada,mayores_menores,valor,valor_total,observacion,asignado,estado,actividad_at FROM actividad WHERE id = 5 LIMIT 1
[Fri, 03 Jun 16 07:18:16 -0500][DEBUG] SELECT SUM(cantidad) FROM actividad_asignada  WHERE actividad_id='5' AND estado='1' 
[Fri, 03 Jun 16 07:18:16 -0500][DEBUG] SELECT id,contrato_id,item,descripcion,unidad,cantidad,acomulado,cantidad_estimada,mayores_menores,valor,valor_total,observacion,asignado,estado,actividad_at FROM actividad WHERE id = 1 LIMIT 1
[Fri, 03 Jun 16 07:18:16 -0500][DEBUG] SELECT id,contrato_id,item,descripcion,unidad,cantidad,acomulado,cantidad_estimada,mayores_menores,valor,valor_total,observacion,asignado,estado,actividad_at FROM actividad WHERE id = 1 LIMIT 1
[Fri, 03 Jun 16 07:18:16 -0500][DEBUG] SELECT SUM(cantidad) FROM actividad_asignada  WHERE actividad_id='1' AND estado='1' 
[Fri, 03 Jun 16 07:18:16 -0500][DEBUG] SELECT id,contrato_id,item,descripcion,unidad,cantidad,acomulado,cantidad_estimada,mayores_menores,valor,valor_total,observacion,asignado,estado,actividad_at FROM actividad WHERE id = 2 LIMIT 1
[Fri, 03 Jun 16 07:18:16 -0500][DEBUG] SELECT id,contrato_id,item,descripcion,unidad,cantidad,acomulado,cantidad_estimada,mayores_menores,valor,valor_total,observacion,asignado,estado,actividad_at FROM actividad WHERE id = 2 LIMIT 1
[Fri, 03 Jun 16 07:18:16 -0500][DEBUG] SELECT SUM(cantidad) FROM actividad_asignada  WHERE actividad_id='2' AND estado='1' 
[Fri, 03 Jun 16 07:18:16 -0500][DEBUG] SELECT id,contrato_id,item,descripcion,unidad,cantidad,acomulado,cantidad_estimada,mayores_menores,valor,valor_total,observacion,asignado,estado,actividad_at FROM actividad WHERE id = 3 LIMIT 1
[Fri, 03 Jun 16 07:18:16 -0500][DEBUG] SELECT id,contrato_id,item,descripcion,unidad,cantidad,acomulado,cantidad_estimada,mayores_menores,valor,valor_total,observacion,asignado,estado,actividad_at FROM actividad WHERE id = 3 LIMIT 1
[Fri, 03 Jun 16 07:18:16 -0500][DEBUG] SELECT SUM(cantidad) FROM actividad_asignada  WHERE actividad_id='3' AND estado='1' 
[Fri, 03 Jun 16 07:18:16 -0500][DEBUG] SELECT id,contrato_id,item,descripcion,unidad,cantidad,acomulado,cantidad_estimada,mayores_menores,valor,valor_total,observacion,asignado,estado,actividad_at FROM actividad WHERE id = 4 LIMIT 1
[Fri, 03 Jun 16 07:18:16 -0500][DEBUG] SELECT id,contrato_id,item,descripcion,unidad,cantidad,acomulado,cantidad_estimada,mayores_menores,valor,valor_total,observacion,asignado,estado,actividad_at FROM actividad WHERE id = 4 LIMIT 1
[Fri, 03 Jun 16 07:18:16 -0500][DEBUG] SELECT SUM(cantidad) FROM actividad_asignada  WHERE actividad_id='4' AND estado='1' 
[Fri, 03 Jun 16 07:18:16 -0500][DEBUG] SELECT id,contrato_id,item,descripcion,unidad,cantidad,acomulado,cantidad_estimada,mayores_menores,valor,valor_total,observacion,asignado,estado,actividad_at FROM actividad WHERE id = 5 LIMIT 1
[Fri, 03 Jun 16 07:18:16 -0500][DEBUG] SELECT id,contrato_id,item,descripcion,unidad,cantidad,acomulado,cantidad_estimada,mayores_menores,valor,valor_total,observacion,asignado,estado,actividad_at FROM actividad WHERE id = 5 LIMIT 1
[Fri, 03 Jun 16 07:18:16 -0500][DEBUG] SELECT SUM(cantidad) FROM actividad_asignada  WHERE actividad_id='5' AND estado='1' 
[Fri, 03 Jun 16 07:18:17 -0500][DEBUG] DESCRIBE `menu`
[Fri, 03 Jun 16 07:18:17 -0500][DEBUG] DESCRIBE `usuario`
[Fri, 03 Jun 16 07:18:17 -0500][DEBUG] DESCRIBE `ot`
[Fri, 03 Jun 16 07:18:18 -0500][DEBUG] SELECT id,contrato_id,unidad_de_negocio_id,nombre_ot,n_ot,id_marco,duracion_inicio,duracion_fin,nota,valor_ot,registro_at FROM ot WHERE id = 1 LIMIT 1
[Fri, 03 Jun 16 07:18:18 -0500][DEBUG] DESCRIBE `contrato`
[Fri, 03 Jun 16 07:18:18 -0500][DEBUG] SELECT id,nombre,referencia,vigencia,vigencia_duracion,ejecucion,ejecucion_duracion,nota,cliente_id,admin_tecnico_nombre,admin_tecnico_email,admin_tecnico_telefono,porce_admon,porce_imprevistos,porce_utilidad,valor_total_contrato,registro_at FROM contrato WHERE id = 1 LIMIT 1
[Fri, 03 Jun 16 07:18:18 -0500][DEBUG] DESCRIBE `actividad_asignada`
[Fri, 03 Jun 16 07:18:18 -0500][DEBUG] SELECT actividad.descripcion, actividad.unidad, actividad.valor, actividad.valor_total, actividad.observacion, actividad_asignada.cantidad FROM actividad_asignada INNER JOIN actividad ON actividad.id = actividad_asignada.actividad_id WHERE actividad_asignada.ot_id = '1'
[Fri, 03 Jun 16 07:18:18 -0500][DEBUG] DESCRIBE `menu`
[Fri, 03 Jun 16 15:39:10 -0500][DEBUG] DESCRIBE `usuario`
[Fri, 03 Jun 16 15:39:10 -0500][DEBUG] DESCRIBE `reporte`
[Fri, 03 Jun 16 15:39:10 -0500][DEBUG] SELECT COUNT(*) FROM reporte 
[Fri, 03 Jun 16 15:39:10 -0500][DEBUG] DESCRIBE `contrato`
[Fri, 03 Jun 16 15:39:10 -0500][DEBUG] SELECT COUNT(*) FROM contrato 
[Fri, 03 Jun 16 15:39:10 -0500][DEBUG] DESCRIBE `ot_usuario`
[Fri, 03 Jun 16 15:39:10 -0500][DEBUG] SELECT ot_usuario.ot_id, ot_usuario.usuario_id, ot.nombre_ot, ot.duracion_inicio, ot.duracion_fin, ot.nota, ot.unidad_de_negocio_id FROM ot_usuario INNER JOIN ot ON ot.id = ot_usuario.ot_id WHERE ot_usuario.usuario_id = '2'
[Fri, 03 Jun 16 15:39:10 -0500][DEBUG] SELECT id,ot_id,usuario_id,observaciones,interferencias,pfr,reporte_at FROM reporte ORDER BY id desc
[Fri, 03 Jun 16 15:39:10 -0500][DEBUG] SELECT id,nombre,apellido,email,password,perfil_id,tema,app_ajax,datagrid,fotografia,pool,usuario_at,usuario_in FROM usuario WHERE id = 4 LIMIT 1
[Fri, 03 Jun 16 15:39:10 -0500][DEBUG] DESCRIBE `ot`
[Fri, 03 Jun 16 15:39:10 -0500][DEBUG] SELECT id,contrato_id,unidad_de_negocio_id,nombre_ot,n_ot,id_marco,duracion_inicio,duracion_fin,nota,valor_ot,registro_at FROM ot WHERE id = 1 LIMIT 1
[Fri, 03 Jun 16 15:39:10 -0500][DEBUG] DESCRIBE `reporte_actividad`
[Fri, 03 Jun 16 15:39:10 -0500][DEBUG] SELECT SUM(valor_actividad) FROM reporte_actividad  WHERE reporte_id = 6 
[Fri, 03 Jun 16 15:39:10 -0500][DEBUG] SELECT id,nombre,apellido,email,password,perfil_id,tema,app_ajax,datagrid,fotografia,pool,usuario_at,usuario_in FROM usuario WHERE id = 4 LIMIT 1
[Fri, 03 Jun 16 15:39:10 -0500][DEBUG] SELECT id,contrato_id,unidad_de_negocio_id,nombre_ot,n_ot,id_marco,duracion_inicio,duracion_fin,nota,valor_ot,registro_at FROM ot WHERE id = 1 LIMIT 1
[Fri, 03 Jun 16 15:39:10 -0500][DEBUG] SELECT SUM(valor_actividad) FROM reporte_actividad  WHERE reporte_id = 5 
[Fri, 03 Jun 16 15:39:10 -0500][DEBUG] SELECT id,nombre,apellido,email,password,perfil_id,tema,app_ajax,datagrid,fotografia,pool,usuario_at,usuario_in FROM usuario WHERE id = 4 LIMIT 1
[Fri, 03 Jun 16 15:39:10 -0500][DEBUG] SELECT id,contrato_id,unidad_de_negocio_id,nombre_ot,n_ot,id_marco,duracion_inicio,duracion_fin,nota,valor_ot,registro_at FROM ot WHERE id = 1 LIMIT 1
[Fri, 03 Jun 16 15:39:10 -0500][DEBUG] SELECT SUM(valor_actividad) FROM reporte_actividad  WHERE reporte_id = 4 
[Fri, 03 Jun 16 15:39:10 -0500][DEBUG] SELECT id,nombre,apellido,email,password,perfil_id,tema,app_ajax,datagrid,fotografia,pool,usuario_at,usuario_in FROM usuario WHERE id = 4 LIMIT 1
[Fri, 03 Jun 16 15:39:10 -0500][DEBUG] SELECT id,contrato_id,unidad_de_negocio_id,nombre_ot,n_ot,id_marco,duracion_inicio,duracion_fin,nota,valor_ot,registro_at FROM ot WHERE id = 1 LIMIT 1
[Fri, 03 Jun 16 15:39:10 -0500][DEBUG] SELECT SUM(valor_actividad) FROM reporte_actividad  WHERE reporte_id = 3 
[Fri, 03 Jun 16 15:39:10 -0500][DEBUG] SELECT id,nombre,apellido,email,password,perfil_id,tema,app_ajax,datagrid,fotografia,pool,usuario_at,usuario_in FROM usuario WHERE id = 4 LIMIT 1
[Fri, 03 Jun 16 15:39:10 -0500][DEBUG] SELECT id,contrato_id,unidad_de_negocio_id,nombre_ot,n_ot,id_marco,duracion_inicio,duracion_fin,nota,valor_ot,registro_at FROM ot WHERE id = 1 LIMIT 1
[Fri, 03 Jun 16 15:39:10 -0500][DEBUG] SELECT SUM(valor_actividad) FROM reporte_actividad  WHERE reporte_id = 2 
[Fri, 03 Jun 16 15:39:10 -0500][DEBUG] SELECT id,nombre,apellido,email,password,perfil_id,tema,app_ajax,datagrid,fotografia,pool,usuario_at,usuario_in FROM usuario WHERE id = 4 LIMIT 1
[Fri, 03 Jun 16 15:39:10 -0500][DEBUG] SELECT id,contrato_id,unidad_de_negocio_id,nombre_ot,n_ot,id_marco,duracion_inicio,duracion_fin,nota,valor_ot,registro_at FROM ot WHERE id = 1 LIMIT 1
[Fri, 03 Jun 16 15:39:10 -0500][DEBUG] SELECT SUM(valor_actividad) FROM reporte_actividad  WHERE reporte_id = 1 
[Fri, 03 Jun 16 15:39:15 -0500][DEBUG] DESCRIBE `usuario`
[Fri, 03 Jun 16 15:39:15 -0500][DEBUG] DESCRIBE `reporte`
[Fri, 03 Jun 16 15:39:15 -0500][DEBUG] SELECT id,ot_id,usuario_id,observaciones,interferencias,pfr,reporte_at FROM reporte WHERE id = 6 LIMIT 1
[Fri, 03 Jun 16 15:39:15 -0500][DEBUG] DESCRIBE `actividad_asignada`
[Fri, 03 Jun 16 15:39:15 -0500][DEBUG] SELECT actividad.id as actividad_id, actividad.descripcion, actividad.unidad, actividad.cantidad, actividad.observacion FROM actividad_asignada INNER JOIN actividad ON actividad.id = actividad_asignada.actividad_id WHERE actividad_asignada.ot_id = '6'
[Fri, 03 Jun 16 15:39:15 -0500][DEBUG] DESCRIBE `ot`
[Fri, 03 Jun 16 15:39:15 -0500][DEBUG] SELECT contrato.nombre, contrato.referencia, ot.nombre_ot, ot.unidad_de_negocio_id FROM ot INNER JOIN contrato ON contrato.id = ot.contrato_id WHERE  ot.id = '1' LIMIT 1
[Fri, 03 Jun 16 15:39:15 -0500][DEBUG] DESCRIBE `unidad_de_negocio`
[Fri, 03 Jun 16 15:39:15 -0500][DEBUG] SELECT id,nombre,admin,email,telefono,ubicacion,contrato_id FROM unidad_de_negocio WHERE id = 1 LIMIT 1
[Fri, 03 Jun 16 15:39:15 -0500][DEBUG] SELECT id,nombre,apellido,email,password,perfil_id,tema,app_ajax,datagrid,fotografia,pool,usuario_at,usuario_in FROM usuario WHERE id = 4 LIMIT 1
[Fri, 03 Jun 16 15:39:15 -0500][DEBUG] DESCRIBE `reporte_personal`
[Fri, 03 Jun 16 15:39:15 -0500][DEBUG] SELECT id,reporte_id,usuario_id,ot_id,nombre,cargo,horas_laboradas,tipo_empleado,reporte_personal_at FROM reporte_personal WHERE reporte_id = 6
[Fri, 03 Jun 16 15:39:15 -0500][DEBUG] DESCRIBE `reporte_equipo`
[Fri, 03 Jun 16 15:39:15 -0500][DEBUG] SELECT id,reporte_id,usuario_id,ot_id,vehiculo_tipo,vehiculo_placa,kilometraje,reporte_equipo_at FROM reporte_equipo WHERE reporte_id = 6
[Fri, 03 Jun 16 15:39:15 -0500][DEBUG] DESCRIBE `reporte_actividad`
[Fri, 03 Jun 16 15:39:15 -0500][DEBUG] SELECT actividad.item, actividad.descripcion, actividad.unidad, actividad.valor, actividad.observacion, reporte_actividad.cantidad, reporte_actividad.cantidad_adicional FROM reporte_actividad INNER JOIN actividad ON actividad.id = reporte_actividad.actividad_id WHERE  reporte_actividad.reporte_id = '6'
[Fri, 03 Jun 16 15:39:15 -0500][DEBUG] DESCRIBE `reporte_material`
[Fri, 03 Jun 16 15:39:15 -0500][DEBUG] SELECT id,reporte_id,usuario_id,ot_id,material,unidad,cantidad,sitio_instalacion,suministro,reporte_material_at FROM reporte_material WHERE reporte_id = 6
[Fri, 03 Jun 16 15:39:15 -0500][DEBUG] DESCRIBE `reporte_sig_actividad`
[Fri, 03 Jun 16 15:39:15 -0500][DEBUG] SELECT id,reporte_id,usuario_id,ot_id,n_charla,tema,personal_programado,personal_asistente,reporte_sig_actividad_at FROM reporte_sig_actividad WHERE reporte_id = 6
