[Fri, 13 Jan 17 14:08:39 -0500][DEBUG] DESCRIBE `usuario`
[Fri, 13 Jan 17 14:08:40 -0500][DEBUG] DESCRIBE `usuario`
[Fri, 13 Jan 17 14:08:40 -0500][DEBUG] DESCRIBE `cotizacion`
[Fri, 13 Jan 17 14:08:40 -0500][DEBUG] SELECT COUNT(*) FROM cotizacion  WHERE usuario_id=2
[Fri, 13 Jan 17 14:08:40 -0500][DEBUG] SELECT cotizacion.* FROM cotizacion WHERE usuario_id=2 ORDER BY id DESC LIMIT 30 OFFSET 0
[Fri, 13 Jan 17 14:08:40 -0500][DEBUG] DESCRIBE `cliente`
[Fri, 13 Jan 17 14:08:40 -0500][DEBUG] SELECT id,nombre,cc,direccion,ciudad,email,telefono,celular,nota,estado,cliente_at FROM cliente WHERE id = 1 LIMIT 1
[Fri, 13 Jan 17 14:08:40 -0500][DEBUG] DESCRIBE `cotizacion_item`
[Fri, 13 Jan 17 14:08:40 -0500][DEBUG] SELECT COUNT(*) FROM cotizacion_item  WHERE cotizacion_id =25 AND estado >=1
[Fri, 13 Jan 17 14:08:40 -0500][DEBUG] SELECT SUM(valor_total) FROM cotizacion_item  WHERE cotizacion_id =25 AND estado >=1
[Fri, 13 Jan 17 14:08:40 -0500][DEBUG] SELECT id,nombre,cc,direccion,ciudad,email,telefono,celular,nota,estado,cliente_at FROM cliente WHERE id = 5 LIMIT 1
[Fri, 13 Jan 17 14:08:40 -0500][DEBUG] SELECT COUNT(*) FROM cotizacion_item  WHERE cotizacion_id =24 AND estado >=1
[Fri, 13 Jan 17 14:08:40 -0500][DEBUG] SELECT SUM(valor_total) FROM cotizacion_item  WHERE cotizacion_id =24 AND estado >=1
[Fri, 13 Jan 17 14:08:40 -0500][DEBUG] SELECT id,nombre,cc,direccion,ciudad,email,telefono,celular,nota,estado,cliente_at FROM cliente WHERE id = 1 LIMIT 1
[Fri, 13 Jan 17 14:08:40 -0500][DEBUG] SELECT COUNT(*) FROM cotizacion_item  WHERE cotizacion_id =23 AND estado >=1
[Fri, 13 Jan 17 14:08:40 -0500][DEBUG] SELECT SUM(valor_total) FROM cotizacion_item  WHERE cotizacion_id =23 AND estado >=1
[Fri, 13 Jan 17 14:08:40 -0500][DEBUG] SELECT id,nombre,cc,direccion,ciudad,email,telefono,celular,nota,estado,cliente_at FROM cliente WHERE id = 1 LIMIT 1
[Fri, 13 Jan 17 14:08:40 -0500][DEBUG] SELECT COUNT(*) FROM cotizacion_item  WHERE cotizacion_id =22 AND estado >=1
[Fri, 13 Jan 17 14:08:40 -0500][DEBUG] SELECT SUM(valor_total) FROM cotizacion_item  WHERE cotizacion_id =22 AND estado >=1
[Fri, 13 Jan 17 14:08:40 -0500][DEBUG] SELECT id,nombre,cc,direccion,ciudad,email,telefono,celular,nota,estado,cliente_at FROM cliente WHERE id = 1 LIMIT 1
[Fri, 13 Jan 17 14:08:40 -0500][DEBUG] SELECT COUNT(*) FROM cotizacion_item  WHERE cotizacion_id =21 AND estado >=1
[Fri, 13 Jan 17 14:08:40 -0500][DEBUG] SELECT SUM(valor_total) FROM cotizacion_item  WHERE cotizacion_id =21 AND estado >=1
[Fri, 13 Jan 17 14:08:40 -0500][DEBUG] SELECT id,nombre,cc,direccion,ciudad,email,telefono,celular,nota,estado,cliente_at FROM cliente WHERE id = 1 LIMIT 1
[Fri, 13 Jan 17 14:08:40 -0500][DEBUG] SELECT COUNT(*) FROM cotizacion_item  WHERE cotizacion_id =20 AND estado >=1
[Fri, 13 Jan 17 14:08:40 -0500][DEBUG] SELECT SUM(valor_total) FROM cotizacion_item  WHERE cotizacion_id =20 AND estado >=1
[Fri, 13 Jan 17 14:08:40 -0500][DEBUG] SELECT id,nombre,cc,direccion,ciudad,email,telefono,celular,nota,estado,cliente_at FROM cliente WHERE id = 5 LIMIT 1
[Fri, 13 Jan 17 14:08:40 -0500][DEBUG] SELECT COUNT(*) FROM cotizacion_item  WHERE cotizacion_id =19 AND estado >=1
[Fri, 13 Jan 17 14:08:40 -0500][DEBUG] SELECT SUM(valor_total) FROM cotizacion_item  WHERE cotizacion_id =19 AND estado >=1
[Fri, 13 Jan 17 14:08:40 -0500][DEBUG] SELECT id,nombre,cc,direccion,ciudad,email,telefono,celular,nota,estado,cliente_at FROM cliente WHERE id = 5 LIMIT 1
[Fri, 13 Jan 17 14:08:40 -0500][DEBUG] SELECT COUNT(*) FROM cotizacion_item  WHERE cotizacion_id =18 AND estado >=1
[Fri, 13 Jan 17 14:08:40 -0500][DEBUG] SELECT SUM(valor_total) FROM cotizacion_item  WHERE cotizacion_id =18 AND estado >=1
[Fri, 13 Jan 17 14:08:40 -0500][DEBUG] SELECT id,nombre,cc,direccion,ciudad,email,telefono,celular,nota,estado,cliente_at FROM cliente WHERE id = 5 LIMIT 1
[Fri, 13 Jan 17 14:08:40 -0500][DEBUG] SELECT COUNT(*) FROM cotizacion_item  WHERE cotizacion_id =17 AND estado >=1
[Fri, 13 Jan 17 14:08:40 -0500][DEBUG] SELECT SUM(valor_total) FROM cotizacion_item  WHERE cotizacion_id =17 AND estado >=1
[Fri, 13 Jan 17 14:08:40 -0500][DEBUG] SELECT id,nombre,cc,direccion,ciudad,email,telefono,celular,nota,estado,cliente_at FROM cliente WHERE id = 5 LIMIT 1
[Fri, 13 Jan 17 14:08:40 -0500][DEBUG] SELECT COUNT(*) FROM cotizacion_item  WHERE cotizacion_id =16 AND estado >=1
[Fri, 13 Jan 17 14:08:40 -0500][DEBUG] SELECT SUM(valor_total) FROM cotizacion_item  WHERE cotizacion_id =16 AND estado >=1
[Fri, 13 Jan 17 14:08:40 -0500][DEBUG] SELECT id,nombre,cc,direccion,ciudad,email,telefono,celular,nota,estado,cliente_at FROM cliente WHERE id = 1 LIMIT 1
[Fri, 13 Jan 17 14:08:40 -0500][DEBUG] SELECT COUNT(*) FROM cotizacion_item  WHERE cotizacion_id =15 AND estado >=1
[Fri, 13 Jan 17 14:08:40 -0500][DEBUG] SELECT SUM(valor_total) FROM cotizacion_item  WHERE cotizacion_id =15 AND estado >=1
[Fri, 13 Jan 17 14:08:40 -0500][DEBUG] SELECT id,nombre,cc,direccion,ciudad,email,telefono,celular,nota,estado,cliente_at FROM cliente WHERE id = 3 LIMIT 1
[Fri, 13 Jan 17 14:08:40 -0500][DEBUG] SELECT COUNT(*) FROM cotizacion_item  WHERE cotizacion_id =14 AND estado >=1
[Fri, 13 Jan 17 14:08:40 -0500][DEBUG] SELECT SUM(valor_total) FROM cotizacion_item  WHERE cotizacion_id =14 AND estado >=1
[Fri, 13 Jan 17 14:08:40 -0500][DEBUG] SELECT id,nombre,cc,direccion,ciudad,email,telefono,celular,nota,estado,cliente_at FROM cliente WHERE id = 1 LIMIT 1
[Fri, 13 Jan 17 14:08:40 -0500][DEBUG] SELECT COUNT(*) FROM cotizacion_item  WHERE cotizacion_id =13 AND estado >=1
[Fri, 13 Jan 17 14:08:40 -0500][DEBUG] SELECT SUM(valor_total) FROM cotizacion_item  WHERE cotizacion_id =13 AND estado >=1
[Fri, 13 Jan 17 14:08:40 -0500][DEBUG] SELECT id,nombre,cc,direccion,ciudad,email,telefono,celular,nota,estado,cliente_at FROM cliente WHERE id = 1 LIMIT 1
[Fri, 13 Jan 17 14:08:40 -0500][DEBUG] SELECT COUNT(*) FROM cotizacion_item  WHERE cotizacion_id =12 AND estado >=1
[Fri, 13 Jan 17 14:08:40 -0500][DEBUG] SELECT SUM(valor_total) FROM cotizacion_item  WHERE cotizacion_id =12 AND estado >=1
[Fri, 13 Jan 17 14:08:40 -0500][DEBUG] SELECT id,nombre,cc,direccion,ciudad,email,telefono,celular,nota,estado,cliente_at FROM cliente WHERE id = 1 LIMIT 1
[Fri, 13 Jan 17 14:08:40 -0500][DEBUG] SELECT COUNT(*) FROM cotizacion_item  WHERE cotizacion_id =11 AND estado >=1
[Fri, 13 Jan 17 14:08:40 -0500][DEBUG] SELECT SUM(valor_total) FROM cotizacion_item  WHERE cotizacion_id =11 AND estado >=1
[Fri, 13 Jan 17 14:08:40 -0500][DEBUG] SELECT id,nombre,cc,direccion,ciudad,email,telefono,celular,nota,estado,cliente_at FROM cliente WHERE id = 4 LIMIT 1
[Fri, 13 Jan 17 14:08:40 -0500][DEBUG] SELECT COUNT(*) FROM cotizacion_item  WHERE cotizacion_id =10 AND estado >=1
[Fri, 13 Jan 17 14:08:40 -0500][DEBUG] SELECT SUM(valor_total) FROM cotizacion_item  WHERE cotizacion_id =10 AND estado >=1
[Fri, 13 Jan 17 14:08:40 -0500][DEBUG] SELECT id,nombre,cc,direccion,ciudad,email,telefono,celular,nota,estado,cliente_at FROM cliente WHERE id = 4 LIMIT 1
[Fri, 13 Jan 17 14:08:40 -0500][DEBUG] SELECT COUNT(*) FROM cotizacion_item  WHERE cotizacion_id =9 AND estado >=1
[Fri, 13 Jan 17 14:08:40 -0500][DEBUG] SELECT SUM(valor_total) FROM cotizacion_item  WHERE cotizacion_id =9 AND estado >=1
[Fri, 13 Jan 17 14:08:40 -0500][DEBUG] SELECT id,nombre,cc,direccion,ciudad,email,telefono,celular,nota,estado,cliente_at FROM cliente WHERE id = 1 LIMIT 1
[Fri, 13 Jan 17 14:08:40 -0500][DEBUG] SELECT COUNT(*) FROM cotizacion_item  WHERE cotizacion_id =8 AND estado >=1
[Fri, 13 Jan 17 14:08:40 -0500][DEBUG] SELECT SUM(valor_total) FROM cotizacion_item  WHERE cotizacion_id =8 AND estado >=1
[Fri, 13 Jan 17 14:08:40 -0500][DEBUG] SELECT id,nombre,cc,direccion,ciudad,email,telefono,celular,nota,estado,cliente_at FROM cliente WHERE id = 3 LIMIT 1
[Fri, 13 Jan 17 14:08:40 -0500][DEBUG] SELECT COUNT(*) FROM cotizacion_item  WHERE cotizacion_id =7 AND estado >=1
[Fri, 13 Jan 17 14:08:40 -0500][DEBUG] SELECT SUM(valor_total) FROM cotizacion_item  WHERE cotizacion_id =7 AND estado >=1
[Fri, 13 Jan 17 14:08:40 -0500][DEBUG] SELECT id,nombre,cc,direccion,ciudad,email,telefono,celular,nota,estado,cliente_at FROM cliente WHERE id = 1 LIMIT 1
[Fri, 13 Jan 17 14:08:40 -0500][DEBUG] SELECT COUNT(*) FROM cotizacion_item  WHERE cotizacion_id =6 AND estado >=1
[Fri, 13 Jan 17 14:08:40 -0500][DEBUG] SELECT SUM(valor_total) FROM cotizacion_item  WHERE cotizacion_id =6 AND estado >=1
[Fri, 13 Jan 17 14:08:40 -0500][DEBUG] SELECT id,nombre,cc,direccion,ciudad,email,telefono,celular,nota,estado,cliente_at FROM cliente WHERE id = 1 LIMIT 1
[Fri, 13 Jan 17 14:08:40 -0500][DEBUG] SELECT COUNT(*) FROM cotizacion_item  WHERE cotizacion_id =5 AND estado >=1
[Fri, 13 Jan 17 14:08:40 -0500][DEBUG] SELECT SUM(valor_total) FROM cotizacion_item  WHERE cotizacion_id =5 AND estado >=1
[Fri, 13 Jan 17 14:08:40 -0500][DEBUG] SELECT id,nombre,cc,direccion,ciudad,email,telefono,celular,nota,estado,cliente_at FROM cliente WHERE id = 1 LIMIT 1
[Fri, 13 Jan 17 14:08:40 -0500][DEBUG] SELECT COUNT(*) FROM cotizacion_item  WHERE cotizacion_id =4 AND estado >=1
[Fri, 13 Jan 17 14:08:40 -0500][DEBUG] SELECT SUM(valor_total) FROM cotizacion_item  WHERE cotizacion_id =4 AND estado >=1
[Fri, 13 Jan 17 14:08:40 -0500][DEBUG] SELECT id,nombre,cc,direccion,ciudad,email,telefono,celular,nota,estado,cliente_at FROM cliente WHERE id = 1 LIMIT 1
[Fri, 13 Jan 17 14:08:40 -0500][DEBUG] SELECT COUNT(*) FROM cotizacion_item  WHERE cotizacion_id =3 AND estado >=1
[Fri, 13 Jan 17 14:08:40 -0500][DEBUG] SELECT SUM(valor_total) FROM cotizacion_item  WHERE cotizacion_id =3 AND estado >=1
[Fri, 13 Jan 17 14:08:40 -0500][DEBUG] SELECT id,nombre,cc,direccion,ciudad,email,telefono,celular,nota,estado,cliente_at FROM cliente WHERE id = 2 LIMIT 1
[Fri, 13 Jan 17 14:08:40 -0500][DEBUG] SELECT COUNT(*) FROM cotizacion_item  WHERE cotizacion_id =2 AND estado >=1
[Fri, 13 Jan 17 14:08:40 -0500][DEBUG] SELECT SUM(valor_total) FROM cotizacion_item  WHERE cotizacion_id =2 AND estado >=1
[Fri, 13 Jan 17 14:08:40 -0500][DEBUG] SELECT id,nombre,cc,direccion,ciudad,email,telefono,celular,nota,estado,cliente_at FROM cliente WHERE id = 1 LIMIT 1
[Fri, 13 Jan 17 14:08:40 -0500][DEBUG] SELECT COUNT(*) FROM cotizacion_item  WHERE cotizacion_id =1 AND estado >=1
[Fri, 13 Jan 17 14:08:40 -0500][DEBUG] SELECT SUM(valor_total) FROM cotizacion_item  WHERE cotizacion_id =1 AND estado >=1
[Fri, 13 Jan 17 14:08:40 -0500][DEBUG] DESCRIBE `menu`
[Fri, 13 Jan 17 14:08:43 -0500][DEBUG] DESCRIBE `usuario`
[Fri, 13 Jan 17 14:08:44 -0500][DEBUG] DESCRIBE `cliente`
[Fri, 13 Jan 17 14:08:44 -0500][DEBUG] SELECT COUNT(*) FROM cliente 
[Fri, 13 Jan 17 14:08:44 -0500][DEBUG] DESCRIBE `cotizacion`
[Fri, 13 Jan 17 14:08:44 -0500][DEBUG] SELECT COUNT(*) FROM cotizacion  WHERE usuario_id=2
[Fri, 13 Jan 17 14:08:44 -0500][DEBUG] DESCRIBE `proveedor`
[Fri, 13 Jan 17 14:08:44 -0500][DEBUG] SELECT id,nombre,contacto,link,img,estado,proveedor_at FROM proveedor WHERE estado=1
[Fri, 13 Jan 17 14:08:44 -0500][DEBUG] DESCRIBE `menu`
[Fri, 13 Jan 17 14:08:45 -0500][DEBUG] DESCRIBE `usuario`
[Fri, 13 Jan 17 14:08:45 -0500][DEBUG] DESCRIBE `usuario`
[Fri, 13 Jan 17 14:08:45 -0500][DEBUG] DESCRIBE `cotizacion`
[Fri, 13 Jan 17 14:08:45 -0500][DEBUG] SELECT COUNT(*) FROM cotizacion  WHERE usuario_id=2
[Fri, 13 Jan 17 14:08:45 -0500][DEBUG] SELECT cotizacion.* FROM cotizacion WHERE usuario_id=2 ORDER BY id DESC LIMIT 30 OFFSET 0
[Fri, 13 Jan 17 14:08:45 -0500][DEBUG] DESCRIBE `cliente`
[Fri, 13 Jan 17 14:08:45 -0500][DEBUG] SELECT id,nombre,cc,direccion,ciudad,email,telefono,celular,nota,estado,cliente_at FROM cliente WHERE id = 1 LIMIT 1
[Fri, 13 Jan 17 14:08:45 -0500][DEBUG] DESCRIBE `cotizacion_item`
[Fri, 13 Jan 17 14:08:45 -0500][DEBUG] SELECT COUNT(*) FROM cotizacion_item  WHERE cotizacion_id =25 AND estado >=1
[Fri, 13 Jan 17 14:08:45 -0500][DEBUG] SELECT SUM(valor_total) FROM cotizacion_item  WHERE cotizacion_id =25 AND estado >=1
[Fri, 13 Jan 17 14:08:45 -0500][DEBUG] SELECT id,nombre,cc,direccion,ciudad,email,telefono,celular,nota,estado,cliente_at FROM cliente WHERE id = 5 LIMIT 1
[Fri, 13 Jan 17 14:08:45 -0500][DEBUG] SELECT COUNT(*) FROM cotizacion_item  WHERE cotizacion_id =24 AND estado >=1
[Fri, 13 Jan 17 14:08:45 -0500][DEBUG] SELECT SUM(valor_total) FROM cotizacion_item  WHERE cotizacion_id =24 AND estado >=1
[Fri, 13 Jan 17 14:08:45 -0500][DEBUG] SELECT id,nombre,cc,direccion,ciudad,email,telefono,celular,nota,estado,cliente_at FROM cliente WHERE id = 1 LIMIT 1
[Fri, 13 Jan 17 14:08:45 -0500][DEBUG] SELECT COUNT(*) FROM cotizacion_item  WHERE cotizacion_id =23 AND estado >=1
[Fri, 13 Jan 17 14:08:45 -0500][DEBUG] SELECT SUM(valor_total) FROM cotizacion_item  WHERE cotizacion_id =23 AND estado >=1
[Fri, 13 Jan 17 14:08:45 -0500][DEBUG] SELECT id,nombre,cc,direccion,ciudad,email,telefono,celular,nota,estado,cliente_at FROM cliente WHERE id = 1 LIMIT 1
[Fri, 13 Jan 17 14:08:45 -0500][DEBUG] SELECT COUNT(*) FROM cotizacion_item  WHERE cotizacion_id =22 AND estado >=1
[Fri, 13 Jan 17 14:08:45 -0500][DEBUG] SELECT SUM(valor_total) FROM cotizacion_item  WHERE cotizacion_id =22 AND estado >=1
[Fri, 13 Jan 17 14:08:45 -0500][DEBUG] SELECT id,nombre,cc,direccion,ciudad,email,telefono,celular,nota,estado,cliente_at FROM cliente WHERE id = 1 LIMIT 1
[Fri, 13 Jan 17 14:08:45 -0500][DEBUG] SELECT COUNT(*) FROM cotizacion_item  WHERE cotizacion_id =21 AND estado >=1
[Fri, 13 Jan 17 14:08:45 -0500][DEBUG] SELECT SUM(valor_total) FROM cotizacion_item  WHERE cotizacion_id =21 AND estado >=1
[Fri, 13 Jan 17 14:08:45 -0500][DEBUG] SELECT id,nombre,cc,direccion,ciudad,email,telefono,celular,nota,estado,cliente_at FROM cliente WHERE id = 1 LIMIT 1
[Fri, 13 Jan 17 14:08:45 -0500][DEBUG] SELECT COUNT(*) FROM cotizacion_item  WHERE cotizacion_id =20 AND estado >=1
[Fri, 13 Jan 17 14:08:45 -0500][DEBUG] SELECT SUM(valor_total) FROM cotizacion_item  WHERE cotizacion_id =20 AND estado >=1
[Fri, 13 Jan 17 14:08:45 -0500][DEBUG] SELECT id,nombre,cc,direccion,ciudad,email,telefono,celular,nota,estado,cliente_at FROM cliente WHERE id = 5 LIMIT 1
[Fri, 13 Jan 17 14:08:45 -0500][DEBUG] SELECT COUNT(*) FROM cotizacion_item  WHERE cotizacion_id =19 AND estado >=1
[Fri, 13 Jan 17 14:08:45 -0500][DEBUG] SELECT SUM(valor_total) FROM cotizacion_item  WHERE cotizacion_id =19 AND estado >=1
[Fri, 13 Jan 17 14:08:45 -0500][DEBUG] SELECT id,nombre,cc,direccion,ciudad,email,telefono,celular,nota,estado,cliente_at FROM cliente WHERE id = 5 LIMIT 1
[Fri, 13 Jan 17 14:08:45 -0500][DEBUG] SELECT COUNT(*) FROM cotizacion_item  WHERE cotizacion_id =18 AND estado >=1
[Fri, 13 Jan 17 14:08:45 -0500][DEBUG] SELECT SUM(valor_total) FROM cotizacion_item  WHERE cotizacion_id =18 AND estado >=1
[Fri, 13 Jan 17 14:08:45 -0500][DEBUG] SELECT id,nombre,cc,direccion,ciudad,email,telefono,celular,nota,estado,cliente_at FROM cliente WHERE id = 5 LIMIT 1
[Fri, 13 Jan 17 14:08:45 -0500][DEBUG] SELECT COUNT(*) FROM cotizacion_item  WHERE cotizacion_id =17 AND estado >=1
[Fri, 13 Jan 17 14:08:45 -0500][DEBUG] SELECT SUM(valor_total) FROM cotizacion_item  WHERE cotizacion_id =17 AND estado >=1
[Fri, 13 Jan 17 14:08:45 -0500][DEBUG] SELECT id,nombre,cc,direccion,ciudad,email,telefono,celular,nota,estado,cliente_at FROM cliente WHERE id = 5 LIMIT 1
[Fri, 13 Jan 17 14:08:45 -0500][DEBUG] SELECT COUNT(*) FROM cotizacion_item  WHERE cotizacion_id =16 AND estado >=1
[Fri, 13 Jan 17 14:08:45 -0500][DEBUG] SELECT SUM(valor_total) FROM cotizacion_item  WHERE cotizacion_id =16 AND estado >=1
[Fri, 13 Jan 17 14:08:45 -0500][DEBUG] SELECT id,nombre,cc,direccion,ciudad,email,telefono,celular,nota,estado,cliente_at FROM cliente WHERE id = 1 LIMIT 1
[Fri, 13 Jan 17 14:08:45 -0500][DEBUG] SELECT COUNT(*) FROM cotizacion_item  WHERE cotizacion_id =15 AND estado >=1
[Fri, 13 Jan 17 14:08:45 -0500][DEBUG] SELECT SUM(valor_total) FROM cotizacion_item  WHERE cotizacion_id =15 AND estado >=1
[Fri, 13 Jan 17 14:08:45 -0500][DEBUG] SELECT id,nombre,cc,direccion,ciudad,email,telefono,celular,nota,estado,cliente_at FROM cliente WHERE id = 3 LIMIT 1
[Fri, 13 Jan 17 14:08:45 -0500][DEBUG] SELECT COUNT(*) FROM cotizacion_item  WHERE cotizacion_id =14 AND estado >=1
[Fri, 13 Jan 17 14:08:45 -0500][DEBUG] SELECT SUM(valor_total) FROM cotizacion_item  WHERE cotizacion_id =14 AND estado >=1
[Fri, 13 Jan 17 14:08:45 -0500][DEBUG] SELECT id,nombre,cc,direccion,ciudad,email,telefono,celular,nota,estado,cliente_at FROM cliente WHERE id = 1 LIMIT 1
[Fri, 13 Jan 17 14:08:45 -0500][DEBUG] SELECT COUNT(*) FROM cotizacion_item  WHERE cotizacion_id =13 AND estado >=1
[Fri, 13 Jan 17 14:08:45 -0500][DEBUG] SELECT SUM(valor_total) FROM cotizacion_item  WHERE cotizacion_id =13 AND estado >=1
[Fri, 13 Jan 17 14:08:45 -0500][DEBUG] SELECT id,nombre,cc,direccion,ciudad,email,telefono,celular,nota,estado,cliente_at FROM cliente WHERE id = 1 LIMIT 1
[Fri, 13 Jan 17 14:08:45 -0500][DEBUG] SELECT COUNT(*) FROM cotizacion_item  WHERE cotizacion_id =12 AND estado >=1
[Fri, 13 Jan 17 14:08:45 -0500][DEBUG] SELECT SUM(valor_total) FROM cotizacion_item  WHERE cotizacion_id =12 AND estado >=1
[Fri, 13 Jan 17 14:08:45 -0500][DEBUG] SELECT id,nombre,cc,direccion,ciudad,email,telefono,celular,nota,estado,cliente_at FROM cliente WHERE id = 1 LIMIT 1
[Fri, 13 Jan 17 14:08:45 -0500][DEBUG] SELECT COUNT(*) FROM cotizacion_item  WHERE cotizacion_id =11 AND estado >=1
[Fri, 13 Jan 17 14:08:45 -0500][DEBUG] SELECT SUM(valor_total) FROM cotizacion_item  WHERE cotizacion_id =11 AND estado >=1
[Fri, 13 Jan 17 14:08:45 -0500][DEBUG] SELECT id,nombre,cc,direccion,ciudad,email,telefono,celular,nota,estado,cliente_at FROM cliente WHERE id = 4 LIMIT 1
[Fri, 13 Jan 17 14:08:45 -0500][DEBUG] SELECT COUNT(*) FROM cotizacion_item  WHERE cotizacion_id =10 AND estado >=1
[Fri, 13 Jan 17 14:08:45 -0500][DEBUG] SELECT SUM(valor_total) FROM cotizacion_item  WHERE cotizacion_id =10 AND estado >=1
[Fri, 13 Jan 17 14:08:45 -0500][DEBUG] SELECT id,nombre,cc,direccion,ciudad,email,telefono,celular,nota,estado,cliente_at FROM cliente WHERE id = 4 LIMIT 1
[Fri, 13 Jan 17 14:08:45 -0500][DEBUG] SELECT COUNT(*) FROM cotizacion_item  WHERE cotizacion_id =9 AND estado >=1
[Fri, 13 Jan 17 14:08:45 -0500][DEBUG] SELECT SUM(valor_total) FROM cotizacion_item  WHERE cotizacion_id =9 AND estado >=1
[Fri, 13 Jan 17 14:08:45 -0500][DEBUG] SELECT id,nombre,cc,direccion,ciudad,email,telefono,celular,nota,estado,cliente_at FROM cliente WHERE id = 1 LIMIT 1
[Fri, 13 Jan 17 14:08:45 -0500][DEBUG] SELECT COUNT(*) FROM cotizacion_item  WHERE cotizacion_id =8 AND estado >=1
[Fri, 13 Jan 17 14:08:45 -0500][DEBUG] SELECT SUM(valor_total) FROM cotizacion_item  WHERE cotizacion_id =8 AND estado >=1
[Fri, 13 Jan 17 14:08:45 -0500][DEBUG] SELECT id,nombre,cc,direccion,ciudad,email,telefono,celular,nota,estado,cliente_at FROM cliente WHERE id = 3 LIMIT 1
[Fri, 13 Jan 17 14:08:45 -0500][DEBUG] SELECT COUNT(*) FROM cotizacion_item  WHERE cotizacion_id =7 AND estado >=1
[Fri, 13 Jan 17 14:08:45 -0500][DEBUG] SELECT SUM(valor_total) FROM cotizacion_item  WHERE cotizacion_id =7 AND estado >=1
[Fri, 13 Jan 17 14:08:45 -0500][DEBUG] SELECT id,nombre,cc,direccion,ciudad,email,telefono,celular,nota,estado,cliente_at FROM cliente WHERE id = 1 LIMIT 1
[Fri, 13 Jan 17 14:08:45 -0500][DEBUG] SELECT COUNT(*) FROM cotizacion_item  WHERE cotizacion_id =6 AND estado >=1
[Fri, 13 Jan 17 14:08:45 -0500][DEBUG] SELECT SUM(valor_total) FROM cotizacion_item  WHERE cotizacion_id =6 AND estado >=1
[Fri, 13 Jan 17 14:08:45 -0500][DEBUG] SELECT id,nombre,cc,direccion,ciudad,email,telefono,celular,nota,estado,cliente_at FROM cliente WHERE id = 1 LIMIT 1
[Fri, 13 Jan 17 14:08:45 -0500][DEBUG] SELECT COUNT(*) FROM cotizacion_item  WHERE cotizacion_id =5 AND estado >=1
[Fri, 13 Jan 17 14:08:45 -0500][DEBUG] SELECT SUM(valor_total) FROM cotizacion_item  WHERE cotizacion_id =5 AND estado >=1
[Fri, 13 Jan 17 14:08:45 -0500][DEBUG] SELECT id,nombre,cc,direccion,ciudad,email,telefono,celular,nota,estado,cliente_at FROM cliente WHERE id = 1 LIMIT 1
[Fri, 13 Jan 17 14:08:45 -0500][DEBUG] SELECT COUNT(*) FROM cotizacion_item  WHERE cotizacion_id =4 AND estado >=1
[Fri, 13 Jan 17 14:08:45 -0500][DEBUG] SELECT SUM(valor_total) FROM cotizacion_item  WHERE cotizacion_id =4 AND estado >=1
[Fri, 13 Jan 17 14:08:45 -0500][DEBUG] SELECT id,nombre,cc,direccion,ciudad,email,telefono,celular,nota,estado,cliente_at FROM cliente WHERE id = 1 LIMIT 1
[Fri, 13 Jan 17 14:08:45 -0500][DEBUG] SELECT COUNT(*) FROM cotizacion_item  WHERE cotizacion_id =3 AND estado >=1
[Fri, 13 Jan 17 14:08:45 -0500][DEBUG] SELECT SUM(valor_total) FROM cotizacion_item  WHERE cotizacion_id =3 AND estado >=1
[Fri, 13 Jan 17 14:08:45 -0500][DEBUG] SELECT id,nombre,cc,direccion,ciudad,email,telefono,celular,nota,estado,cliente_at FROM cliente WHERE id = 2 LIMIT 1
[Fri, 13 Jan 17 14:08:45 -0500][DEBUG] SELECT COUNT(*) FROM cotizacion_item  WHERE cotizacion_id =2 AND estado >=1
[Fri, 13 Jan 17 14:08:45 -0500][DEBUG] SELECT SUM(valor_total) FROM cotizacion_item  WHERE cotizacion_id =2 AND estado >=1
[Fri, 13 Jan 17 14:08:45 -0500][DEBUG] SELECT id,nombre,cc,direccion,ciudad,email,telefono,celular,nota,estado,cliente_at FROM cliente WHERE id = 1 LIMIT 1
[Fri, 13 Jan 17 14:08:45 -0500][DEBUG] SELECT COUNT(*) FROM cotizacion_item  WHERE cotizacion_id =1 AND estado >=1
[Fri, 13 Jan 17 14:08:45 -0500][DEBUG] SELECT SUM(valor_total) FROM cotizacion_item  WHERE cotizacion_id =1 AND estado >=1
[Fri, 13 Jan 17 14:08:46 -0500][DEBUG] DESCRIBE `usuario`
[Fri, 13 Jan 17 14:08:48 -0500][DEBUG] DESCRIBE `usuario`
[Fri, 13 Jan 17 14:08:48 -0500][DEBUG] DESCRIBE `cliente`
[Fri, 13 Jan 17 14:08:48 -0500][DEBUG] SELECT cliente.* FROM cliente WHERE  cliente.nombre LIKE '%CARLOS%'
[Fri, 13 Jan 17 14:08:49 -0500][DEBUG] DESCRIBE `usuario`
[Fri, 13 Jan 17 14:08:49 -0500][DEBUG] DESCRIBE `cliente`
[Fri, 13 Jan 17 14:08:49 -0500][DEBUG] SELECT id,nombre,cc,direccion,ciudad,email,telefono,celular,nota,estado,cliente_at FROM cliente WHERE id = 1 LIMIT 1
[Fri, 13 Jan 17 14:08:51 -0500][DEBUG] DESCRIBE `codigo_iata`
[Fri, 13 Jan 17 14:08:51 -0500][DEBUG] SELECT codigo, ciudad FROM codigo_iata ORDER BY ciudad ASC
[Fri, 13 Jan 17 14:08:51 -0500][DEBUG] DESCRIBE `producto`
[Fri, 13 Jan 17 14:08:51 -0500][DEBUG] SELECT id,nombre,icono,estado,producto_at FROM producto WHERE estado=1
[Fri, 13 Jan 17 14:08:51 -0500][DEBUG] DESCRIBE `proveedor`
[Fri, 13 Jan 17 14:08:51 -0500][DEBUG] SELECT proveedor.id, proveedor.img, proveedor.link, proveedor_producto.producto_nombre FROM proveedor inner join proveedor_producto on proveedor.id = proveedor_producto.proveedor_id WHERE proveedor_producto.producto_nombre='hotel' 
[Fri, 13 Jan 17 14:08:51 -0500][DEBUG] SELECT proveedor.id, proveedor.img, proveedor.link, proveedor_producto.producto_nombre FROM proveedor inner join proveedor_producto on proveedor.id = proveedor_producto.proveedor_id WHERE proveedor_producto.producto_nombre='tickets' 
[Fri, 13 Jan 17 14:08:51 -0500][DEBUG] SELECT proveedor.id, proveedor.img, proveedor.link, proveedor_producto.producto_nombre FROM proveedor inner join proveedor_producto on proveedor.id = proveedor_producto.proveedor_id WHERE proveedor_producto.producto_nombre='carro' 
[Fri, 13 Jan 17 14:08:51 -0500][DEBUG] SELECT proveedor.id, proveedor.img, proveedor.link, proveedor_producto.producto_nombre FROM proveedor inner join proveedor_producto on proveedor.id = proveedor_producto.proveedor_id WHERE proveedor_producto.producto_nombre='paquete' 
[Fri, 13 Jan 17 14:08:51 -0500][DEBUG] SELECT proveedor.id, proveedor.img, proveedor.link, proveedor_producto.producto_nombre FROM proveedor inner join proveedor_producto on proveedor.id = proveedor_producto.proveedor_id WHERE proveedor_producto.producto_nombre='crucero' 
[Fri, 13 Jan 17 14:08:51 -0500][DEBUG] SELECT proveedor.id, proveedor.img, proveedor.link, proveedor_producto.producto_nombre FROM proveedor inner join proveedor_producto on proveedor.id = proveedor_producto.proveedor_id WHERE proveedor_producto.producto_nombre='asistencia' 
