[Mon, 12 Nov 18 12:47:07 -0500][DEBUG] DESCRIBE `usuario`
[Mon, 12 Nov 18 12:47:08 -0500][DEBUG] DESCRIBE `usuario`
[Mon, 12 Nov 18 12:48:01 -0500][DEBUG] DESCRIBE `usuario`
[Mon, 12 Nov 18 12:48:01 -0500][DEBUG] SELECT id,nombre,apellido,password,perfil_id,email,tema,app_ajax,datagrid,fotografia,pool,usuario_at,usuario_in FROM usuario WHERE email = 'admin@servidigital.co' AND password = '7c4a8d09ca3762af61e59520943dc26494f8941b' LIMIT 1
[Mon, 12 Nov 18 12:48:01 -0500][DEBUG] SELECT usuario.*, perfil.perfil, estado_usuario.estado_usuario FROM usuario INNER JOIN perfil ON perfil.id = usuario.perfil_id INNER JOIN (SELECT usuario_id, estado_usuario, descripcion, estado_usuario_at FROM (SELECT * FROM estado_usuario ORDER BY estado_usuario.id DESC ) AS estado_usuario GROUP BY estado_usuario.usuario_id ) AS estado_usuario ON estado_usuario.usuario_id = usuario.id  WHERE usuario.id = '2' LIMIT 1
[Mon, 12 Nov 18 12:48:01 -0500][DEBUG] DESCRIBE `acceso`
[Mon, 12 Nov 18 12:48:01 -0500][DEBUG] INSERT INTO acceso (usuario_id,tipo_acceso,ip,acceso_at) VALUES ('2','1','::1','2018-11-12 12:48:01')
[Mon, 12 Nov 18 12:48:01 -0500][DEBUG] SELECT id,usuario_id,tipo_acceso,ip,acceso_at FROM acceso WHERE id = 288 LIMIT 1
[Mon, 12 Nov 18 12:48:01 -0500][DEBUG] DESCRIBE `usuario`
[Mon, 12 Nov 18 12:48:01 -0500][DEBUG] DESCRIBE `cliente`
[Mon, 12 Nov 18 12:48:01 -0500][DEBUG] SELECT COUNT(*) FROM cliente 
[Mon, 12 Nov 18 12:48:01 -0500][DEBUG] DESCRIBE `cotizacion`
[Mon, 12 Nov 18 12:48:01 -0500][DEBUG] SELECT COUNT(*) FROM cotizacion  WHERE usuario_id=2
[Mon, 12 Nov 18 12:48:01 -0500][DEBUG] DESCRIBE `solicitud`
[Mon, 12 Nov 18 12:48:01 -0500][DEBUG] SELECT COUNT(*) FROM solicitud  WHERE usuario_id=2 AND estado=1
[Mon, 12 Nov 18 12:48:01 -0500][DEBUG] DESCRIBE `proveedor`
[Mon, 12 Nov 18 12:48:01 -0500][DEBUG] SELECT id,nombre,contacto,link,img,estado,proveedor_at FROM proveedor WHERE estado=1
[Mon, 12 Nov 18 12:48:01 -0500][DEBUG] DESCRIBE `menu`
[Mon, 12 Nov 18 12:48:05 -0500][DEBUG] DESCRIBE `usuario`
[Mon, 12 Nov 18 12:48:05 -0500][DEBUG] DESCRIBE `usuario`
[Mon, 12 Nov 18 12:48:05 -0500][DEBUG] DESCRIBE `menu`
[Mon, 12 Nov 18 12:48:06 -0500][DEBUG] DESCRIBE `vehiculo`
[Mon, 12 Nov 18 12:48:06 -0500][DEBUG] SELECT id,nombre,placa,sillas,estado,vehiculo_at FROM vehiculo WHERE estado=1 ORDER BY nombre asc
[Mon, 12 Nov 18 12:48:06 -0500][DEBUG] DESCRIBE `vehiculo_servicio`
[Mon, 12 Nov 18 12:48:06 -0500][DEBUG] SELECT id,vehiculo_id,nombre,tipo_servicio FROM vehiculo_servicio WHERE vehiculo_id=5
[Mon, 12 Nov 18 12:48:06 -0500][DEBUG] SELECT id,vehiculo_id,nombre,tipo_servicio FROM vehiculo_servicio WHERE vehiculo_id=2
[Mon, 12 Nov 18 12:48:06 -0500][DEBUG] SELECT id,vehiculo_id,nombre,tipo_servicio FROM vehiculo_servicio WHERE vehiculo_id=1
[Mon, 12 Nov 18 12:48:06 -0500][DEBUG] SELECT id,vehiculo_id,nombre,tipo_servicio FROM vehiculo_servicio WHERE vehiculo_id=3
[Mon, 12 Nov 18 12:48:06 -0500][DEBUG] SELECT id,vehiculo_id,nombre,tipo_servicio FROM vehiculo_servicio WHERE vehiculo_id=8
[Mon, 12 Nov 18 12:48:06 -0500][DEBUG] SELECT id,vehiculo_id,nombre,tipo_servicio FROM vehiculo_servicio WHERE vehiculo_id=9
[Mon, 12 Nov 18 12:48:06 -0500][DEBUG] SELECT id,vehiculo_id,nombre,tipo_servicio FROM vehiculo_servicio WHERE vehiculo_id=7
[Mon, 12 Nov 18 12:48:06 -0500][DEBUG] SELECT id,vehiculo_id,nombre,tipo_servicio FROM vehiculo_servicio WHERE vehiculo_id=4
[Mon, 12 Nov 18 12:48:06 -0500][DEBUG] SELECT id,vehiculo_id,nombre,tipo_servicio FROM vehiculo_servicio WHERE vehiculo_id=6
[Mon, 12 Nov 18 19:19:23 -0500][DEBUG] DESCRIBE `usuario`
[Mon, 12 Nov 18 19:19:23 -0500][DEBUG] DESCRIBE `menu`
[Mon, 12 Nov 18 19:19:39 -0500][DEBUG] DESCRIBE `vehiculo`
[Mon, 12 Nov 18 19:19:39 -0500][DEBUG] SELECT id,nombre,placa,sillas,estado,vehiculo_at FROM vehiculo WHERE estado=1 ORDER BY nombre asc
[Mon, 12 Nov 18 19:19:39 -0500][DEBUG] DESCRIBE `vehiculo_servicio`
[Mon, 12 Nov 18 19:19:39 -0500][DEBUG] SELECT id,vehiculo_id,nombre,tipo_servicio FROM vehiculo_servicio WHERE vehiculo_id=5
[Mon, 12 Nov 18 19:19:39 -0500][DEBUG] SELECT id,vehiculo_id,nombre,tipo_servicio FROM vehiculo_servicio WHERE vehiculo_id=2
[Mon, 12 Nov 18 19:19:39 -0500][DEBUG] SELECT id,vehiculo_id,nombre,tipo_servicio FROM vehiculo_servicio WHERE vehiculo_id=1
[Mon, 12 Nov 18 19:19:39 -0500][DEBUG] SELECT id,vehiculo_id,nombre,tipo_servicio FROM vehiculo_servicio WHERE vehiculo_id=3
[Mon, 12 Nov 18 19:19:39 -0500][DEBUG] SELECT id,vehiculo_id,nombre,tipo_servicio FROM vehiculo_servicio WHERE vehiculo_id=8
[Mon, 12 Nov 18 19:19:39 -0500][DEBUG] SELECT id,vehiculo_id,nombre,tipo_servicio FROM vehiculo_servicio WHERE vehiculo_id=9
[Mon, 12 Nov 18 19:19:39 -0500][DEBUG] SELECT id,vehiculo_id,nombre,tipo_servicio FROM vehiculo_servicio WHERE vehiculo_id=7
[Mon, 12 Nov 18 19:19:39 -0500][DEBUG] SELECT id,vehiculo_id,nombre,tipo_servicio FROM vehiculo_servicio WHERE vehiculo_id=4
[Mon, 12 Nov 18 19:19:39 -0500][DEBUG] SELECT id,vehiculo_id,nombre,tipo_servicio FROM vehiculo_servicio WHERE vehiculo_id=6
