[Tue, 27 Feb 18 14:48:37 -0500][DEBUG] DESCRIBE `usuario`
[Tue, 27 Feb 18 14:48:37 -0500][DEBUG] DESCRIBE `usuario`
[Tue, 27 Feb 18 14:48:40 -0500][DEBUG] DESCRIBE `usuario`
[Tue, 27 Feb 18 14:48:40 -0500][DEBUG] SELECT id,nombre,apellido,password,perfil_id,email,tema,app_ajax,datagrid,fotografia,pool,usuario_at,usuario_in FROM usuario WHERE email = 'admin' AND password = '2953fc3e379fa941e38225c1e90984722232c626' LIMIT 1
[Tue, 27 Feb 18 14:48:40 -0500][DEBUG] DESCRIBE `usuario`
[Tue, 27 Feb 18 14:48:47 -0500][DEBUG] DESCRIBE `usuario`
[Tue, 27 Feb 18 14:48:47 -0500][DEBUG] SELECT id,nombre,apellido,password,perfil_id,email,tema,app_ajax,datagrid,fotografia,pool,usuario_at,usuario_in FROM usuario WHERE email = 'admin@servidigital.co' AND password = '7c4a8d09ca3762af61e59520943dc26494f8941b' LIMIT 1
[Tue, 27 Feb 18 14:48:47 -0500][DEBUG] SELECT usuario.*, perfil.perfil, estado_usuario.estado_usuario FROM usuario INNER JOIN perfil ON perfil.id = usuario.perfil_id INNER JOIN (SELECT usuario_id, estado_usuario, descripcion, estado_usuario_at FROM (SELECT * FROM estado_usuario ORDER BY estado_usuario.id DESC ) AS estado_usuario GROUP BY estado_usuario.usuario_id ) AS estado_usuario ON estado_usuario.usuario_id = usuario.id  WHERE usuario.id = '2' LIMIT 1
[Tue, 27 Feb 18 14:48:47 -0500][DEBUG] DESCRIBE `acceso`
[Tue, 27 Feb 18 14:48:47 -0500][DEBUG] INSERT INTO acceso (usuario_id,tipo_acceso,ip,acceso_at) VALUES ('2','1','::1','2018-02-27 14:48:47')
[Tue, 27 Feb 18 14:48:47 -0500][DEBUG] SELECT id,usuario_id,tipo_acceso,ip,acceso_at FROM acceso WHERE id = 233 LIMIT 1
[Tue, 27 Feb 18 14:48:47 -0500][DEBUG] DESCRIBE `usuario`
[Tue, 27 Feb 18 14:48:47 -0500][DEBUG] DESCRIBE `cliente`
[Tue, 27 Feb 18 14:48:47 -0500][DEBUG] SELECT COUNT(*) FROM cliente 
[Tue, 27 Feb 18 14:48:47 -0500][DEBUG] DESCRIBE `cotizacion`
[Tue, 27 Feb 18 14:48:47 -0500][DEBUG] SELECT COUNT(*) FROM cotizacion  WHERE usuario_id=2
[Tue, 27 Feb 18 14:48:47 -0500][DEBUG] DESCRIBE `proveedor`
[Tue, 27 Feb 18 14:48:47 -0500][DEBUG] SELECT id,nombre,contacto,link,img,estado,proveedor_at FROM proveedor WHERE estado=1
[Tue, 27 Feb 18 14:48:47 -0500][DEBUG] DESCRIBE `menu`
[Tue, 27 Feb 18 14:50:28 -0500][DEBUG] DESCRIBE `usuario`
[Tue, 27 Feb 18 14:50:28 -0500][DEBUG] DESCRIBE `solicitud`
[Tue, 27 Feb 18 14:50:28 -0500][DEBUG] SELECT id,cliente_id,detalle,color,usuario_id,estado,solicitud_at FROM solicitud
[Tue, 27 Feb 18 14:50:28 -0500][DEBUG] DESCRIBE `cliente`
[Tue, 27 Feb 18 14:50:28 -0500][DEBUG] SELECT id,nombre,cc,direccion,ciudad,email,telefono,celular,nota,estado,cliente_at FROM cliente WHERE id=2 LIMIT 1
[Tue, 27 Feb 18 14:50:28 -0500][DEBUG] SELECT id,nombre,cc,direccion,ciudad,email,telefono,celular,nota,estado,cliente_at FROM cliente WHERE id=3 LIMIT 1
[Tue, 27 Feb 18 14:50:28 -0500][DEBUG] DESCRIBE `menu`
[Tue, 27 Feb 18 14:58:35 -0500][DEBUG] DESCRIBE `usuario`
[Tue, 27 Feb 18 14:58:35 -0500][DEBUG] DESCRIBE `solicitud`
[Tue, 27 Feb 18 14:58:35 -0500][DEBUG] SELECT id,nombre,celular,email,detalle,color,usuario_id,estado,solicitud_at FROM solicitud
[Tue, 27 Feb 18 14:58:35 -0500][DEBUG] DESCRIBE `cliente`
[Tue, 27 Feb 18 14:58:35 -0500][DEBUG] SELECT id,nombre,cc,direccion,ciudad,email,telefono,celular,nota,estado,cliente_at FROM cliente WHERE id= LIMIT 1
[Tue, 27 Feb 18 14:58:35 -0500][ERROR] You have an error in your SQL syntax; check the manual that corresponds to your MySQL server version for the right syntax to use near 'LIMIT 1' at line 1 al ejecutar <em>"SELECT id,nombre,cc,direccion,ciudad,email,telefono,celular,nota,estado,cliente_at FROM cliente WHERE id= LIMIT 1"</em>
[Tue, 27 Feb 18 14:58:44 -0500][DEBUG] DESCRIBE `usuario`
[Tue, 27 Feb 18 14:58:44 -0500][DEBUG] DESCRIBE `solicitud`
[Tue, 27 Feb 18 14:58:44 -0500][DEBUG] SELECT id,nombre,celular,email,detalle,color,usuario_id,estado,solicitud_at FROM solicitud
[Tue, 27 Feb 18 14:58:44 -0500][DEBUG] DESCRIBE `cliente`
[Tue, 27 Feb 18 14:58:44 -0500][DEBUG] SELECT id,nombre,cc,direccion,ciudad,email,telefono,celular,nota,estado,cliente_at FROM cliente WHERE id= LIMIT 1
[Tue, 27 Feb 18 14:58:44 -0500][ERROR] You have an error in your SQL syntax; check the manual that corresponds to your MySQL server version for the right syntax to use near 'LIMIT 1' at line 1 al ejecutar <em>"SELECT id,nombre,cc,direccion,ciudad,email,telefono,celular,nota,estado,cliente_at FROM cliente WHERE id= LIMIT 1"</em>
[Tue, 27 Feb 18 14:59:10 -0500][DEBUG] DESCRIBE `usuario`
[Tue, 27 Feb 18 14:59:10 -0500][DEBUG] DESCRIBE `solicitud`
[Tue, 27 Feb 18 14:59:10 -0500][DEBUG] SELECT id,nombre,celular,email,detalle,color,usuario_id,estado,solicitud_at FROM solicitud
[Tue, 27 Feb 18 14:59:10 -0500][DEBUG] DESCRIBE `cliente`
[Tue, 27 Feb 18 14:59:10 -0500][DEBUG] SELECT id,nombre,cc,direccion,ciudad,email,telefono,celular,nota,estado,cliente_at FROM cliente WHERE id= LIMIT 1
[Tue, 27 Feb 18 14:59:10 -0500][ERROR] You have an error in your SQL syntax; check the manual that corresponds to your MySQL server version for the right syntax to use near 'LIMIT 1' at line 1 al ejecutar <em>"SELECT id,nombre,cc,direccion,ciudad,email,telefono,celular,nota,estado,cliente_at FROM cliente WHERE id= LIMIT 1"</em>
[Tue, 27 Feb 18 15:00:31 -0500][DEBUG] DESCRIBE `usuario`
[Tue, 27 Feb 18 15:00:31 -0500][DEBUG] DESCRIBE `cliente`
[Tue, 27 Feb 18 15:00:31 -0500][DEBUG] SELECT COUNT(*) FROM cliente 
[Tue, 27 Feb 18 15:00:31 -0500][DEBUG] DESCRIBE `cotizacion`
[Tue, 27 Feb 18 15:00:31 -0500][DEBUG] SELECT COUNT(*) FROM cotizacion  WHERE usuario_id=2
[Tue, 27 Feb 18 15:00:31 -0500][DEBUG] DESCRIBE `proveedor`
[Tue, 27 Feb 18 15:00:31 -0500][DEBUG] SELECT id,nombre,contacto,link,img,estado,proveedor_at FROM proveedor WHERE estado=1
[Tue, 27 Feb 18 15:00:31 -0500][DEBUG] DESCRIBE `menu`
[Tue, 27 Feb 18 15:00:32 -0500][DEBUG] DESCRIBE `usuario`
[Tue, 27 Feb 18 15:00:32 -0500][DEBUG] DESCRIBE `cliente`
[Tue, 27 Feb 18 15:00:32 -0500][DEBUG] SELECT COUNT(*) FROM cliente 
[Tue, 27 Feb 18 15:00:32 -0500][DEBUG] DESCRIBE `cotizacion`
[Tue, 27 Feb 18 15:00:32 -0500][DEBUG] SELECT COUNT(*) FROM cotizacion  WHERE usuario_id=2
[Tue, 27 Feb 18 15:00:32 -0500][DEBUG] DESCRIBE `proveedor`
[Tue, 27 Feb 18 15:00:32 -0500][DEBUG] SELECT id,nombre,contacto,link,img,estado,proveedor_at FROM proveedor WHERE estado=1
[Tue, 27 Feb 18 15:00:32 -0500][DEBUG] DESCRIBE `menu`
[Tue, 27 Feb 18 15:00:34 -0500][DEBUG] DESCRIBE `usuario`
[Tue, 27 Feb 18 15:00:34 -0500][DEBUG] DESCRIBE `solicitud`
[Tue, 27 Feb 18 15:00:34 -0500][DEBUG] SELECT id,nombre,celular,email,detalle,color,usuario_id,estado,solicitud_at FROM solicitud
[Tue, 27 Feb 18 15:00:34 -0500][DEBUG] DESCRIBE `cliente`
[Tue, 27 Feb 18 15:00:34 -0500][DEBUG] SELECT id,nombre,cc,direccion,ciudad,email,telefono,celular,nota,estado,cliente_at FROM cliente WHERE id= LIMIT 1
[Tue, 27 Feb 18 15:00:34 -0500][ERROR] You have an error in your SQL syntax; check the manual that corresponds to your MySQL server version for the right syntax to use near 'LIMIT 1' at line 1 al ejecutar <em>"SELECT id,nombre,cc,direccion,ciudad,email,telefono,celular,nota,estado,cliente_at FROM cliente WHERE id= LIMIT 1"</em>
[Tue, 27 Feb 18 15:09:23 -0500][DEBUG] DESCRIBE `usuario`
[Tue, 27 Feb 18 15:09:23 -0500][DEBUG] DESCRIBE `solicitud`
[Tue, 27 Feb 18 15:09:23 -0500][DEBUG] SELECT id,nombre,celular,email,detalle,color,usuario_id,estado,solicitud_at FROM solicitud
[Tue, 27 Feb 18 15:09:23 -0500][DEBUG] DESCRIBE `menu`
[Tue, 27 Feb 18 15:11:16 -0500][DEBUG] DESCRIBE `usuario`
[Tue, 27 Feb 18 15:11:16 -0500][DEBUG] DESCRIBE `solicitud`
[Tue, 27 Feb 18 15:11:16 -0500][DEBUG] SELECT id,nombre,celular,email,detalle,color,usuario_id,estado,solicitud_at FROM solicitud
[Tue, 27 Feb 18 15:11:16 -0500][DEBUG] DESCRIBE `menu`
[Tue, 27 Feb 18 15:11:48 -0500][DEBUG] DESCRIBE `usuario`
[Tue, 27 Feb 18 15:11:48 -0500][DEBUG] DESCRIBE `solicitud`
[Tue, 27 Feb 18 15:11:48 -0500][DEBUG] SELECT id,nombre,celular,email,detalle,color,usuario_id,estado,solicitud_at FROM solicitud
[Tue, 27 Feb 18 15:11:48 -0500][DEBUG] DESCRIBE `menu`
[Tue, 27 Feb 18 15:13:22 -0500][DEBUG] DESCRIBE `usuario`
[Tue, 27 Feb 18 15:13:22 -0500][DEBUG] DESCRIBE `solicitud`
[Tue, 27 Feb 18 15:13:22 -0500][DEBUG] SELECT id,nombre,celular,email,detalle,color,usuario_id,estado,solicitud_at FROM solicitud
[Tue, 27 Feb 18 15:13:22 -0500][DEBUG] DESCRIBE `menu`
[Tue, 27 Feb 18 15:41:25 -0500][DEBUG] DESCRIBE `usuario`
[Tue, 27 Feb 18 15:41:25 -0500][DEBUG] DESCRIBE `solicitud`
[Tue, 27 Feb 18 15:41:25 -0500][DEBUG] SELECT id,nombre,celular,email,detalle,color,usuario_id,estado,solicitud_at FROM solicitud
[Tue, 27 Feb 18 15:41:25 -0500][DEBUG] DESCRIBE `menu`
[Tue, 27 Feb 18 15:42:30 -0500][DEBUG] DESCRIBE `usuario`
[Tue, 27 Feb 18 15:42:30 -0500][DEBUG] DESCRIBE `solicitud`
[Tue, 27 Feb 18 15:42:30 -0500][DEBUG] SELECT id,nombre,celular,email,detalle,color,usuario_id,estado,solicitud_at FROM solicitud
[Tue, 27 Feb 18 15:42:30 -0500][DEBUG] INSERT INTO solicitud (nombre,celular,email,detalle,color,usuario_id,estado,solicitud_at) VALUES (NULL,NULL,NULL,NULL,NULL,NULL,DEFAULT,'2018-02-27 15:42:30')
[Tue, 27 Feb 18 15:42:30 -0500][DEBUG] SELECT id,nombre,celular,email,detalle,color,usuario_id,estado,solicitud_at FROM solicitud WHERE id = 3 LIMIT 1
[Tue, 27 Feb 18 15:46:06 -0500][DEBUG] DESCRIBE `usuario`
[Tue, 27 Feb 18 15:46:06 -0500][DEBUG] DESCRIBE `solicitud`
[Tue, 27 Feb 18 15:46:06 -0500][DEBUG] SELECT id,nombre,celular,email,detalle,color,usuario_id,estado,solicitud_at FROM solicitud
[Tue, 27 Feb 18 15:46:06 -0500][DEBUG] DESCRIBE `menu`
[Tue, 27 Feb 18 15:46:25 -0500][DEBUG] DESCRIBE `usuario`
[Tue, 27 Feb 18 15:46:25 -0500][DEBUG] DESCRIBE `solicitud`
[Tue, 27 Feb 18 15:46:25 -0500][DEBUG] SELECT id,nombre,celular,email,detalle,color,usuario_id,estado,solicitud_at FROM solicitud
[Tue, 27 Feb 18 15:46:25 -0500][DEBUG] INSERT INTO solicitud (nombre,celular,email,detalle,color,usuario_id,estado,solicitud_at) VALUES ('CARLOS ANDRES',NULL,'SERVIDIGITALNEIVA@GMAIL.COM','<p>prueba envio&nbsp;</p>',NULL,NULL,DEFAULT,'2018-02-27 15:46:25')
[Tue, 27 Feb 18 15:46:25 -0500][DEBUG] SELECT id,nombre,celular,email,detalle,color,usuario_id,estado,solicitud_at FROM solicitud WHERE id = 3 LIMIT 1
[Tue, 27 Feb 18 15:46:28 -0500][DEBUG] DESCRIBE `usuario`
[Tue, 27 Feb 18 15:46:28 -0500][DEBUG] DESCRIBE `solicitud`
[Tue, 27 Feb 18 15:46:28 -0500][DEBUG] SELECT id,nombre,celular,email,detalle,color,usuario_id,estado,solicitud_at FROM solicitud
[Tue, 27 Feb 18 15:46:28 -0500][DEBUG] DESCRIBE `menu`
[Tue, 27 Feb 18 15:47:21 -0500][DEBUG] DESCRIBE `usuario`
[Tue, 27 Feb 18 15:47:21 -0500][DEBUG] DESCRIBE `solicitud`
[Tue, 27 Feb 18 15:47:21 -0500][DEBUG] SELECT id,nombre,celular,email,detalle,color,usuario_id,estado,solicitud_at FROM solicitud
[Tue, 27 Feb 18 15:47:21 -0500][DEBUG] DESCRIBE `menu`
[Tue, 27 Feb 18 15:47:39 -0500][DEBUG] DESCRIBE `usuario`
[Tue, 27 Feb 18 15:47:39 -0500][DEBUG] DESCRIBE `solicitud`
[Tue, 27 Feb 18 15:47:39 -0500][DEBUG] SELECT id,nombre,celular,email,detalle,color,usuario_id,estado,solicitud_at FROM solicitud
[Tue, 27 Feb 18 15:47:39 -0500][DEBUG] INSERT INTO solicitud (nombre,celular,email,detalle,color,usuario_id,estado,solicitud_at) VALUES ('JULIO',NULL,'JULIO@GMAIL.COM','<p>hijlfasjldaf</p>',NULL,NULL,DEFAULT,'2018-02-27 15:47:39')
[Tue, 27 Feb 18 15:47:39 -0500][DEBUG] SELECT id,nombre,celular,email,detalle,color,usuario_id,estado,solicitud_at FROM solicitud WHERE id = 4 LIMIT 1
[Tue, 27 Feb 18 15:47:39 -0500][DEBUG] DESCRIBE `usuario`
[Tue, 27 Feb 18 15:47:39 -0500][DEBUG] DESCRIBE `solicitud`
[Tue, 27 Feb 18 15:47:39 -0500][DEBUG] SELECT id,nombre,celular,email,detalle,color,usuario_id,estado,solicitud_at FROM solicitud
[Tue, 27 Feb 18 15:48:20 -0500][DEBUG] DESCRIBE `usuario`
[Tue, 27 Feb 18 15:48:20 -0500][DEBUG] DESCRIBE `solicitud`
[Tue, 27 Feb 18 15:48:20 -0500][DEBUG] SELECT id,nombre,celular,email,detalle,color,usuario_id,estado,solicitud_at FROM solicitud WHERE order.id.desc
[Tue, 27 Feb 18 15:48:20 -0500][ERROR] Unknown column 'order.id.desc' in 'where clause' al ejecutar <em>"SELECT id,nombre,celular,email,detalle,color,usuario_id,estado,solicitud_at FROM solicitud WHERE order.id.desc"</em>
[Tue, 27 Feb 18 15:48:29 -0500][DEBUG] DESCRIBE `usuario`
[Tue, 27 Feb 18 15:48:29 -0500][DEBUG] DESCRIBE `solicitud`
[Tue, 27 Feb 18 15:48:29 -0500][DEBUG] SELECT id,nombre,celular,email,detalle,color,usuario_id,estado,solicitud_at FROM solicitud ORDER BY id.desc
[Tue, 27 Feb 18 15:48:29 -0500][ERROR] Unknown column 'id.desc' in 'order clause' al ejecutar <em>"SELECT id,nombre,celular,email,detalle,color,usuario_id,estado,solicitud_at FROM solicitud ORDER BY id.desc"</em>
[Tue, 27 Feb 18 15:49:10 -0500][DEBUG] DESCRIBE `usuario`
[Tue, 27 Feb 18 15:49:10 -0500][DEBUG] DESCRIBE `solicitud`
[Tue, 27 Feb 18 15:49:10 -0500][DEBUG] SELECT id,nombre,celular,email,detalle,color,usuario_id,estado,solicitud_at FROM solicitud
[Tue, 27 Feb 18 15:49:10 -0500][DEBUG] DESCRIBE `menu`
[Tue, 27 Feb 18 15:49:12 -0500][DEBUG] DESCRIBE `usuario`
[Tue, 27 Feb 18 15:49:12 -0500][DEBUG] DESCRIBE `usuario`
[Tue, 27 Feb 18 15:49:12 -0500][DEBUG] DESCRIBE `cliente`
[Tue, 27 Feb 18 15:49:12 -0500][DEBUG] SELECT COUNT(*) FROM cliente 
[Tue, 27 Feb 18 15:49:12 -0500][DEBUG] SELECT cliente.* FROM cliente ORDER BY id DESC LIMIT 10 OFFSET 0
[Tue, 27 Feb 18 15:49:12 -0500][DEBUG] DESCRIBE `menu`
[Tue, 27 Feb 18 15:49:57 -0500][DEBUG] DESCRIBE `usuario`
[Tue, 27 Feb 18 15:49:57 -0500][DEBUG] DESCRIBE `solicitud`
[Tue, 27 Feb 18 15:49:57 -0500][DEBUG] SELECT id,nombre,celular,email,detalle,color,usuario_id,estado,solicitud_at FROM solicitud ORDER BY id desc
[Tue, 27 Feb 18 15:49:57 -0500][DEBUG] DESCRIBE `menu`
[Tue, 27 Feb 18 16:55:23 -0500][DEBUG] DESCRIBE `usuario`
[Tue, 27 Feb 18 16:55:23 -0500][DEBUG] DESCRIBE `solicitud`
[Tue, 27 Feb 18 16:55:23 -0500][DEBUG] SELECT id,nombre,celular,email,detalle,color,usuario_id,estado,solicitud_at FROM solicitud ORDER BY id desc
[Tue, 27 Feb 18 16:55:23 -0500][DEBUG] DESCRIBE `menu`
[Tue, 27 Feb 18 16:55:47 -0500][DEBUG] DESCRIBE `usuario`
[Tue, 27 Feb 18 16:55:47 -0500][DEBUG] DESCRIBE `solicitud`
[Tue, 27 Feb 18 16:55:47 -0500][DEBUG] SELECT id,nombre,celular,email,detalle,color,usuario_id,estado,solicitud_at FROM solicitud ORDER BY id desc
[Tue, 27 Feb 18 16:55:47 -0500][DEBUG] INSERT INTO solicitud (nombre,celular,email,detalle,color,usuario_id,estado,solicitud_at) VALUES ('LUIS',NULL,'LUIS@GMAIL.COM','<p>alhdlkfjaldkfkaldjflkasdfkladsf</p><p>asdfaslfdjaslñfjalñsdfjlkñasjfdklajsdfasf</p><p>adsfadsf</p>',NULL,NULL,DEFAULT,'2018-02-27 16:55:47')
[Tue, 27 Feb 18 16:55:47 -0500][DEBUG] SELECT id,nombre,celular,email,detalle,color,usuario_id,estado,solicitud_at FROM solicitud WHERE id = 5 LIMIT 1
[Tue, 27 Feb 18 16:55:47 -0500][DEBUG] DESCRIBE `usuario`
[Tue, 27 Feb 18 16:55:47 -0500][DEBUG] DESCRIBE `solicitud`
[Tue, 27 Feb 18 16:55:47 -0500][DEBUG] SELECT id,nombre,celular,email,detalle,color,usuario_id,estado,solicitud_at FROM solicitud ORDER BY id desc
[Tue, 27 Feb 18 17:00:30 -0500][DEBUG] DESCRIBE `usuario`
[Tue, 27 Feb 18 17:00:30 -0500][DEBUG] DESCRIBE `usuario`
[Tue, 27 Feb 18 17:00:30 -0500][DEBUG] DESCRIBE `cotizacion`
[Tue, 27 Feb 18 17:00:30 -0500][DEBUG] SELECT COUNT(*) FROM cotizacion 
[Tue, 27 Feb 18 17:00:30 -0500][DEBUG] SELECT cotizacion.* FROM cotizacion ORDER BY id DESC LIMIT 10 OFFSET 0
[Tue, 27 Feb 18 17:00:30 -0500][DEBUG] SELECT id,nombre,apellido,password,perfil_id,email,tema,app_ajax,datagrid,fotografia,pool,usuario_at,usuario_in FROM usuario WHERE perfil_id>=2
[Tue, 27 Feb 18 17:00:30 -0500][DEBUG] DESCRIBE `cliente`
[Tue, 27 Feb 18 17:00:30 -0500][DEBUG] SELECT id,nombre,cc,direccion,ciudad,email,telefono,celular,nota,estado,cliente_at FROM cliente WHERE id = 5 LIMIT 1
[Tue, 27 Feb 18 17:00:30 -0500][DEBUG] DESCRIBE `cotizacion_item`
[Tue, 27 Feb 18 17:00:30 -0500][DEBUG] SELECT COUNT(*) FROM cotizacion_item  WHERE cotizacion_id =38 AND estado >=1
[Tue, 27 Feb 18 17:00:30 -0500][DEBUG] SELECT SUM(valor_total) FROM cotizacion_item  WHERE cotizacion_id =38 AND estado >=1
[Tue, 27 Feb 18 17:00:30 -0500][DEBUG] SELECT id,cotizacion_id,producto,origen,destino,fechain,fecha_out,adultos,infantes,habitaciones,descripcion,mascara_tarifa,valor,utilidad,estado,valor_total,noches,producto_id FROM cotizacion_item WHERE cotizacion_id=38 LIMIT 1
[Tue, 27 Feb 18 17:00:30 -0500][DEBUG] SELECT id,nombre,apellido,password,perfil_id,email,tema,app_ajax,datagrid,fotografia,pool,usuario_at,usuario_in FROM usuario WHERE id=4 LIMIT 1
[Tue, 27 Feb 18 17:00:30 -0500][DEBUG] SELECT id,nombre,apellido,password,perfil_id,email,tema,app_ajax,datagrid,fotografia,pool,usuario_at,usuario_in FROM usuario WHERE id=4 LIMIT 1
[Tue, 27 Feb 18 17:00:30 -0500][DEBUG] SELECT id,nombre,cc,direccion,ciudad,email,telefono,celular,nota,estado,cliente_at FROM cliente WHERE id = 5 LIMIT 1
[Tue, 27 Feb 18 17:00:30 -0500][DEBUG] SELECT COUNT(*) FROM cotizacion_item  WHERE cotizacion_id =37 AND estado >=1
[Tue, 27 Feb 18 17:00:30 -0500][DEBUG] SELECT SUM(valor_total) FROM cotizacion_item  WHERE cotizacion_id =37 AND estado >=1
[Tue, 27 Feb 18 17:00:30 -0500][DEBUG] SELECT id,cotizacion_id,producto,origen,destino,fechain,fecha_out,adultos,infantes,habitaciones,descripcion,mascara_tarifa,valor,utilidad,estado,valor_total,noches,producto_id FROM cotizacion_item WHERE cotizacion_id=37 LIMIT 1
[Tue, 27 Feb 18 17:00:30 -0500][DEBUG] SELECT id,nombre,apellido,password,perfil_id,email,tema,app_ajax,datagrid,fotografia,pool,usuario_at,usuario_in FROM usuario WHERE id=4 LIMIT 1
[Tue, 27 Feb 18 17:00:30 -0500][DEBUG] SELECT id,nombre,apellido,password,perfil_id,email,tema,app_ajax,datagrid,fotografia,pool,usuario_at,usuario_in FROM usuario WHERE id=4 LIMIT 1
[Tue, 27 Feb 18 17:00:30 -0500][DEBUG] SELECT id,nombre,cc,direccion,ciudad,email,telefono,celular,nota,estado,cliente_at FROM cliente WHERE id = 1 LIMIT 1
[Tue, 27 Feb 18 17:00:30 -0500][DEBUG] SELECT COUNT(*) FROM cotizacion_item  WHERE cotizacion_id =36 AND estado >=1
[Tue, 27 Feb 18 17:00:30 -0500][DEBUG] SELECT SUM(valor_total) FROM cotizacion_item  WHERE cotizacion_id =36 AND estado >=1
[Tue, 27 Feb 18 17:00:30 -0500][DEBUG] SELECT id,cotizacion_id,producto,origen,destino,fechain,fecha_out,adultos,infantes,habitaciones,descripcion,mascara_tarifa,valor,utilidad,estado,valor_total,noches,producto_id FROM cotizacion_item WHERE cotizacion_id=36 LIMIT 1
[Tue, 27 Feb 18 17:00:30 -0500][DEBUG] SELECT id,nombre,apellido,password,perfil_id,email,tema,app_ajax,datagrid,fotografia,pool,usuario_at,usuario_in FROM usuario WHERE id=3 LIMIT 1
[Tue, 27 Feb 18 17:00:30 -0500][DEBUG] SELECT id,nombre,apellido,password,perfil_id,email,tema,app_ajax,datagrid,fotografia,pool,usuario_at,usuario_in FROM usuario WHERE id=3 LIMIT 1
[Tue, 27 Feb 18 17:00:30 -0500][DEBUG] SELECT id,nombre,cc,direccion,ciudad,email,telefono,celular,nota,estado,cliente_at FROM cliente WHERE id = 1 LIMIT 1
[Tue, 27 Feb 18 17:00:30 -0500][DEBUG] SELECT COUNT(*) FROM cotizacion_item  WHERE cotizacion_id =35 AND estado >=1
[Tue, 27 Feb 18 17:00:30 -0500][DEBUG] SELECT SUM(valor_total) FROM cotizacion_item  WHERE cotizacion_id =35 AND estado >=1
[Tue, 27 Feb 18 17:00:30 -0500][DEBUG] SELECT id,cotizacion_id,producto,origen,destino,fechain,fecha_out,adultos,infantes,habitaciones,descripcion,mascara_tarifa,valor,utilidad,estado,valor_total,noches,producto_id FROM cotizacion_item WHERE cotizacion_id=35 LIMIT 1
[Tue, 27 Feb 18 17:00:30 -0500][DEBUG] SELECT id,nombre,apellido,password,perfil_id,email,tema,app_ajax,datagrid,fotografia,pool,usuario_at,usuario_in FROM usuario WHERE id=4 LIMIT 1
[Tue, 27 Feb 18 17:00:30 -0500][DEBUG] SELECT id,nombre,apellido,password,perfil_id,email,tema,app_ajax,datagrid,fotografia,pool,usuario_at,usuario_in FROM usuario WHERE id=4 LIMIT 1
[Tue, 27 Feb 18 17:00:30 -0500][DEBUG] SELECT id,nombre,cc,direccion,ciudad,email,telefono,celular,nota,estado,cliente_at FROM cliente WHERE id = 5 LIMIT 1
[Tue, 27 Feb 18 17:00:30 -0500][DEBUG] SELECT COUNT(*) FROM cotizacion_item  WHERE cotizacion_id =34 AND estado >=1
[Tue, 27 Feb 18 17:00:30 -0500][DEBUG] SELECT SUM(valor_total) FROM cotizacion_item  WHERE cotizacion_id =34 AND estado >=1
[Tue, 27 Feb 18 17:00:30 -0500][DEBUG] SELECT id,cotizacion_id,producto,origen,destino,fechain,fecha_out,adultos,infantes,habitaciones,descripcion,mascara_tarifa,valor,utilidad,estado,valor_total,noches,producto_id FROM cotizacion_item WHERE cotizacion_id=34 LIMIT 1
[Tue, 27 Feb 18 17:00:30 -0500][DEBUG] SELECT id,nombre,apellido,password,perfil_id,email,tema,app_ajax,datagrid,fotografia,pool,usuario_at,usuario_in FROM usuario WHERE id=2 LIMIT 1
[Tue, 27 Feb 18 17:00:30 -0500][DEBUG] SELECT id,nombre,apellido,password,perfil_id,email,tema,app_ajax,datagrid,fotografia,pool,usuario_at,usuario_in FROM usuario WHERE id=2 LIMIT 1
[Tue, 27 Feb 18 17:00:30 -0500][DEBUG] SELECT id,nombre,cc,direccion,ciudad,email,telefono,celular,nota,estado,cliente_at FROM cliente WHERE id = 5 LIMIT 1
[Tue, 27 Feb 18 17:00:30 -0500][DEBUG] SELECT COUNT(*) FROM cotizacion_item  WHERE cotizacion_id =33 AND estado >=1
[Tue, 27 Feb 18 17:00:30 -0500][DEBUG] SELECT SUM(valor_total) FROM cotizacion_item  WHERE cotizacion_id =33 AND estado >=1
[Tue, 27 Feb 18 17:00:30 -0500][DEBUG] SELECT id,cotizacion_id,producto,origen,destino,fechain,fecha_out,adultos,infantes,habitaciones,descripcion,mascara_tarifa,valor,utilidad,estado,valor_total,noches,producto_id FROM cotizacion_item WHERE cotizacion_id=33 LIMIT 1
[Tue, 27 Feb 18 17:00:30 -0500][DEBUG] SELECT id,nombre,apellido,password,perfil_id,email,tema,app_ajax,datagrid,fotografia,pool,usuario_at,usuario_in FROM usuario WHERE id=3 LIMIT 1
[Tue, 27 Feb 18 17:00:30 -0500][DEBUG] SELECT id,nombre,apellido,password,perfil_id,email,tema,app_ajax,datagrid,fotografia,pool,usuario_at,usuario_in FROM usuario WHERE id=3 LIMIT 1
[Tue, 27 Feb 18 17:00:30 -0500][DEBUG] SELECT id,nombre,cc,direccion,ciudad,email,telefono,celular,nota,estado,cliente_at FROM cliente WHERE id = 1 LIMIT 1
[Tue, 27 Feb 18 17:00:30 -0500][DEBUG] SELECT COUNT(*) FROM cotizacion_item  WHERE cotizacion_id =32 AND estado >=1
[Tue, 27 Feb 18 17:00:30 -0500][DEBUG] SELECT SUM(valor_total) FROM cotizacion_item  WHERE cotizacion_id =32 AND estado >=1
[Tue, 27 Feb 18 17:00:30 -0500][DEBUG] SELECT id,cotizacion_id,producto,origen,destino,fechain,fecha_out,adultos,infantes,habitaciones,descripcion,mascara_tarifa,valor,utilidad,estado,valor_total,noches,producto_id FROM cotizacion_item WHERE cotizacion_id=32 LIMIT 1
[Tue, 27 Feb 18 17:00:30 -0500][DEBUG] SELECT id,nombre,apellido,password,perfil_id,email,tema,app_ajax,datagrid,fotografia,pool,usuario_at,usuario_in FROM usuario WHERE id=2 LIMIT 1
[Tue, 27 Feb 18 17:00:30 -0500][DEBUG] SELECT id,nombre,apellido,password,perfil_id,email,tema,app_ajax,datagrid,fotografia,pool,usuario_at,usuario_in FROM usuario WHERE id=2 LIMIT 1
[Tue, 27 Feb 18 17:00:30 -0500][DEBUG] SELECT id,nombre,cc,direccion,ciudad,email,telefono,celular,nota,estado,cliente_at FROM cliente WHERE id = 1 LIMIT 1
[Tue, 27 Feb 18 17:00:30 -0500][DEBUG] SELECT COUNT(*) FROM cotizacion_item  WHERE cotizacion_id =31 AND estado >=1
[Tue, 27 Feb 18 17:00:30 -0500][DEBUG] SELECT SUM(valor_total) FROM cotizacion_item  WHERE cotizacion_id =31 AND estado >=1
[Tue, 27 Feb 18 17:00:30 -0500][DEBUG] SELECT id,cotizacion_id,producto,origen,destino,fechain,fecha_out,adultos,infantes,habitaciones,descripcion,mascara_tarifa,valor,utilidad,estado,valor_total,noches,producto_id FROM cotizacion_item WHERE cotizacion_id=31 LIMIT 1
[Tue, 27 Feb 18 17:00:30 -0500][DEBUG] SELECT id,nombre,apellido,password,perfil_id,email,tema,app_ajax,datagrid,fotografia,pool,usuario_at,usuario_in FROM usuario WHERE id=2 LIMIT 1
[Tue, 27 Feb 18 17:00:30 -0500][DEBUG] SELECT id,nombre,apellido,password,perfil_id,email,tema,app_ajax,datagrid,fotografia,pool,usuario_at,usuario_in FROM usuario WHERE id=2 LIMIT 1
[Tue, 27 Feb 18 17:00:30 -0500][DEBUG] SELECT id,nombre,cc,direccion,ciudad,email,telefono,celular,nota,estado,cliente_at FROM cliente WHERE id = 1 LIMIT 1
[Tue, 27 Feb 18 17:00:30 -0500][DEBUG] SELECT COUNT(*) FROM cotizacion_item  WHERE cotizacion_id =30 AND estado >=1
[Tue, 27 Feb 18 17:00:30 -0500][DEBUG] SELECT SUM(valor_total) FROM cotizacion_item  WHERE cotizacion_id =30 AND estado >=1
[Tue, 27 Feb 18 17:00:30 -0500][DEBUG] SELECT id,cotizacion_id,producto,origen,destino,fechain,fecha_out,adultos,infantes,habitaciones,descripcion,mascara_tarifa,valor,utilidad,estado,valor_total,noches,producto_id FROM cotizacion_item WHERE cotizacion_id=30 LIMIT 1
[Tue, 27 Feb 18 17:00:30 -0500][DEBUG] SELECT id,nombre,apellido,password,perfil_id,email,tema,app_ajax,datagrid,fotografia,pool,usuario_at,usuario_in FROM usuario WHERE id=2 LIMIT 1
[Tue, 27 Feb 18 17:00:30 -0500][DEBUG] SELECT id,nombre,apellido,password,perfil_id,email,tema,app_ajax,datagrid,fotografia,pool,usuario_at,usuario_in FROM usuario WHERE id=2 LIMIT 1
[Tue, 27 Feb 18 17:00:30 -0500][DEBUG] SELECT id,nombre,cc,direccion,ciudad,email,telefono,celular,nota,estado,cliente_at FROM cliente WHERE id = 1 LIMIT 1
[Tue, 27 Feb 18 17:00:30 -0500][DEBUG] SELECT COUNT(*) FROM cotizacion_item  WHERE cotizacion_id =29 AND estado >=1
[Tue, 27 Feb 18 17:00:30 -0500][DEBUG] SELECT SUM(valor_total) FROM cotizacion_item  WHERE cotizacion_id =29 AND estado >=1
[Tue, 27 Feb 18 17:00:30 -0500][DEBUG] SELECT id,cotizacion_id,producto,origen,destino,fechain,fecha_out,adultos,infantes,habitaciones,descripcion,mascara_tarifa,valor,utilidad,estado,valor_total,noches,producto_id FROM cotizacion_item WHERE cotizacion_id=29 LIMIT 1
[Tue, 27 Feb 18 17:00:30 -0500][DEBUG] SELECT id,nombre,apellido,password,perfil_id,email,tema,app_ajax,datagrid,fotografia,pool,usuario_at,usuario_in FROM usuario WHERE id=2 LIMIT 1
[Tue, 27 Feb 18 17:00:30 -0500][DEBUG] SELECT id,nombre,apellido,password,perfil_id,email,tema,app_ajax,datagrid,fotografia,pool,usuario_at,usuario_in FROM usuario WHERE id=2 LIMIT 1
[Tue, 27 Feb 18 17:00:30 -0500][DEBUG] DESCRIBE `menu`
[Tue, 27 Feb 18 17:00:35 -0500][DEBUG] DESCRIBE `usuario`
[Tue, 27 Feb 18 17:00:35 -0500][DEBUG] DESCRIBE `solicitud`
[Tue, 27 Feb 18 17:00:35 -0500][DEBUG] SELECT id,nombre,celular,email,detalle,color,usuario_id,estado,solicitud_at FROM solicitud ORDER BY id desc
[Tue, 27 Feb 18 17:00:35 -0500][DEBUG] DESCRIBE `menu`
[Tue, 27 Feb 18 17:00:52 -0500][DEBUG] DESCRIBE `usuario`
[Tue, 27 Feb 18 17:00:52 -0500][DEBUG] DESCRIBE `solicitud`
[Tue, 27 Feb 18 17:00:52 -0500][DEBUG] SELECT id,nombre,celular,email,detalle,color,usuario_id,estado,solicitud_at FROM solicitud ORDER BY id desc
[Tue, 27 Feb 18 17:00:52 -0500][DEBUG] DESCRIBE `menu`
