[Tue, 24 May 16 06:37:14 -0500][DEBUG] DESCRIBE `usuario`
[Tue, 24 May 16 06:37:15 -0500][DEBUG] DESCRIBE `reporte`
[Tue, 24 May 16 06:37:15 -0500][DEBUG] SELECT COUNT(*) FROM reporte 
[Tue, 24 May 16 06:37:15 -0500][DEBUG] DESCRIBE `contrato`
[Tue, 24 May 16 06:37:15 -0500][DEBUG] SELECT COUNT(*) FROM contrato 
[Tue, 24 May 16 06:37:15 -0500][DEBUG] DESCRIBE `ot_usuario`
[Tue, 24 May 16 06:37:15 -0500][DEBUG] SELECT ot_usuario.ot_id, ot_usuario.usuario_id, ot.nombre_ot, ot.duracion_inicio, ot.duracion_fin, ot.nota, ot.unidad_de_negocio_id FROM ot_usuario INNER JOIN ot ON ot.id = ot_usuario.ot_id WHERE ot_usuario.usuario_id = '2'
[Tue, 24 May 16 06:37:15 -0500][DEBUG] SELECT id,ot_id,usuario_id,observaciones,interferencias,reporte_at FROM reporte ORDER BY id desc
[Tue, 24 May 16 06:37:15 -0500][DEBUG] SELECT id,nombre,apellido,email,password,perfil_id,tema,app_ajax,datagrid,fotografia,pool,usuario_at,usuario_in FROM usuario WHERE id = 4 LIMIT 1
[Tue, 24 May 16 06:37:15 -0500][DEBUG] DESCRIBE `ot`
[Tue, 24 May 16 06:37:15 -0500][DEBUG] SELECT id,contrato_id,unidad_de_negocio_id,nombre_ot,n_ot,id_marco,duracion_inicio,duracion_fin,nota,registro_at FROM ot WHERE id = 1 LIMIT 1
[Tue, 24 May 16 06:37:15 -0500][DEBUG] SELECT id,nombre,apellido,email,password,perfil_id,tema,app_ajax,datagrid,fotografia,pool,usuario_at,usuario_in FROM usuario WHERE id = 4 LIMIT 1
[Tue, 24 May 16 06:37:15 -0500][DEBUG] SELECT id,contrato_id,unidad_de_negocio_id,nombre_ot,n_ot,id_marco,duracion_inicio,duracion_fin,nota,registro_at FROM ot WHERE id = 1 LIMIT 1
[Tue, 24 May 16 06:37:15 -0500][DEBUG] SELECT id,nombre,apellido,email,password,perfil_id,tema,app_ajax,datagrid,fotografia,pool,usuario_at,usuario_in FROM usuario WHERE id = 4 LIMIT 1
[Tue, 24 May 16 06:37:15 -0500][DEBUG] SELECT id,contrato_id,unidad_de_negocio_id,nombre_ot,n_ot,id_marco,duracion_inicio,duracion_fin,nota,registro_at FROM ot WHERE id = 1 LIMIT 1
[Tue, 24 May 16 06:37:15 -0500][DEBUG] DESCRIBE `menu`
[Tue, 24 May 16 20:24:44 -0500][DEBUG] DESCRIBE `usuario`
[Tue, 24 May 16 20:24:44 -0500][DEBUG] DESCRIBE `reporte`
[Tue, 24 May 16 20:24:44 -0500][DEBUG] SELECT COUNT(*) FROM reporte 
[Tue, 24 May 16 20:24:44 -0500][DEBUG] DESCRIBE `contrato`
[Tue, 24 May 16 20:24:44 -0500][DEBUG] SELECT COUNT(*) FROM contrato 
[Tue, 24 May 16 20:24:44 -0500][DEBUG] DESCRIBE `ot_usuario`
[Tue, 24 May 16 20:24:44 -0500][DEBUG] SELECT ot_usuario.ot_id, ot_usuario.usuario_id, ot.nombre_ot, ot.duracion_inicio, ot.duracion_fin, ot.nota, ot.unidad_de_negocio_id FROM ot_usuario INNER JOIN ot ON ot.id = ot_usuario.ot_id WHERE ot_usuario.usuario_id = '2'
[Tue, 24 May 16 20:24:44 -0500][DEBUG] SELECT id,ot_id,usuario_id,observaciones,interferencias,reporte_at FROM reporte ORDER BY id desc
[Tue, 24 May 16 20:24:44 -0500][DEBUG] SELECT id,nombre,apellido,email,password,perfil_id,tema,app_ajax,datagrid,fotografia,pool,usuario_at,usuario_in FROM usuario WHERE id = 4 LIMIT 1
[Tue, 24 May 16 20:24:44 -0500][DEBUG] DESCRIBE `ot`
[Tue, 24 May 16 20:24:44 -0500][DEBUG] SELECT id,contrato_id,unidad_de_negocio_id,nombre_ot,n_ot,id_marco,duracion_inicio,duracion_fin,nota,registro_at FROM ot WHERE id = 1 LIMIT 1
[Tue, 24 May 16 20:24:44 -0500][DEBUG] SELECT id,nombre,apellido,email,password,perfil_id,tema,app_ajax,datagrid,fotografia,pool,usuario_at,usuario_in FROM usuario WHERE id = 4 LIMIT 1
[Tue, 24 May 16 20:24:44 -0500][DEBUG] SELECT id,contrato_id,unidad_de_negocio_id,nombre_ot,n_ot,id_marco,duracion_inicio,duracion_fin,nota,registro_at FROM ot WHERE id = 1 LIMIT 1
[Tue, 24 May 16 20:24:44 -0500][DEBUG] SELECT id,nombre,apellido,email,password,perfil_id,tema,app_ajax,datagrid,fotografia,pool,usuario_at,usuario_in FROM usuario WHERE id = 4 LIMIT 1
[Tue, 24 May 16 20:24:44 -0500][DEBUG] SELECT id,contrato_id,unidad_de_negocio_id,nombre_ot,n_ot,id_marco,duracion_inicio,duracion_fin,nota,registro_at FROM ot WHERE id = 1 LIMIT 1
[Tue, 24 May 16 20:24:44 -0500][DEBUG] DESCRIBE `menu`
