[Mon, 09 May 16 00:09:08 -0500][DEBUG] DESCRIBE `usuario`
[Mon, 09 May 16 00:09:08 -0500][DEBUG] DESCRIBE `usuario`
[Mon, 09 May 16 00:09:08 -0500][DEBUG] DESCRIBE `contrato`
[Mon, 09 May 16 00:09:08 -0500][DEBUG] SELECT COUNT(*) FROM contrato 
[Mon, 09 May 16 00:09:08 -0500][DEBUG] SELECT contrato.* FROM contrato ORDER BY nombre ASC LIMIT 30 OFFSET 0
[Mon, 09 May 16 00:09:08 -0500][DEBUG] DESCRIBE `cliente`
[Mon, 09 May 16 00:09:08 -0500][DEBUG] SELECT id,nombre,nit,direccion,ciudad,email,telefono,celular,nota,registro_at FROM cliente WHERE id = 8 LIMIT 1
[Mon, 09 May 16 00:09:08 -0500][DEBUG] DESCRIBE `unidad_de_negocio`
[Mon, 09 May 16 00:09:08 -0500][DEBUG] SELECT COUNT(*) FROM unidad_de_negocio  WHERE contrato_id = '1' 
[Mon, 09 May 16 00:09:08 -0500][DEBUG] DESCRIBE `actividad`
[Mon, 09 May 16 00:09:08 -0500][DEBUG] SELECT COUNT(*) FROM actividad  WHERE contrato_id = '1' 
[Mon, 09 May 16 00:09:08 -0500][DEBUG] DESCRIBE `ot`
[Mon, 09 May 16 00:09:08 -0500][DEBUG] SELECT COUNT(*) FROM ot  WHERE contrato_id = '1' 
[Mon, 09 May 16 00:09:08 -0500][DEBUG] DESCRIBE `menu`
[Mon, 09 May 16 00:09:11 -0500][DEBUG] DESCRIBE `usuario`
[Mon, 09 May 16 00:09:11 -0500][DEBUG] DESCRIBE `contrato`
[Mon, 09 May 16 00:09:11 -0500][DEBUG] SELECT id,nombre,referencia,vigencia,vigencia_duracion,ejecucion,ejecucion_duracion,nota,cliente_id,admin_tecnico_nombre,admin_tecnico_email,admin_tecnico_telefono,porce_admon,porce_imprevistos,porce_utilidad,valor_total_contrato,registro_at FROM contrato WHERE id = 1 LIMIT 1
[Mon, 09 May 16 00:09:11 -0500][DEBUG] DESCRIBE `unidad_de_negocio`
[Mon, 09 May 16 00:09:11 -0500][DEBUG] SELECT id,nombre,admin,email,telefono,ubicacion,contrato_id FROM unidad_de_negocio WHERE contrato_id = 1
[Mon, 09 May 16 00:09:11 -0500][DEBUG] DESCRIBE `cliente`
[Mon, 09 May 16 00:09:11 -0500][DEBUG] SELECT id,nombre,nit,direccion,ciudad,email,telefono,celular,nota,registro_at FROM cliente WHERE id = 8 LIMIT 1
[Mon, 09 May 16 00:09:11 -0500][DEBUG] DESCRIBE `actividad`
[Mon, 09 May 16 00:09:11 -0500][DEBUG] SELECT id,contrato_id,descripcion,unidad,cantidad,acomulado,cantidad_estimada,mayores_menores,valor,valor_total,observacion,asignado,estado,actividad_at FROM actividad WHERE contrato_id = 1
[Mon, 09 May 16 00:09:11 -0500][DEBUG] SELECT id,contrato_id,descripcion,unidad,cantidad,acomulado,cantidad_estimada,mayores_menores,valor,valor_total,observacion,asignado,estado,actividad_at FROM actividad WHERE contrato_id = 1
[Mon, 09 May 16 00:09:11 -0500][DEBUG] SELECT SUM(valor_total) FROM actividad  WHERE contrato_id = 1
[Mon, 09 May 16 00:09:11 -0500][DEBUG] SELECT id,nombre,referencia,vigencia,vigencia_duracion,ejecucion,ejecucion_duracion,nota,cliente_id,admin_tecnico_nombre,admin_tecnico_email,admin_tecnico_telefono,porce_admon,porce_imprevistos,porce_utilidad,valor_total_contrato,registro_at FROM contrato WHERE id = 1 LIMIT 1
[Mon, 09 May 16 00:09:24 -0500][DEBUG] DESCRIBE `usuario`
[Mon, 09 May 16 00:09:24 -0500][DEBUG] DESCRIBE `contrato`
[Mon, 09 May 16 00:09:24 -0500][DEBUG] SELECT id,nombre,referencia,vigencia,vigencia_duracion,ejecucion,ejecucion_duracion,nota,cliente_id,admin_tecnico_nombre,admin_tecnico_email,admin_tecnico_telefono,porce_admon,porce_imprevistos,porce_utilidad,valor_total_contrato,registro_at FROM contrato WHERE id = 1 LIMIT 1
[Mon, 09 May 16 00:09:24 -0500][DEBUG] DESCRIBE `unidad_de_negocio`
[Mon, 09 May 16 00:09:24 -0500][DEBUG] SELECT id,nombre,admin,email,telefono,ubicacion,contrato_id FROM unidad_de_negocio WHERE contrato_id = 1
[Mon, 09 May 16 00:09:24 -0500][DEBUG] DESCRIBE `cliente`
[Mon, 09 May 16 00:09:24 -0500][DEBUG] SELECT id,nombre,nit,direccion,ciudad,email,telefono,celular,nota,registro_at FROM cliente WHERE id = 8 LIMIT 1
[Mon, 09 May 16 00:09:24 -0500][DEBUG] DESCRIBE `actividad`
[Mon, 09 May 16 00:09:24 -0500][DEBUG] SELECT id,contrato_id,descripcion,unidad,cantidad,acomulado,cantidad_estimada,mayores_menores,valor,valor_total,observacion,asignado,estado,actividad_at FROM actividad WHERE contrato_id = 1
[Mon, 09 May 16 00:09:24 -0500][DEBUG] DESCRIBE `logsnota`
[Mon, 09 May 16 00:09:24 -0500][ERROR] Table 'app_letingel.logsnota' doesn't exist al ejecutar <em>"DESCRIBE `logsnota`"</em>
[Mon, 09 May 16 00:09:58 -0500][DEBUG] DESCRIBE `usuario`
[Mon, 09 May 16 00:09:58 -0500][DEBUG] DESCRIBE `cliente`
[Mon, 09 May 16 00:09:58 -0500][DEBUG] SELECT COUNT(*) FROM cliente 
[Mon, 09 May 16 00:09:58 -0500][DEBUG] DESCRIBE `contrato`
[Mon, 09 May 16 00:09:58 -0500][DEBUG] SELECT COUNT(*) FROM contrato 
[Mon, 09 May 16 00:09:58 -0500][DEBUG] DESCRIBE `ot_usuario`
[Mon, 09 May 16 00:09:58 -0500][DEBUG] SELECT COUNT(*) FROM ot_usuario  WHERE usuario_id = 2
[Mon, 09 May 16 00:09:58 -0500][DEBUG] SELECT ot_usuario.ot_id, ot.nombre_ot, ot.duracion_inicio, ot.duracion_fin, ot.nota, ot.unidad_de_negocio_id FROM ot_usuario INNER JOIN ot ON ot.id = ot_usuario.ot_id WHERE ot_usuario.usuario_id = '2'
[Mon, 09 May 16 00:09:59 -0500][DEBUG] DESCRIBE `usuario`
[Mon, 09 May 16 00:09:59 -0500][DEBUG] DESCRIBE `usuario`
[Mon, 09 May 16 00:09:59 -0500][DEBUG] DESCRIBE `contrato`
[Mon, 09 May 16 00:09:59 -0500][DEBUG] SELECT COUNT(*) FROM contrato 
[Mon, 09 May 16 00:09:59 -0500][DEBUG] SELECT contrato.* FROM contrato ORDER BY nombre ASC LIMIT 30 OFFSET 0
[Mon, 09 May 16 00:09:59 -0500][DEBUG] DESCRIBE `cliente`
[Mon, 09 May 16 00:09:59 -0500][DEBUG] SELECT id,nombre,nit,direccion,ciudad,email,telefono,celular,nota,registro_at FROM cliente WHERE id = 8 LIMIT 1
[Mon, 09 May 16 00:09:59 -0500][DEBUG] DESCRIBE `unidad_de_negocio`
[Mon, 09 May 16 00:09:59 -0500][DEBUG] SELECT COUNT(*) FROM unidad_de_negocio  WHERE contrato_id = '1' 
[Mon, 09 May 16 00:09:59 -0500][DEBUG] DESCRIBE `actividad`
[Mon, 09 May 16 00:09:59 -0500][DEBUG] SELECT COUNT(*) FROM actividad  WHERE contrato_id = '1' 
[Mon, 09 May 16 00:09:59 -0500][DEBUG] DESCRIBE `ot`
[Mon, 09 May 16 00:09:59 -0500][DEBUG] SELECT COUNT(*) FROM ot  WHERE contrato_id = '1' 
[Mon, 09 May 16 00:10:01 -0500][DEBUG] DESCRIBE `usuario`
[Mon, 09 May 16 00:10:01 -0500][DEBUG] DESCRIBE `contrato`
[Mon, 09 May 16 00:10:01 -0500][DEBUG] SELECT id,nombre,referencia,vigencia,vigencia_duracion,ejecucion,ejecucion_duracion,nota,cliente_id,admin_tecnico_nombre,admin_tecnico_email,admin_tecnico_telefono,porce_admon,porce_imprevistos,porce_utilidad,valor_total_contrato,registro_at FROM contrato WHERE id = 1 LIMIT 1
[Mon, 09 May 16 00:10:01 -0500][DEBUG] DESCRIBE `unidad_de_negocio`
[Mon, 09 May 16 00:10:01 -0500][DEBUG] SELECT id,nombre,admin,email,telefono,ubicacion,contrato_id FROM unidad_de_negocio WHERE contrato_id = 1
[Mon, 09 May 16 00:10:01 -0500][DEBUG] DESCRIBE `cliente`
[Mon, 09 May 16 00:10:01 -0500][DEBUG] SELECT id,nombre,nit,direccion,ciudad,email,telefono,celular,nota,registro_at FROM cliente WHERE id = 8 LIMIT 1
[Mon, 09 May 16 00:10:01 -0500][DEBUG] DESCRIBE `actividad`
[Mon, 09 May 16 00:10:01 -0500][DEBUG] SELECT id,contrato_id,descripcion,unidad,cantidad,acomulado,cantidad_estimada,mayores_menores,valor,valor_total,observacion,asignado,estado,actividad_at FROM actividad WHERE contrato_id = 1
[Mon, 09 May 16 00:10:01 -0500][DEBUG] SELECT id,contrato_id,descripcion,unidad,cantidad,acomulado,cantidad_estimada,mayores_menores,valor,valor_total,observacion,asignado,estado,actividad_at FROM actividad WHERE contrato_id = 1
[Mon, 09 May 16 00:10:01 -0500][DEBUG] SELECT SUM(valor_total) FROM actividad  WHERE contrato_id = 1
[Mon, 09 May 16 00:10:01 -0500][DEBUG] SELECT id,nombre,referencia,vigencia,vigencia_duracion,ejecucion,ejecucion_duracion,nota,cliente_id,admin_tecnico_nombre,admin_tecnico_email,admin_tecnico_telefono,porce_admon,porce_imprevistos,porce_utilidad,valor_total_contrato,registro_at FROM contrato WHERE id = 1 LIMIT 1
[Mon, 09 May 16 00:10:04 -0500][DEBUG] DESCRIBE `usuario`
[Mon, 09 May 16 00:10:04 -0500][DEBUG] DESCRIBE `contrato`
[Mon, 09 May 16 00:10:04 -0500][DEBUG] SELECT id,nombre,referencia,vigencia,vigencia_duracion,ejecucion,ejecucion_duracion,nota,cliente_id,admin_tecnico_nombre,admin_tecnico_email,admin_tecnico_telefono,porce_admon,porce_imprevistos,porce_utilidad,valor_total_contrato,registro_at FROM contrato WHERE id = 1 LIMIT 1
[Mon, 09 May 16 00:10:04 -0500][DEBUG] DESCRIBE `unidad_de_negocio`
[Mon, 09 May 16 00:10:04 -0500][DEBUG] SELECT id,nombre,admin,email,telefono,ubicacion,contrato_id FROM unidad_de_negocio WHERE contrato_id = 1
[Mon, 09 May 16 00:10:04 -0500][DEBUG] DESCRIBE `cliente`
[Mon, 09 May 16 00:10:04 -0500][DEBUG] SELECT id,nombre,nit,direccion,ciudad,email,telefono,celular,nota,registro_at FROM cliente WHERE id = 8 LIMIT 1
[Mon, 09 May 16 00:10:04 -0500][DEBUG] DESCRIBE `actividad`
[Mon, 09 May 16 00:10:04 -0500][DEBUG] SELECT id,contrato_id,descripcion,unidad,cantidad,acomulado,cantidad_estimada,mayores_menores,valor,valor_total,observacion,asignado,estado,actividad_at FROM actividad WHERE contrato_id = 1
[Mon, 09 May 16 00:10:04 -0500][DEBUG] DESCRIBE `logs_nota`
[Mon, 09 May 16 00:10:04 -0500][DEBUG] INSERT INTO logs_nota (contrato_id,ot_id,nota,nota_at) VALUES ('1',NULL,'TEST PRUEBA NOTA ADICIONA 1','2016-05-09 0:10:04')
[Mon, 09 May 16 00:10:04 -0500][DEBUG] SELECT id,contrato_id,ot_id,nota,nota_at FROM logs_nota WHERE id = 1 LIMIT 1
[Mon, 09 May 16 00:10:04 -0500][DEBUG] SELECT id,contrato_id,descripcion,unidad,cantidad,acomulado,cantidad_estimada,mayores_menores,valor,valor_total,observacion,asignado,estado,actividad_at FROM actividad WHERE contrato_id = 1
[Mon, 09 May 16 00:10:04 -0500][DEBUG] SELECT SUM(valor_total) FROM actividad  WHERE contrato_id = 1
[Mon, 09 May 16 00:10:04 -0500][DEBUG] SELECT id,nombre,referencia,vigencia,vigencia_duracion,ejecucion,ejecucion_duracion,nota,cliente_id,admin_tecnico_nombre,admin_tecnico_email,admin_tecnico_telefono,porce_admon,porce_imprevistos,porce_utilidad,valor_total_contrato,registro_at FROM contrato WHERE id = 1 LIMIT 1
[Mon, 09 May 16 00:16:51 -0500][DEBUG] DESCRIBE `usuario`
[Mon, 09 May 16 00:16:51 -0500][DEBUG] DESCRIBE `contrato`
[Mon, 09 May 16 00:16:51 -0500][DEBUG] SELECT id,nombre,referencia,vigencia,vigencia_duracion,ejecucion,ejecucion_duracion,nota,cliente_id,admin_tecnico_nombre,admin_tecnico_email,admin_tecnico_telefono,porce_admon,porce_imprevistos,porce_utilidad,valor_total_contrato,registro_at FROM contrato WHERE id = 1 LIMIT 1
[Mon, 09 May 16 00:16:51 -0500][DEBUG] DESCRIBE `unidad_de_negocio`
[Mon, 09 May 16 00:16:51 -0500][DEBUG] SELECT id,nombre,admin,email,telefono,ubicacion,contrato_id FROM unidad_de_negocio WHERE contrato_id = 1
[Mon, 09 May 16 00:16:51 -0500][DEBUG] DESCRIBE `cliente`
[Mon, 09 May 16 00:16:51 -0500][DEBUG] SELECT id,nombre,nit,direccion,ciudad,email,telefono,celular,nota,registro_at FROM cliente WHERE id = 8 LIMIT 1
[Mon, 09 May 16 00:16:51 -0500][DEBUG] DESCRIBE `actividad`
[Mon, 09 May 16 00:16:51 -0500][DEBUG] SELECT id,contrato_id,descripcion,unidad,cantidad,acomulado,cantidad_estimada,mayores_menores,valor,valor_total,observacion,asignado,estado,actividad_at FROM actividad WHERE contrato_id = 1
[Mon, 09 May 16 00:16:51 -0500][DEBUG] DESCRIBE `logs_nota`
[Mon, 09 May 16 00:16:51 -0500][DEBUG] SELECT id,contrato_id,ot_id,nota,nota_at FROM logs_nota WHERE contrato_id = 1
[Mon, 09 May 16 00:16:51 -0500][DEBUG] SELECT id,contrato_id,descripcion,unidad,cantidad,acomulado,cantidad_estimada,mayores_menores,valor,valor_total,observacion,asignado,estado,actividad_at FROM actividad WHERE contrato_id = 1
[Mon, 09 May 16 00:16:51 -0500][DEBUG] SELECT SUM(valor_total) FROM actividad  WHERE contrato_id = 1
[Mon, 09 May 16 00:16:51 -0500][DEBUG] SELECT id,nombre,referencia,vigencia,vigencia_duracion,ejecucion,ejecucion_duracion,nota,cliente_id,admin_tecnico_nombre,admin_tecnico_email,admin_tecnico_telefono,porce_admon,porce_imprevistos,porce_utilidad,valor_total_contrato,registro_at FROM contrato WHERE id = 1 LIMIT 1
[Mon, 09 May 16 00:16:51 -0500][DEBUG] DESCRIBE `menu`
[Mon, 09 May 16 00:17:12 -0500][DEBUG] DESCRIBE `usuario`
[Mon, 09 May 16 00:17:12 -0500][DEBUG] DESCRIBE `contrato`
[Mon, 09 May 16 00:17:12 -0500][DEBUG] SELECT id,nombre,referencia,vigencia,vigencia_duracion,ejecucion,ejecucion_duracion,nota,cliente_id,admin_tecnico_nombre,admin_tecnico_email,admin_tecnico_telefono,porce_admon,porce_imprevistos,porce_utilidad,valor_total_contrato,registro_at FROM contrato WHERE id = 1 LIMIT 1
[Mon, 09 May 16 00:17:12 -0500][DEBUG] DESCRIBE `unidad_de_negocio`
[Mon, 09 May 16 00:17:12 -0500][DEBUG] SELECT id,nombre,admin,email,telefono,ubicacion,contrato_id FROM unidad_de_negocio WHERE contrato_id = 1
[Mon, 09 May 16 00:17:12 -0500][DEBUG] DESCRIBE `cliente`
[Mon, 09 May 16 00:17:12 -0500][DEBUG] SELECT id,nombre,nit,direccion,ciudad,email,telefono,celular,nota,registro_at FROM cliente WHERE id = 8 LIMIT 1
[Mon, 09 May 16 00:17:12 -0500][DEBUG] DESCRIBE `actividad`
[Mon, 09 May 16 00:17:12 -0500][DEBUG] SELECT id,contrato_id,descripcion,unidad,cantidad,acomulado,cantidad_estimada,mayores_menores,valor,valor_total,observacion,asignado,estado,actividad_at FROM actividad WHERE contrato_id = 1
[Mon, 09 May 16 00:17:12 -0500][DEBUG] DESCRIBE `logs_nota`
[Mon, 09 May 16 00:17:12 -0500][DEBUG] SELECT id,contrato_id,ot_id,nota,nota_at FROM logs_nota WHERE contrato_id = 1
[Mon, 09 May 16 00:17:12 -0500][DEBUG] SELECT id,contrato_id,descripcion,unidad,cantidad,acomulado,cantidad_estimada,mayores_menores,valor,valor_total,observacion,asignado,estado,actividad_at FROM actividad WHERE contrato_id = 1
[Mon, 09 May 16 00:17:12 -0500][DEBUG] SELECT SUM(valor_total) FROM actividad  WHERE contrato_id = 1
[Mon, 09 May 16 00:17:12 -0500][DEBUG] SELECT id,nombre,referencia,vigencia,vigencia_duracion,ejecucion,ejecucion_duracion,nota,cliente_id,admin_tecnico_nombre,admin_tecnico_email,admin_tecnico_telefono,porce_admon,porce_imprevistos,porce_utilidad,valor_total_contrato,registro_at FROM contrato WHERE id = 1 LIMIT 1
[Mon, 09 May 16 00:17:12 -0500][DEBUG] DESCRIBE `menu`
[Mon, 09 May 16 00:20:01 -0500][DEBUG] DESCRIBE `usuario`
[Mon, 09 May 16 00:20:01 -0500][DEBUG] DESCRIBE `contrato`
[Mon, 09 May 16 00:20:01 -0500][DEBUG] SELECT id,nombre,referencia,vigencia,vigencia_duracion,ejecucion,ejecucion_duracion,nota,cliente_id,admin_tecnico_nombre,admin_tecnico_email,admin_tecnico_telefono,porce_admon,porce_imprevistos,porce_utilidad,valor_total_contrato,registro_at FROM contrato WHERE id = 1 LIMIT 1
[Mon, 09 May 16 00:20:01 -0500][DEBUG] DESCRIBE `unidad_de_negocio`
[Mon, 09 May 16 00:20:01 -0500][DEBUG] SELECT id,nombre,admin,email,telefono,ubicacion,contrato_id FROM unidad_de_negocio WHERE contrato_id = 1
[Mon, 09 May 16 00:20:01 -0500][DEBUG] DESCRIBE `cliente`
[Mon, 09 May 16 00:20:01 -0500][DEBUG] SELECT id,nombre,nit,direccion,ciudad,email,telefono,celular,nota,registro_at FROM cliente WHERE id = 8 LIMIT 1
[Mon, 09 May 16 00:20:01 -0500][DEBUG] DESCRIBE `actividad`
[Mon, 09 May 16 00:20:01 -0500][DEBUG] SELECT id,contrato_id,descripcion,unidad,cantidad,acomulado,cantidad_estimada,mayores_menores,valor,valor_total,observacion,asignado,estado,actividad_at FROM actividad WHERE contrato_id = 1
[Mon, 09 May 16 00:20:01 -0500][DEBUG] DESCRIBE `logs_nota`
[Mon, 09 May 16 00:20:01 -0500][DEBUG] SELECT id,contrato_id,ot_id,nota,nota_at FROM logs_nota WHERE contrato_id = 1
[Mon, 09 May 16 00:20:01 -0500][DEBUG] SELECT id,contrato_id,descripcion,unidad,cantidad,acomulado,cantidad_estimada,mayores_menores,valor,valor_total,observacion,asignado,estado,actividad_at FROM actividad WHERE contrato_id = 1
[Mon, 09 May 16 00:20:01 -0500][DEBUG] SELECT SUM(valor_total) FROM actividad  WHERE contrato_id = 1
[Mon, 09 May 16 00:20:01 -0500][DEBUG] SELECT id,nombre,referencia,vigencia,vigencia_duracion,ejecucion,ejecucion_duracion,nota,cliente_id,admin_tecnico_nombre,admin_tecnico_email,admin_tecnico_telefono,porce_admon,porce_imprevistos,porce_utilidad,valor_total_contrato,registro_at FROM contrato WHERE id = 1 LIMIT 1
[Mon, 09 May 16 00:20:01 -0500][DEBUG] DESCRIBE `menu`
[Mon, 09 May 16 00:21:09 -0500][DEBUG] DESCRIBE `usuario`
[Mon, 09 May 16 00:21:09 -0500][DEBUG] DESCRIBE `contrato`
[Mon, 09 May 16 00:21:09 -0500][DEBUG] SELECT id,nombre,referencia,vigencia,vigencia_duracion,ejecucion,ejecucion_duracion,nota,cliente_id,admin_tecnico_nombre,admin_tecnico_email,admin_tecnico_telefono,porce_admon,porce_imprevistos,porce_utilidad,valor_total_contrato,registro_at FROM contrato WHERE id = 1 LIMIT 1
[Mon, 09 May 16 00:21:09 -0500][DEBUG] DESCRIBE `unidad_de_negocio`
[Mon, 09 May 16 00:21:09 -0500][DEBUG] SELECT id,nombre,admin,email,telefono,ubicacion,contrato_id FROM unidad_de_negocio WHERE contrato_id = 1
[Mon, 09 May 16 00:21:09 -0500][DEBUG] DESCRIBE `cliente`
[Mon, 09 May 16 00:21:09 -0500][DEBUG] SELECT id,nombre,nit,direccion,ciudad,email,telefono,celular,nota,registro_at FROM cliente WHERE id = 8 LIMIT 1
[Mon, 09 May 16 00:21:09 -0500][DEBUG] DESCRIBE `actividad`
[Mon, 09 May 16 00:21:09 -0500][DEBUG] SELECT id,contrato_id,descripcion,unidad,cantidad,acomulado,cantidad_estimada,mayores_menores,valor,valor_total,observacion,asignado,estado,actividad_at FROM actividad WHERE contrato_id = 1
[Mon, 09 May 16 00:21:09 -0500][DEBUG] DESCRIBE `logs_nota`
[Mon, 09 May 16 00:21:09 -0500][DEBUG] SELECT id,contrato_id,ot_id,nota,nota_at FROM logs_nota WHERE contrato_id = 1
[Mon, 09 May 16 00:21:09 -0500][DEBUG] SELECT id,contrato_id,descripcion,unidad,cantidad,acomulado,cantidad_estimada,mayores_menores,valor,valor_total,observacion,asignado,estado,actividad_at FROM actividad WHERE contrato_id = 1
[Mon, 09 May 16 00:21:09 -0500][DEBUG] SELECT SUM(valor_total) FROM actividad  WHERE contrato_id = 1
[Mon, 09 May 16 00:21:09 -0500][DEBUG] SELECT id,nombre,referencia,vigencia,vigencia_duracion,ejecucion,ejecucion_duracion,nota,cliente_id,admin_tecnico_nombre,admin_tecnico_email,admin_tecnico_telefono,porce_admon,porce_imprevistos,porce_utilidad,valor_total_contrato,registro_at FROM contrato WHERE id = 1 LIMIT 1
[Mon, 09 May 16 00:21:09 -0500][DEBUG] DESCRIBE `menu`
[Mon, 09 May 16 00:21:47 -0500][DEBUG] DESCRIBE `usuario`
[Mon, 09 May 16 00:21:47 -0500][DEBUG] DESCRIBE `contrato`
[Mon, 09 May 16 00:21:47 -0500][DEBUG] SELECT id,nombre,referencia,vigencia,vigencia_duracion,ejecucion,ejecucion_duracion,nota,cliente_id,admin_tecnico_nombre,admin_tecnico_email,admin_tecnico_telefono,porce_admon,porce_imprevistos,porce_utilidad,valor_total_contrato,registro_at FROM contrato WHERE id = 1 LIMIT 1
[Mon, 09 May 16 00:21:47 -0500][DEBUG] DESCRIBE `unidad_de_negocio`
[Mon, 09 May 16 00:21:47 -0500][DEBUG] SELECT id,nombre,admin,email,telefono,ubicacion,contrato_id FROM unidad_de_negocio WHERE contrato_id = 1
[Mon, 09 May 16 00:21:47 -0500][DEBUG] DESCRIBE `cliente`
[Mon, 09 May 16 00:21:47 -0500][DEBUG] SELECT id,nombre,nit,direccion,ciudad,email,telefono,celular,nota,registro_at FROM cliente WHERE id = 8 LIMIT 1
[Mon, 09 May 16 00:21:47 -0500][DEBUG] DESCRIBE `actividad`
[Mon, 09 May 16 00:21:47 -0500][DEBUG] SELECT id,contrato_id,descripcion,unidad,cantidad,acomulado,cantidad_estimada,mayores_menores,valor,valor_total,observacion,asignado,estado,actividad_at FROM actividad WHERE contrato_id = 1
[Mon, 09 May 16 00:21:47 -0500][DEBUG] DESCRIBE `logs_nota`
[Mon, 09 May 16 00:21:47 -0500][DEBUG] SELECT id,contrato_id,ot_id,nota,nota_at FROM logs_nota WHERE contrato_id = 1
[Mon, 09 May 16 00:21:47 -0500][DEBUG] SELECT id,contrato_id,descripcion,unidad,cantidad,acomulado,cantidad_estimada,mayores_menores,valor,valor_total,observacion,asignado,estado,actividad_at FROM actividad WHERE contrato_id = 1
[Mon, 09 May 16 00:21:47 -0500][DEBUG] SELECT SUM(valor_total) FROM actividad  WHERE contrato_id = 1
[Mon, 09 May 16 00:21:47 -0500][DEBUG] SELECT id,nombre,referencia,vigencia,vigencia_duracion,ejecucion,ejecucion_duracion,nota,cliente_id,admin_tecnico_nombre,admin_tecnico_email,admin_tecnico_telefono,porce_admon,porce_imprevistos,porce_utilidad,valor_total_contrato,registro_at FROM contrato WHERE id = 1 LIMIT 1
[Mon, 09 May 16 00:21:47 -0500][DEBUG] DESCRIBE `menu`
[Mon, 09 May 16 00:21:58 -0500][DEBUG] DESCRIBE `usuario`
[Mon, 09 May 16 00:21:58 -0500][DEBUG] DESCRIBE `contrato`
[Mon, 09 May 16 00:21:58 -0500][DEBUG] SELECT id,nombre,referencia,vigencia,vigencia_duracion,ejecucion,ejecucion_duracion,nota,cliente_id,admin_tecnico_nombre,admin_tecnico_email,admin_tecnico_telefono,porce_admon,porce_imprevistos,porce_utilidad,valor_total_contrato,registro_at FROM contrato WHERE id = 1 LIMIT 1
[Mon, 09 May 16 00:21:58 -0500][DEBUG] DESCRIBE `unidad_de_negocio`
[Mon, 09 May 16 00:21:58 -0500][DEBUG] SELECT id,nombre,admin,email,telefono,ubicacion,contrato_id FROM unidad_de_negocio WHERE contrato_id = 1
[Mon, 09 May 16 00:21:58 -0500][DEBUG] DESCRIBE `cliente`
[Mon, 09 May 16 00:21:58 -0500][DEBUG] SELECT id,nombre,nit,direccion,ciudad,email,telefono,celular,nota,registro_at FROM cliente WHERE id = 8 LIMIT 1
[Mon, 09 May 16 00:21:58 -0500][DEBUG] DESCRIBE `actividad`
[Mon, 09 May 16 00:21:58 -0500][DEBUG] SELECT id,contrato_id,descripcion,unidad,cantidad,acomulado,cantidad_estimada,mayores_menores,valor,valor_total,observacion,asignado,estado,actividad_at FROM actividad WHERE contrato_id = 1
[Mon, 09 May 16 00:21:58 -0500][DEBUG] DESCRIBE `logs_nota`
[Mon, 09 May 16 00:21:58 -0500][DEBUG] SELECT id,contrato_id,ot_id,nota,nota_at FROM logs_nota WHERE contrato_id = 1
[Mon, 09 May 16 00:21:58 -0500][DEBUG] SELECT id,contrato_id,descripcion,unidad,cantidad,acomulado,cantidad_estimada,mayores_menores,valor,valor_total,observacion,asignado,estado,actividad_at FROM actividad WHERE contrato_id = 1
[Mon, 09 May 16 00:21:58 -0500][DEBUG] SELECT SUM(valor_total) FROM actividad  WHERE contrato_id = 1
[Mon, 09 May 16 00:21:58 -0500][DEBUG] SELECT id,nombre,referencia,vigencia,vigencia_duracion,ejecucion,ejecucion_duracion,nota,cliente_id,admin_tecnico_nombre,admin_tecnico_email,admin_tecnico_telefono,porce_admon,porce_imprevistos,porce_utilidad,valor_total_contrato,registro_at FROM contrato WHERE id = 1 LIMIT 1
[Mon, 09 May 16 00:21:58 -0500][DEBUG] DESCRIBE `menu`
[Mon, 09 May 16 00:23:21 -0500][DEBUG] DESCRIBE `usuario`
[Mon, 09 May 16 00:23:21 -0500][DEBUG] DESCRIBE `contrato`
[Mon, 09 May 16 00:23:21 -0500][DEBUG] SELECT id,nombre,referencia,vigencia,vigencia_duracion,ejecucion,ejecucion_duracion,nota,cliente_id,admin_tecnico_nombre,admin_tecnico_email,admin_tecnico_telefono,porce_admon,porce_imprevistos,porce_utilidad,valor_total_contrato,registro_at FROM contrato WHERE id = 1 LIMIT 1
[Mon, 09 May 16 00:23:21 -0500][DEBUG] DESCRIBE `unidad_de_negocio`
[Mon, 09 May 16 00:23:21 -0500][DEBUG] SELECT id,nombre,admin,email,telefono,ubicacion,contrato_id FROM unidad_de_negocio WHERE contrato_id = 1
[Mon, 09 May 16 00:23:21 -0500][DEBUG] DESCRIBE `cliente`
[Mon, 09 May 16 00:23:21 -0500][DEBUG] SELECT id,nombre,nit,direccion,ciudad,email,telefono,celular,nota,registro_at FROM cliente WHERE id = 8 LIMIT 1
[Mon, 09 May 16 00:23:21 -0500][DEBUG] DESCRIBE `actividad`
[Mon, 09 May 16 00:23:21 -0500][DEBUG] SELECT id,contrato_id,descripcion,unidad,cantidad,acomulado,cantidad_estimada,mayores_menores,valor,valor_total,observacion,asignado,estado,actividad_at FROM actividad WHERE contrato_id = 1
[Mon, 09 May 16 00:23:21 -0500][DEBUG] DESCRIBE `logs_nota`
[Mon, 09 May 16 00:23:21 -0500][DEBUG] INSERT INTO logs_nota (contrato_id,ot_id,nota,nota_at) VALUES ('1',NULL,'TEST PRUEBA NOTA ADICIONAL 2','2016-05-09 0:23:21')
[Mon, 09 May 16 00:23:21 -0500][DEBUG] SELECT id,contrato_id,ot_id,nota,nota_at FROM logs_nota WHERE id = 2 LIMIT 1
[Mon, 09 May 16 00:23:21 -0500][DEBUG] DESCRIBE `usuario`
[Mon, 09 May 16 00:23:32 -0500][DEBUG] DESCRIBE `usuario`
[Mon, 09 May 16 00:23:32 -0500][DEBUG] DESCRIBE `contrato`
[Mon, 09 May 16 00:23:32 -0500][DEBUG] SELECT id,nombre,referencia,vigencia,vigencia_duracion,ejecucion,ejecucion_duracion,nota,cliente_id,admin_tecnico_nombre,admin_tecnico_email,admin_tecnico_telefono,porce_admon,porce_imprevistos,porce_utilidad,valor_total_contrato,registro_at FROM contrato WHERE id = 1 LIMIT 1
[Mon, 09 May 16 00:23:32 -0500][DEBUG] DESCRIBE `unidad_de_negocio`
[Mon, 09 May 16 00:23:32 -0500][DEBUG] SELECT id,nombre,admin,email,telefono,ubicacion,contrato_id FROM unidad_de_negocio WHERE contrato_id = 1
[Mon, 09 May 16 00:23:32 -0500][DEBUG] DESCRIBE `cliente`
[Mon, 09 May 16 00:23:32 -0500][DEBUG] SELECT id,nombre,nit,direccion,ciudad,email,telefono,celular,nota,registro_at FROM cliente WHERE id = 8 LIMIT 1
[Mon, 09 May 16 00:23:32 -0500][DEBUG] DESCRIBE `actividad`
[Mon, 09 May 16 00:23:32 -0500][DEBUG] SELECT id,contrato_id,descripcion,unidad,cantidad,acomulado,cantidad_estimada,mayores_menores,valor,valor_total,observacion,asignado,estado,actividad_at FROM actividad WHERE contrato_id = 1
[Mon, 09 May 16 00:23:32 -0500][DEBUG] DESCRIBE `logs_nota`
[Mon, 09 May 16 00:23:32 -0500][DEBUG] SELECT id,contrato_id,ot_id,nota,nota_at FROM logs_nota WHERE contrato_id = 1
[Mon, 09 May 16 00:23:32 -0500][DEBUG] SELECT id,contrato_id,descripcion,unidad,cantidad,acomulado,cantidad_estimada,mayores_menores,valor,valor_total,observacion,asignado,estado,actividad_at FROM actividad WHERE contrato_id = 1
[Mon, 09 May 16 00:23:32 -0500][DEBUG] SELECT SUM(valor_total) FROM actividad  WHERE contrato_id = 1
[Mon, 09 May 16 00:23:32 -0500][DEBUG] SELECT id,nombre,referencia,vigencia,vigencia_duracion,ejecucion,ejecucion_duracion,nota,cliente_id,admin_tecnico_nombre,admin_tecnico_email,admin_tecnico_telefono,porce_admon,porce_imprevistos,porce_utilidad,valor_total_contrato,registro_at FROM contrato WHERE id = 1 LIMIT 1
[Mon, 09 May 16 00:23:32 -0500][DEBUG] DESCRIBE `menu`
[Mon, 09 May 16 00:24:54 -0500][DEBUG] DESCRIBE `usuario`
[Mon, 09 May 16 00:24:54 -0500][DEBUG] DESCRIBE `contrato`
[Mon, 09 May 16 00:24:54 -0500][DEBUG] SELECT id,nombre,referencia,vigencia,vigencia_duracion,ejecucion,ejecucion_duracion,nota,cliente_id,admin_tecnico_nombre,admin_tecnico_email,admin_tecnico_telefono,porce_admon,porce_imprevistos,porce_utilidad,valor_total_contrato,registro_at FROM contrato WHERE id = 1 LIMIT 1
[Mon, 09 May 16 00:24:54 -0500][DEBUG] DESCRIBE `unidad_de_negocio`
[Mon, 09 May 16 00:24:54 -0500][DEBUG] SELECT id,nombre,admin,email,telefono,ubicacion,contrato_id FROM unidad_de_negocio WHERE contrato_id = 1
[Mon, 09 May 16 00:24:54 -0500][DEBUG] DESCRIBE `cliente`
[Mon, 09 May 16 00:24:54 -0500][DEBUG] SELECT id,nombre,nit,direccion,ciudad,email,telefono,celular,nota,registro_at FROM cliente WHERE id = 8 LIMIT 1
[Mon, 09 May 16 00:24:54 -0500][DEBUG] DESCRIBE `actividad`
[Mon, 09 May 16 00:24:54 -0500][DEBUG] SELECT id,contrato_id,descripcion,unidad,cantidad,acomulado,cantidad_estimada,mayores_menores,valor,valor_total,observacion,asignado,estado,actividad_at FROM actividad WHERE contrato_id = 1
[Mon, 09 May 16 00:24:54 -0500][DEBUG] DESCRIBE `logs_nota`
[Mon, 09 May 16 00:24:54 -0500][DEBUG] INSERT INTO logs_nota (contrato_id,ot_id,nota,nota_at) VALUES ('1',NULL,'TEST PRUEBA NOTA ADICIONAL 3','2016-05-09 0:24:54')
[Mon, 09 May 16 00:24:54 -0500][DEBUG] SELECT id,contrato_id,ot_id,nota,nota_at FROM logs_nota WHERE id = 3 LIMIT 1
[Mon, 09 May 16 00:24:54 -0500][DEBUG] SELECT id,contrato_id,ot_id,nota,nota_at FROM logs_nota WHERE contrato_id = 1
[Mon, 09 May 16 00:24:54 -0500][DEBUG] DESCRIBE `usuario`
[Mon, 09 May 16 00:24:54 -0500][DEBUG] DESCRIBE `contrato`
[Mon, 09 May 16 00:24:54 -0500][DEBUG] SELECT id,nombre,referencia,vigencia,vigencia_duracion,ejecucion,ejecucion_duracion,nota,cliente_id,admin_tecnico_nombre,admin_tecnico_email,admin_tecnico_telefono,porce_admon,porce_imprevistos,porce_utilidad,valor_total_contrato,registro_at FROM contrato WHERE id = 1 LIMIT 1
[Mon, 09 May 16 00:24:54 -0500][DEBUG] DESCRIBE `unidad_de_negocio`
[Mon, 09 May 16 00:24:54 -0500][DEBUG] SELECT id,nombre,admin,email,telefono,ubicacion,contrato_id FROM unidad_de_negocio WHERE contrato_id = 1
[Mon, 09 May 16 00:24:54 -0500][DEBUG] DESCRIBE `cliente`
[Mon, 09 May 16 00:24:54 -0500][DEBUG] SELECT id,nombre,nit,direccion,ciudad,email,telefono,celular,nota,registro_at FROM cliente WHERE id = 8 LIMIT 1
[Mon, 09 May 16 00:24:54 -0500][DEBUG] DESCRIBE `actividad`
[Mon, 09 May 16 00:24:54 -0500][DEBUG] SELECT id,contrato_id,descripcion,unidad,cantidad,acomulado,cantidad_estimada,mayores_menores,valor,valor_total,observacion,asignado,estado,actividad_at FROM actividad WHERE contrato_id = 1
[Mon, 09 May 16 00:24:54 -0500][DEBUG] DESCRIBE `logs_nota`
[Mon, 09 May 16 00:24:54 -0500][DEBUG] SELECT id,contrato_id,ot_id,nota,nota_at FROM logs_nota WHERE contrato_id = 1
[Mon, 09 May 16 00:24:54 -0500][DEBUG] SELECT id,contrato_id,descripcion,unidad,cantidad,acomulado,cantidad_estimada,mayores_menores,valor,valor_total,observacion,asignado,estado,actividad_at FROM actividad WHERE contrato_id = 1
[Mon, 09 May 16 00:24:54 -0500][DEBUG] SELECT SUM(valor_total) FROM actividad  WHERE contrato_id = 1
[Mon, 09 May 16 00:24:54 -0500][DEBUG] SELECT id,nombre,referencia,vigencia,vigencia_duracion,ejecucion,ejecucion_duracion,nota,cliente_id,admin_tecnico_nombre,admin_tecnico_email,admin_tecnico_telefono,porce_admon,porce_imprevistos,porce_utilidad,valor_total_contrato,registro_at FROM contrato WHERE id = 1 LIMIT 1
[Mon, 09 May 16 00:25:47 -0500][DEBUG] DESCRIBE `usuario`
[Mon, 09 May 16 00:25:47 -0500][DEBUG] DESCRIBE `contrato`
[Mon, 09 May 16 00:25:47 -0500][DEBUG] SELECT id,nombre,referencia,vigencia,vigencia_duracion,ejecucion,ejecucion_duracion,nota,cliente_id,admin_tecnico_nombre,admin_tecnico_email,admin_tecnico_telefono,porce_admon,porce_imprevistos,porce_utilidad,valor_total_contrato,registro_at FROM contrato WHERE id = 1 LIMIT 1
[Mon, 09 May 16 00:25:47 -0500][DEBUG] DESCRIBE `unidad_de_negocio`
[Mon, 09 May 16 00:25:47 -0500][DEBUG] SELECT id,nombre,admin,email,telefono,ubicacion,contrato_id FROM unidad_de_negocio WHERE contrato_id = 1
[Mon, 09 May 16 00:25:47 -0500][DEBUG] DESCRIBE `cliente`
[Mon, 09 May 16 00:25:47 -0500][DEBUG] SELECT id,nombre,nit,direccion,ciudad,email,telefono,celular,nota,registro_at FROM cliente WHERE id = 8 LIMIT 1
[Mon, 09 May 16 00:25:47 -0500][DEBUG] DESCRIBE `actividad`
[Mon, 09 May 16 00:25:47 -0500][DEBUG] SELECT id,contrato_id,descripcion,unidad,cantidad,acomulado,cantidad_estimada,mayores_menores,valor,valor_total,observacion,asignado,estado,actividad_at FROM actividad WHERE contrato_id = 1
[Mon, 09 May 16 00:25:47 -0500][DEBUG] DESCRIBE `logs_nota`
[Mon, 09 May 16 00:25:47 -0500][DEBUG] SELECT id,contrato_id,ot_id,nota,nota_at FROM logs_nota WHERE contrato_id = 1
[Mon, 09 May 16 00:25:47 -0500][DEBUG] SELECT id,contrato_id,descripcion,unidad,cantidad,acomulado,cantidad_estimada,mayores_menores,valor,valor_total,observacion,asignado,estado,actividad_at FROM actividad WHERE contrato_id = 1
[Mon, 09 May 16 00:25:47 -0500][DEBUG] SELECT SUM(valor_total) FROM actividad  WHERE contrato_id = 1
[Mon, 09 May 16 00:25:47 -0500][DEBUG] SELECT id,nombre,referencia,vigencia,vigencia_duracion,ejecucion,ejecucion_duracion,nota,cliente_id,admin_tecnico_nombre,admin_tecnico_email,admin_tecnico_telefono,porce_admon,porce_imprevistos,porce_utilidad,valor_total_contrato,registro_at FROM contrato WHERE id = 1 LIMIT 1
[Mon, 09 May 16 00:25:47 -0500][DEBUG] DESCRIBE `menu`
[Mon, 09 May 16 00:28:02 -0500][DEBUG] DESCRIBE `usuario`
[Mon, 09 May 16 00:28:02 -0500][DEBUG] DESCRIBE `contrato`
[Mon, 09 May 16 00:28:02 -0500][DEBUG] SELECT id,nombre,referencia,vigencia,vigencia_duracion,ejecucion,ejecucion_duracion,nota,cliente_id,admin_tecnico_nombre,admin_tecnico_email,admin_tecnico_telefono,porce_admon,porce_imprevistos,porce_utilidad,valor_total_contrato,registro_at FROM contrato WHERE id = 1 LIMIT 1
[Mon, 09 May 16 00:28:02 -0500][DEBUG] DESCRIBE `unidad_de_negocio`
[Mon, 09 May 16 00:28:02 -0500][DEBUG] SELECT id,nombre,admin,email,telefono,ubicacion,contrato_id FROM unidad_de_negocio WHERE contrato_id = 1
[Mon, 09 May 16 00:28:02 -0500][DEBUG] DESCRIBE `cliente`
[Mon, 09 May 16 00:28:02 -0500][DEBUG] SELECT id,nombre,nit,direccion,ciudad,email,telefono,celular,nota,registro_at FROM cliente WHERE id = 8 LIMIT 1
[Mon, 09 May 16 00:28:02 -0500][DEBUG] DESCRIBE `actividad`
[Mon, 09 May 16 00:28:02 -0500][DEBUG] SELECT id,contrato_id,descripcion,unidad,cantidad,acomulado,cantidad_estimada,mayores_menores,valor,valor_total,observacion,asignado,estado,actividad_at FROM actividad WHERE contrato_id = 1
[Mon, 09 May 16 00:28:02 -0500][DEBUG] DESCRIBE `logs_nota`
[Mon, 09 May 16 00:28:02 -0500][DEBUG] SELECT id,contrato_id,ot_id,nota,nota_at FROM logs_nota
[Mon, 09 May 16 00:28:02 -0500][DEBUG] SELECT id,contrato_id,descripcion,unidad,cantidad,acomulado,cantidad_estimada,mayores_menores,valor,valor_total,observacion,asignado,estado,actividad_at FROM actividad WHERE contrato_id = 1
[Mon, 09 May 16 00:28:02 -0500][DEBUG] SELECT SUM(valor_total) FROM actividad  WHERE contrato_id = 1
[Mon, 09 May 16 00:28:02 -0500][DEBUG] SELECT id,nombre,referencia,vigencia,vigencia_duracion,ejecucion,ejecucion_duracion,nota,cliente_id,admin_tecnico_nombre,admin_tecnico_email,admin_tecnico_telefono,porce_admon,porce_imprevistos,porce_utilidad,valor_total_contrato,registro_at FROM contrato WHERE id = 1 LIMIT 1
[Mon, 09 May 16 00:28:02 -0500][DEBUG] DESCRIBE `menu`
[Mon, 09 May 16 00:28:12 -0500][DEBUG] DESCRIBE `usuario`
[Mon, 09 May 16 00:28:12 -0500][DEBUG] DESCRIBE `contrato`
[Mon, 09 May 16 00:28:12 -0500][DEBUG] SELECT id,nombre,referencia,vigencia,vigencia_duracion,ejecucion,ejecucion_duracion,nota,cliente_id,admin_tecnico_nombre,admin_tecnico_email,admin_tecnico_telefono,porce_admon,porce_imprevistos,porce_utilidad,valor_total_contrato,registro_at FROM contrato WHERE id = 1 LIMIT 1
[Mon, 09 May 16 00:28:12 -0500][DEBUG] DESCRIBE `unidad_de_negocio`
[Mon, 09 May 16 00:28:12 -0500][DEBUG] SELECT id,nombre,admin,email,telefono,ubicacion,contrato_id FROM unidad_de_negocio WHERE contrato_id = 1
[Mon, 09 May 16 00:28:12 -0500][DEBUG] DESCRIBE `cliente`
[Mon, 09 May 16 00:28:12 -0500][DEBUG] SELECT id,nombre,nit,direccion,ciudad,email,telefono,celular,nota,registro_at FROM cliente WHERE id = 8 LIMIT 1
[Mon, 09 May 16 00:28:12 -0500][DEBUG] DESCRIBE `actividad`
[Mon, 09 May 16 00:28:12 -0500][DEBUG] SELECT id,contrato_id,descripcion,unidad,cantidad,acomulado,cantidad_estimada,mayores_menores,valor,valor_total,observacion,asignado,estado,actividad_at FROM actividad WHERE contrato_id = 1
[Mon, 09 May 16 00:28:12 -0500][DEBUG] DESCRIBE `logs_nota`
[Mon, 09 May 16 00:28:12 -0500][DEBUG] SELECT id,contrato_id,ot_id,nota,nota_at FROM logs_nota
[Mon, 09 May 16 00:28:12 -0500][DEBUG] SELECT id,contrato_id,descripcion,unidad,cantidad,acomulado,cantidad_estimada,mayores_menores,valor,valor_total,observacion,asignado,estado,actividad_at FROM actividad WHERE contrato_id = 1
[Mon, 09 May 16 00:28:12 -0500][DEBUG] SELECT SUM(valor_total) FROM actividad  WHERE contrato_id = 1
[Mon, 09 May 16 00:28:12 -0500][DEBUG] SELECT id,nombre,referencia,vigencia,vigencia_duracion,ejecucion,ejecucion_duracion,nota,cliente_id,admin_tecnico_nombre,admin_tecnico_email,admin_tecnico_telefono,porce_admon,porce_imprevistos,porce_utilidad,valor_total_contrato,registro_at FROM contrato WHERE id = 1 LIMIT 1
[Mon, 09 May 16 00:28:12 -0500][DEBUG] DESCRIBE `menu`
[Mon, 09 May 16 00:28:22 -0500][DEBUG] DESCRIBE `usuario`
[Mon, 09 May 16 00:28:22 -0500][DEBUG] DESCRIBE `contrato`
[Mon, 09 May 16 00:28:22 -0500][DEBUG] SELECT id,nombre,referencia,vigencia,vigencia_duracion,ejecucion,ejecucion_duracion,nota,cliente_id,admin_tecnico_nombre,admin_tecnico_email,admin_tecnico_telefono,porce_admon,porce_imprevistos,porce_utilidad,valor_total_contrato,registro_at FROM contrato WHERE id = 1 LIMIT 1
[Mon, 09 May 16 00:28:22 -0500][DEBUG] DESCRIBE `unidad_de_negocio`
[Mon, 09 May 16 00:28:22 -0500][DEBUG] SELECT id,nombre,admin,email,telefono,ubicacion,contrato_id FROM unidad_de_negocio WHERE contrato_id = 1
[Mon, 09 May 16 00:28:22 -0500][DEBUG] DESCRIBE `cliente`
[Mon, 09 May 16 00:28:22 -0500][DEBUG] SELECT id,nombre,nit,direccion,ciudad,email,telefono,celular,nota,registro_at FROM cliente WHERE id = 8 LIMIT 1
[Mon, 09 May 16 00:28:22 -0500][DEBUG] DESCRIBE `actividad`
[Mon, 09 May 16 00:28:22 -0500][DEBUG] SELECT id,contrato_id,descripcion,unidad,cantidad,acomulado,cantidad_estimada,mayores_menores,valor,valor_total,observacion,asignado,estado,actividad_at FROM actividad WHERE contrato_id = 1
[Mon, 09 May 16 00:28:22 -0500][DEBUG] DESCRIBE `logs_nota`
[Mon, 09 May 16 00:28:22 -0500][DEBUG] SELECT id,contrato_id,ot_id,nota,nota_at FROM logs_nota
[Mon, 09 May 16 00:28:22 -0500][DEBUG] SELECT id,contrato_id,descripcion,unidad,cantidad,acomulado,cantidad_estimada,mayores_menores,valor,valor_total,observacion,asignado,estado,actividad_at FROM actividad WHERE contrato_id = 1
[Mon, 09 May 16 00:28:22 -0500][DEBUG] SELECT SUM(valor_total) FROM actividad  WHERE contrato_id = 1
[Mon, 09 May 16 00:28:22 -0500][DEBUG] SELECT id,nombre,referencia,vigencia,vigencia_duracion,ejecucion,ejecucion_duracion,nota,cliente_id,admin_tecnico_nombre,admin_tecnico_email,admin_tecnico_telefono,porce_admon,porce_imprevistos,porce_utilidad,valor_total_contrato,registro_at FROM contrato WHERE id = 1 LIMIT 1
[Mon, 09 May 16 00:28:22 -0500][DEBUG] DESCRIBE `menu`
[Mon, 09 May 16 00:28:44 -0500][DEBUG] DESCRIBE `usuario`
[Mon, 09 May 16 00:28:44 -0500][DEBUG] DESCRIBE `contrato`
[Mon, 09 May 16 00:28:44 -0500][DEBUG] SELECT id,nombre,referencia,vigencia,vigencia_duracion,ejecucion,ejecucion_duracion,nota,cliente_id,admin_tecnico_nombre,admin_tecnico_email,admin_tecnico_telefono,porce_admon,porce_imprevistos,porce_utilidad,valor_total_contrato,registro_at FROM contrato WHERE id = 1 LIMIT 1
[Mon, 09 May 16 00:28:44 -0500][DEBUG] DESCRIBE `unidad_de_negocio`
[Mon, 09 May 16 00:28:44 -0500][DEBUG] SELECT id,nombre,admin,email,telefono,ubicacion,contrato_id FROM unidad_de_negocio WHERE contrato_id = 1
[Mon, 09 May 16 00:28:44 -0500][DEBUG] DESCRIBE `cliente`
[Mon, 09 May 16 00:28:44 -0500][DEBUG] SELECT id,nombre,nit,direccion,ciudad,email,telefono,celular,nota,registro_at FROM cliente WHERE id = 8 LIMIT 1
[Mon, 09 May 16 00:28:44 -0500][DEBUG] DESCRIBE `actividad`
[Mon, 09 May 16 00:28:44 -0500][DEBUG] SELECT id,contrato_id,descripcion,unidad,cantidad,acomulado,cantidad_estimada,mayores_menores,valor,valor_total,observacion,asignado,estado,actividad_at FROM actividad WHERE contrato_id = 1
[Mon, 09 May 16 00:28:44 -0500][DEBUG] DESCRIBE `logs_nota`
[Mon, 09 May 16 00:28:44 -0500][DEBUG] SELECT id,contrato_id,ot_id,nota,nota_at FROM logs_nota WHERE contrato_id = 1 ORDER BY id desc
[Mon, 09 May 16 00:28:44 -0500][DEBUG] SELECT id,contrato_id,descripcion,unidad,cantidad,acomulado,cantidad_estimada,mayores_menores,valor,valor_total,observacion,asignado,estado,actividad_at FROM actividad WHERE contrato_id = 1
[Mon, 09 May 16 00:28:44 -0500][DEBUG] SELECT SUM(valor_total) FROM actividad  WHERE contrato_id = 1
[Mon, 09 May 16 00:28:44 -0500][DEBUG] SELECT id,nombre,referencia,vigencia,vigencia_duracion,ejecucion,ejecucion_duracion,nota,cliente_id,admin_tecnico_nombre,admin_tecnico_email,admin_tecnico_telefono,porce_admon,porce_imprevistos,porce_utilidad,valor_total_contrato,registro_at FROM contrato WHERE id = 1 LIMIT 1
[Mon, 09 May 16 00:28:44 -0500][DEBUG] DESCRIBE `menu`
[Mon, 09 May 16 00:29:27 -0500][DEBUG] DESCRIBE `usuario`
[Mon, 09 May 16 00:29:27 -0500][DEBUG] DESCRIBE `contrato`
[Mon, 09 May 16 00:29:27 -0500][DEBUG] SELECT id,nombre,referencia,vigencia,vigencia_duracion,ejecucion,ejecucion_duracion,nota,cliente_id,admin_tecnico_nombre,admin_tecnico_email,admin_tecnico_telefono,porce_admon,porce_imprevistos,porce_utilidad,valor_total_contrato,registro_at FROM contrato WHERE id = 1 LIMIT 1
[Mon, 09 May 16 00:29:27 -0500][DEBUG] DESCRIBE `unidad_de_negocio`
[Mon, 09 May 16 00:29:27 -0500][DEBUG] SELECT id,nombre,admin,email,telefono,ubicacion,contrato_id FROM unidad_de_negocio WHERE contrato_id = 1
[Mon, 09 May 16 00:29:27 -0500][DEBUG] DESCRIBE `cliente`
[Mon, 09 May 16 00:29:27 -0500][DEBUG] SELECT id,nombre,nit,direccion,ciudad,email,telefono,celular,nota,registro_at FROM cliente WHERE id = 8 LIMIT 1
[Mon, 09 May 16 00:29:27 -0500][DEBUG] DESCRIBE `actividad`
[Mon, 09 May 16 00:29:27 -0500][DEBUG] SELECT id,contrato_id,descripcion,unidad,cantidad,acomulado,cantidad_estimada,mayores_menores,valor,valor_total,observacion,asignado,estado,actividad_at FROM actividad WHERE contrato_id = 1
[Mon, 09 May 16 00:29:27 -0500][DEBUG] DESCRIBE `logs_nota`
[Mon, 09 May 16 00:29:27 -0500][DEBUG] INSERT INTO logs_nota (contrato_id,ot_id,nota,nota_at) VALUES ('1',NULL,'TEST PRUEBA NOTA ADICIONAL 4','2016-05-09 0:29:27')
[Mon, 09 May 16 00:29:27 -0500][DEBUG] SELECT id,contrato_id,ot_id,nota,nota_at FROM logs_nota WHERE id = 4 LIMIT 1
[Mon, 09 May 16 00:29:27 -0500][DEBUG] SELECT id,contrato_id,ot_id,nota,nota_at FROM logs_nota WHERE contrato_id = 1 ORDER BY id desc
[Mon, 09 May 16 00:29:27 -0500][DEBUG] DESCRIBE `usuario`
[Mon, 09 May 16 00:29:27 -0500][DEBUG] DESCRIBE `contrato`
[Mon, 09 May 16 00:29:27 -0500][DEBUG] SELECT id,nombre,referencia,vigencia,vigencia_duracion,ejecucion,ejecucion_duracion,nota,cliente_id,admin_tecnico_nombre,admin_tecnico_email,admin_tecnico_telefono,porce_admon,porce_imprevistos,porce_utilidad,valor_total_contrato,registro_at FROM contrato WHERE id = 1 LIMIT 1
[Mon, 09 May 16 00:29:27 -0500][DEBUG] DESCRIBE `unidad_de_negocio`
[Mon, 09 May 16 00:29:27 -0500][DEBUG] SELECT id,nombre,admin,email,telefono,ubicacion,contrato_id FROM unidad_de_negocio WHERE contrato_id = 1
[Mon, 09 May 16 00:29:27 -0500][DEBUG] DESCRIBE `cliente`
[Mon, 09 May 16 00:29:27 -0500][DEBUG] SELECT id,nombre,nit,direccion,ciudad,email,telefono,celular,nota,registro_at FROM cliente WHERE id = 8 LIMIT 1
[Mon, 09 May 16 00:29:27 -0500][DEBUG] DESCRIBE `actividad`
[Mon, 09 May 16 00:29:27 -0500][DEBUG] SELECT id,contrato_id,descripcion,unidad,cantidad,acomulado,cantidad_estimada,mayores_menores,valor,valor_total,observacion,asignado,estado,actividad_at FROM actividad WHERE contrato_id = 1
[Mon, 09 May 16 00:29:27 -0500][DEBUG] DESCRIBE `logs_nota`
[Mon, 09 May 16 00:29:27 -0500][DEBUG] SELECT id,contrato_id,ot_id,nota,nota_at FROM logs_nota WHERE contrato_id = 1 ORDER BY id desc
[Mon, 09 May 16 00:29:27 -0500][DEBUG] SELECT id,contrato_id,descripcion,unidad,cantidad,acomulado,cantidad_estimada,mayores_menores,valor,valor_total,observacion,asignado,estado,actividad_at FROM actividad WHERE contrato_id = 1
[Mon, 09 May 16 00:29:27 -0500][DEBUG] SELECT SUM(valor_total) FROM actividad  WHERE contrato_id = 1
[Mon, 09 May 16 00:29:27 -0500][DEBUG] SELECT id,nombre,referencia,vigencia,vigencia_duracion,ejecucion,ejecucion_duracion,nota,cliente_id,admin_tecnico_nombre,admin_tecnico_email,admin_tecnico_telefono,porce_admon,porce_imprevistos,porce_utilidad,valor_total_contrato,registro_at FROM contrato WHERE id = 1 LIMIT 1
[Mon, 09 May 16 00:29:48 -0500][DEBUG] DESCRIBE `usuario`
[Mon, 09 May 16 00:29:48 -0500][DEBUG] DESCRIBE `contrato`
[Mon, 09 May 16 00:29:48 -0500][DEBUG] SELECT id,nombre,referencia,vigencia,vigencia_duracion,ejecucion,ejecucion_duracion,nota,cliente_id,admin_tecnico_nombre,admin_tecnico_email,admin_tecnico_telefono,porce_admon,porce_imprevistos,porce_utilidad,valor_total_contrato,registro_at FROM contrato WHERE id = 1 LIMIT 1
[Mon, 09 May 16 00:29:48 -0500][DEBUG] DESCRIBE `unidad_de_negocio`
[Mon, 09 May 16 00:29:48 -0500][DEBUG] SELECT id,nombre,admin,email,telefono,ubicacion,contrato_id FROM unidad_de_negocio WHERE contrato_id = 1
[Mon, 09 May 16 00:29:48 -0500][DEBUG] DESCRIBE `cliente`
[Mon, 09 May 16 00:29:48 -0500][DEBUG] SELECT id,nombre,nit,direccion,ciudad,email,telefono,celular,nota,registro_at FROM cliente WHERE id = 8 LIMIT 1
[Mon, 09 May 16 00:29:48 -0500][DEBUG] DESCRIBE `actividad`
[Mon, 09 May 16 00:29:48 -0500][DEBUG] SELECT id,contrato_id,descripcion,unidad,cantidad,acomulado,cantidad_estimada,mayores_menores,valor,valor_total,observacion,asignado,estado,actividad_at FROM actividad WHERE contrato_id = 1
[Mon, 09 May 16 00:29:48 -0500][DEBUG] DESCRIBE `logs_nota`
[Mon, 09 May 16 00:29:48 -0500][DEBUG] SELECT id,contrato_id,ot_id,nota,nota_at FROM logs_nota WHERE contrato_id = 1 ORDER BY id desc
[Mon, 09 May 16 00:29:48 -0500][DEBUG] SELECT id,contrato_id,descripcion,unidad,cantidad,acomulado,cantidad_estimada,mayores_menores,valor,valor_total,observacion,asignado,estado,actividad_at FROM actividad WHERE contrato_id = 1
[Mon, 09 May 16 00:29:48 -0500][DEBUG] SELECT SUM(valor_total) FROM actividad  WHERE contrato_id = 1
[Mon, 09 May 16 00:29:48 -0500][DEBUG] SELECT id,nombre,referencia,vigencia,vigencia_duracion,ejecucion,ejecucion_duracion,nota,cliente_id,admin_tecnico_nombre,admin_tecnico_email,admin_tecnico_telefono,porce_admon,porce_imprevistos,porce_utilidad,valor_total_contrato,registro_at FROM contrato WHERE id = 1 LIMIT 1
[Mon, 09 May 16 00:29:55 -0500][DEBUG] DESCRIBE `usuario`
[Mon, 09 May 16 00:29:55 -0500][DEBUG] DESCRIBE `usuario`
[Mon, 09 May 16 00:29:55 -0500][DEBUG] DESCRIBE `cliente`
[Mon, 09 May 16 00:29:55 -0500][DEBUG] SELECT COUNT(*) FROM cliente 
[Mon, 09 May 16 00:29:55 -0500][DEBUG] SELECT cliente.* FROM cliente ORDER BY nombre ASC LIMIT 30 OFFSET 0
[Mon, 09 May 16 12:31:03 -0500][DEBUG] DESCRIBE `usuario`
[Mon, 09 May 16 12:31:03 -0500][DEBUG] DESCRIBE `usuario`
[Mon, 09 May 16 12:31:03 -0500][DEBUG] DESCRIBE `cliente`
[Mon, 09 May 16 12:31:03 -0500][DEBUG] SELECT COUNT(*) FROM cliente 
[Mon, 09 May 16 12:31:03 -0500][DEBUG] SELECT cliente.* FROM cliente ORDER BY nombre ASC LIMIT 30 OFFSET 0
[Mon, 09 May 16 12:31:03 -0500][DEBUG] DESCRIBE `menu`
[Mon, 09 May 16 12:45:11 -0500][DEBUG] DESCRIBE `usuario`
[Mon, 09 May 16 12:45:11 -0500][DEBUG] DESCRIBE `cliente`
[Mon, 09 May 16 12:45:11 -0500][DEBUG] SELECT COUNT(*) FROM cliente 
[Mon, 09 May 16 12:45:11 -0500][DEBUG] DESCRIBE `contrato`
[Mon, 09 May 16 12:45:11 -0500][DEBUG] SELECT COUNT(*) FROM contrato 
[Mon, 09 May 16 12:45:11 -0500][DEBUG] DESCRIBE `ot_usuario`
[Mon, 09 May 16 12:45:11 -0500][DEBUG] SELECT COUNT(*) FROM ot_usuario  WHERE usuario_id = 2
[Mon, 09 May 16 12:45:11 -0500][DEBUG] SELECT ot_usuario.ot_id, ot.nombre_ot, ot.duracion_inicio, ot.duracion_fin, ot.nota, ot.unidad_de_negocio_id FROM ot_usuario INNER JOIN ot ON ot.id = ot_usuario.ot_id WHERE ot_usuario.usuario_id = '2'
[Mon, 09 May 16 12:45:11 -0500][DEBUG] DESCRIBE `menu`
[Mon, 09 May 16 12:45:13 -0500][DEBUG] DESCRIBE `usuario`
[Mon, 09 May 16 12:45:13 -0500][DEBUG] DESCRIBE `usuario`
[Mon, 09 May 16 12:45:13 -0500][DEBUG] DESCRIBE `contrato`
[Mon, 09 May 16 12:45:13 -0500][DEBUG] SELECT COUNT(*) FROM contrato 
[Mon, 09 May 16 12:45:13 -0500][DEBUG] SELECT contrato.* FROM contrato ORDER BY nombre ASC LIMIT 30 OFFSET 0
[Mon, 09 May 16 12:45:13 -0500][DEBUG] DESCRIBE `cliente`
[Mon, 09 May 16 12:45:13 -0500][DEBUG] SELECT id,nombre,nit,direccion,ciudad,email,telefono,celular,nota,registro_at FROM cliente WHERE id = 8 LIMIT 1
[Mon, 09 May 16 12:45:13 -0500][DEBUG] DESCRIBE `unidad_de_negocio`
[Mon, 09 May 16 12:45:13 -0500][DEBUG] SELECT COUNT(*) FROM unidad_de_negocio  WHERE contrato_id = '1' 
[Mon, 09 May 16 12:45:13 -0500][DEBUG] DESCRIBE `actividad`
[Mon, 09 May 16 12:45:13 -0500][DEBUG] SELECT COUNT(*) FROM actividad  WHERE contrato_id = '1' 
[Mon, 09 May 16 12:45:13 -0500][DEBUG] DESCRIBE `ot`
[Mon, 09 May 16 12:45:13 -0500][DEBUG] SELECT COUNT(*) FROM ot  WHERE contrato_id = '1' 
[Mon, 09 May 16 12:45:15 -0500][DEBUG] DESCRIBE `usuario`
[Mon, 09 May 16 12:45:15 -0500][DEBUG] DESCRIBE `contrato`
[Mon, 09 May 16 12:45:15 -0500][DEBUG] SELECT id,nombre,referencia,vigencia,vigencia_duracion,ejecucion,ejecucion_duracion,nota,cliente_id,admin_tecnico_nombre,admin_tecnico_email,admin_tecnico_telefono,porce_admon,porce_imprevistos,porce_utilidad,valor_total_contrato,registro_at FROM contrato WHERE id = 1 LIMIT 1
[Mon, 09 May 16 12:45:15 -0500][DEBUG] DESCRIBE `unidad_de_negocio`
[Mon, 09 May 16 12:45:15 -0500][DEBUG] SELECT id,nombre,admin,email,telefono,ubicacion,contrato_id FROM unidad_de_negocio WHERE contrato_id = 1
[Mon, 09 May 16 12:45:15 -0500][DEBUG] DESCRIBE `cliente`
[Mon, 09 May 16 12:45:15 -0500][DEBUG] SELECT id,nombre,nit,direccion,ciudad,email,telefono,celular,nota,registro_at FROM cliente WHERE id = 8 LIMIT 1
[Mon, 09 May 16 12:45:15 -0500][DEBUG] DESCRIBE `actividad`
[Mon, 09 May 16 12:45:15 -0500][DEBUG] SELECT id,contrato_id,descripcion,unidad,cantidad,acomulado,cantidad_estimada,mayores_menores,valor,valor_total,observacion,asignado,estado,actividad_at FROM actividad WHERE contrato_id = 1
[Mon, 09 May 16 12:45:15 -0500][DEBUG] DESCRIBE `logs_nota`
[Mon, 09 May 16 12:45:15 -0500][DEBUG] SELECT id,contrato_id,ot_id,nota,nota_at FROM logs_nota WHERE contrato_id = 1 ORDER BY id desc
[Mon, 09 May 16 12:45:15 -0500][DEBUG] SELECT id,contrato_id,descripcion,unidad,cantidad,acomulado,cantidad_estimada,mayores_menores,valor,valor_total,observacion,asignado,estado,actividad_at FROM actividad WHERE contrato_id = 1
[Mon, 09 May 16 12:45:15 -0500][DEBUG] SELECT SUM(valor_total) FROM actividad  WHERE contrato_id = 1
[Mon, 09 May 16 12:45:15 -0500][DEBUG] SELECT id,nombre,referencia,vigencia,vigencia_duracion,ejecucion,ejecucion_duracion,nota,cliente_id,admin_tecnico_nombre,admin_tecnico_email,admin_tecnico_telefono,porce_admon,porce_imprevistos,porce_utilidad,valor_total_contrato,registro_at FROM contrato WHERE id = 1 LIMIT 1
[Mon, 09 May 16 12:50:44 -0500][DEBUG] DESCRIBE `usuario`
[Mon, 09 May 16 12:50:44 -0500][DEBUG] DESCRIBE `usuario`
[Mon, 09 May 16 12:50:44 -0500][DEBUG] DESCRIBE `contrato`
[Mon, 09 May 16 12:50:44 -0500][DEBUG] SELECT COUNT(*) FROM contrato 
[Mon, 09 May 16 12:50:44 -0500][DEBUG] SELECT contrato.* FROM contrato ORDER BY nombre ASC LIMIT 30 OFFSET 0
[Mon, 09 May 16 12:50:44 -0500][DEBUG] DESCRIBE `cliente`
[Mon, 09 May 16 12:50:44 -0500][DEBUG] SELECT id,nombre,nit,direccion,ciudad,email,telefono,celular,nota,registro_at FROM cliente WHERE id = 8 LIMIT 1
[Mon, 09 May 16 12:50:44 -0500][DEBUG] DESCRIBE `unidad_de_negocio`
[Mon, 09 May 16 12:50:44 -0500][DEBUG] SELECT COUNT(*) FROM unidad_de_negocio  WHERE contrato_id = '1' 
[Mon, 09 May 16 12:50:44 -0500][DEBUG] DESCRIBE `actividad`
[Mon, 09 May 16 12:50:44 -0500][DEBUG] SELECT COUNT(*) FROM actividad  WHERE contrato_id = '1' 
[Mon, 09 May 16 12:50:44 -0500][DEBUG] DESCRIBE `ot`
[Mon, 09 May 16 12:50:44 -0500][DEBUG] SELECT COUNT(*) FROM ot  WHERE contrato_id = '1' 
[Mon, 09 May 16 12:50:46 -0500][DEBUG] DESCRIBE `usuario`
[Mon, 09 May 16 12:50:46 -0500][DEBUG] DESCRIBE `contrato`
[Mon, 09 May 16 12:50:46 -0500][DEBUG] SELECT id,nombre,referencia,vigencia,vigencia_duracion,ejecucion,ejecucion_duracion,nota,cliente_id,admin_tecnico_nombre,admin_tecnico_email,admin_tecnico_telefono,porce_admon,porce_imprevistos,porce_utilidad,valor_total_contrato,registro_at FROM contrato WHERE id = 1 LIMIT 1
[Mon, 09 May 16 12:50:46 -0500][DEBUG] DESCRIBE `unidad_de_negocio`
[Mon, 09 May 16 12:50:46 -0500][DEBUG] SELECT id,nombre,admin,email,telefono,ubicacion,contrato_id FROM unidad_de_negocio WHERE contrato_id = 1
[Mon, 09 May 16 12:50:46 -0500][DEBUG] DESCRIBE `cliente`
[Mon, 09 May 16 12:50:46 -0500][DEBUG] SELECT id,nombre,nit,direccion,ciudad,email,telefono,celular,nota,registro_at FROM cliente WHERE id = 8 LIMIT 1
[Mon, 09 May 16 12:50:46 -0500][DEBUG] DESCRIBE `actividad`
[Mon, 09 May 16 12:50:46 -0500][DEBUG] SELECT id,contrato_id,descripcion,unidad,cantidad,acomulado,cantidad_estimada,mayores_menores,valor,valor_total,observacion,asignado,estado,actividad_at FROM actividad WHERE contrato_id = 1
[Mon, 09 May 16 12:50:46 -0500][DEBUG] DESCRIBE `logs_nota`
[Mon, 09 May 16 12:50:46 -0500][DEBUG] SELECT id,contrato_id,ot_id,nota,nota_at FROM logs_nota WHERE contrato_id = 1 ORDER BY id desc
[Mon, 09 May 16 12:50:46 -0500][DEBUG] SELECT id,contrato_id,descripcion,unidad,cantidad,acomulado,cantidad_estimada,mayores_menores,valor,valor_total,observacion,asignado,estado,actividad_at FROM actividad WHERE contrato_id = 1
[Mon, 09 May 16 12:50:46 -0500][DEBUG] SELECT SUM(valor_total) FROM actividad  WHERE contrato_id = 1
[Mon, 09 May 16 12:50:46 -0500][DEBUG] SELECT id,nombre,referencia,vigencia,vigencia_duracion,ejecucion,ejecucion_duracion,nota,cliente_id,admin_tecnico_nombre,admin_tecnico_email,admin_tecnico_telefono,porce_admon,porce_imprevistos,porce_utilidad,valor_total_contrato,registro_at FROM contrato WHERE id = 1 LIMIT 1
[Mon, 09 May 16 13:13:25 -0500][DEBUG] DESCRIBE `usuario`
[Mon, 09 May 16 13:13:25 -0500][DEBUG] DESCRIBE `usuario`
[Mon, 09 May 16 13:13:25 -0500][DEBUG] DESCRIBE `contrato`
[Mon, 09 May 16 13:13:25 -0500][DEBUG] SELECT COUNT(*) FROM contrato 
[Mon, 09 May 16 13:13:25 -0500][DEBUG] SELECT contrato.* FROM contrato ORDER BY nombre ASC LIMIT 30 OFFSET 0
[Mon, 09 May 16 13:13:25 -0500][DEBUG] DESCRIBE `cliente`
[Mon, 09 May 16 13:13:25 -0500][DEBUG] SELECT id,nombre,nit,direccion,ciudad,email,telefono,celular,nota,registro_at FROM cliente WHERE id = 8 LIMIT 1
[Mon, 09 May 16 13:13:25 -0500][DEBUG] DESCRIBE `unidad_de_negocio`
[Mon, 09 May 16 13:13:25 -0500][DEBUG] SELECT COUNT(*) FROM unidad_de_negocio  WHERE contrato_id = '1' 
[Mon, 09 May 16 13:13:25 -0500][DEBUG] DESCRIBE `actividad`
[Mon, 09 May 16 13:13:25 -0500][DEBUG] SELECT COUNT(*) FROM actividad  WHERE contrato_id = '1' 
[Mon, 09 May 16 13:13:25 -0500][DEBUG] DESCRIBE `ot`
[Mon, 09 May 16 13:13:25 -0500][DEBUG] SELECT COUNT(*) FROM ot  WHERE contrato_id = '1' 
[Mon, 09 May 16 13:13:57 -0500][DEBUG] DESCRIBE `usuario`
[Mon, 09 May 16 13:13:57 -0500][DEBUG] DESCRIBE `usuario`
[Mon, 09 May 16 13:13:57 -0500][DEBUG] DESCRIBE `contrato`
[Mon, 09 May 16 13:13:57 -0500][DEBUG] SELECT COUNT(*) FROM contrato 
[Mon, 09 May 16 13:13:57 -0500][DEBUG] SELECT contrato.* FROM contrato ORDER BY nombre ASC LIMIT 30 OFFSET 0
[Mon, 09 May 16 13:13:57 -0500][DEBUG] DESCRIBE `cliente`
[Mon, 09 May 16 13:13:57 -0500][DEBUG] SELECT id,nombre,nit,direccion,ciudad,email,telefono,celular,nota,registro_at FROM cliente WHERE id = 8 LIMIT 1
[Mon, 09 May 16 13:13:57 -0500][DEBUG] DESCRIBE `unidad_de_negocio`
[Mon, 09 May 16 13:13:57 -0500][DEBUG] SELECT COUNT(*) FROM unidad_de_negocio  WHERE contrato_id = '1' 
[Mon, 09 May 16 13:13:57 -0500][DEBUG] DESCRIBE `actividad`
[Mon, 09 May 16 13:13:57 -0500][DEBUG] SELECT COUNT(*) FROM actividad  WHERE contrato_id = '1' 
[Mon, 09 May 16 13:13:57 -0500][DEBUG] DESCRIBE `ot`
[Mon, 09 May 16 13:13:57 -0500][DEBUG] SELECT COUNT(*) FROM ot  WHERE contrato_id = '1' 
[Mon, 09 May 16 13:14:10 -0500][DEBUG] DESCRIBE `usuario`
[Mon, 09 May 16 13:14:10 -0500][DEBUG] DESCRIBE `actividad`
[Mon, 09 May 16 13:14:10 -0500][DEBUG] SELECT id,contrato_id,descripcion,unidad,cantidad,acomulado,cantidad_estimada,mayores_menores,valor,valor_total,observacion,asignado,estado,actividad_at FROM actividad WHERE contrato_id = 1
[Mon, 09 May 16 13:14:10 -0500][DEBUG] DESCRIBE `actividad_asignada`
[Mon, 09 May 16 13:14:10 -0500][DEBUG] SELECT SUM(cantidad) FROM actividad_asignada  WHERE actividad_id='1' AND estado='1' 
[Mon, 09 May 16 13:14:10 -0500][DEBUG] SELECT SUM(cantidad) FROM actividad_asignada  WHERE actividad_id='2' AND estado='1' 
[Mon, 09 May 16 13:14:10 -0500][DEBUG] SELECT SUM(cantidad) FROM actividad_asignada  WHERE actividad_id='3' AND estado='1' 
[Mon, 09 May 16 13:14:10 -0500][DEBUG] SELECT SUM(cantidad) FROM actividad_asignada  WHERE actividad_id='4' AND estado='1' 
[Mon, 09 May 16 13:14:10 -0500][DEBUG] SELECT SUM(cantidad) FROM actividad_asignada  WHERE actividad_id='5' AND estado='1' 
[Mon, 09 May 16 13:14:10 -0500][DEBUG] SELECT SUM(valor_total) FROM actividad  WHERE contrato_id = 1
[Mon, 09 May 16 13:14:10 -0500][DEBUG] DESCRIBE `contrato`
[Mon, 09 May 16 13:14:10 -0500][DEBUG] SELECT id,nombre,referencia,vigencia,vigencia_duracion,ejecucion,ejecucion_duracion,nota,cliente_id,admin_tecnico_nombre,admin_tecnico_email,admin_tecnico_telefono,porce_admon,porce_imprevistos,porce_utilidad,valor_total_contrato,registro_at FROM contrato WHERE id = 1 LIMIT 1
[Mon, 09 May 16 13:14:13 -0500][DEBUG] DESCRIBE `usuario`
[Mon, 09 May 16 13:14:13 -0500][DEBUG] DESCRIBE `usuario`
[Mon, 09 May 16 13:14:13 -0500][DEBUG] DESCRIBE `contrato`
[Mon, 09 May 16 13:14:13 -0500][DEBUG] SELECT COUNT(*) FROM contrato 
[Mon, 09 May 16 13:14:13 -0500][DEBUG] SELECT contrato.* FROM contrato ORDER BY nombre ASC LIMIT 30 OFFSET 0
[Mon, 09 May 16 13:14:13 -0500][DEBUG] DESCRIBE `cliente`
[Mon, 09 May 16 13:14:13 -0500][DEBUG] SELECT id,nombre,nit,direccion,ciudad,email,telefono,celular,nota,registro_at FROM cliente WHERE id = 8 LIMIT 1
[Mon, 09 May 16 13:14:13 -0500][DEBUG] DESCRIBE `unidad_de_negocio`
[Mon, 09 May 16 13:14:13 -0500][DEBUG] SELECT COUNT(*) FROM unidad_de_negocio  WHERE contrato_id = '1' 
[Mon, 09 May 16 13:14:13 -0500][DEBUG] DESCRIBE `actividad`
[Mon, 09 May 16 13:14:13 -0500][DEBUG] SELECT COUNT(*) FROM actividad  WHERE contrato_id = '1' 
[Mon, 09 May 16 13:14:13 -0500][DEBUG] DESCRIBE `ot`
[Mon, 09 May 16 13:14:13 -0500][DEBUG] SELECT COUNT(*) FROM ot  WHERE contrato_id = '1' 
[Mon, 09 May 16 13:14:50 -0500][DEBUG] DESCRIBE `usuario`
[Mon, 09 May 16 13:14:50 -0500][DEBUG] DESCRIBE `usuario`
[Mon, 09 May 16 13:14:50 -0500][DEBUG] DESCRIBE `contrato`
[Mon, 09 May 16 13:14:50 -0500][DEBUG] SELECT COUNT(*) FROM contrato 
[Mon, 09 May 16 13:14:50 -0500][DEBUG] SELECT contrato.* FROM contrato ORDER BY nombre ASC LIMIT 30 OFFSET 0
[Mon, 09 May 16 13:14:51 -0500][DEBUG] DESCRIBE `cliente`
[Mon, 09 May 16 13:14:51 -0500][DEBUG] SELECT id,nombre,nit,direccion,ciudad,email,telefono,celular,nota,registro_at FROM cliente WHERE id = 8 LIMIT 1
[Mon, 09 May 16 13:14:51 -0500][DEBUG] DESCRIBE `unidad_de_negocio`
[Mon, 09 May 16 13:14:51 -0500][DEBUG] SELECT COUNT(*) FROM unidad_de_negocio  WHERE contrato_id = '1' 
[Mon, 09 May 16 13:14:51 -0500][DEBUG] DESCRIBE `actividad`
[Mon, 09 May 16 13:14:51 -0500][DEBUG] SELECT COUNT(*) FROM actividad  WHERE contrato_id = '1' 
[Mon, 09 May 16 13:14:51 -0500][DEBUG] DESCRIBE `ot`
[Mon, 09 May 16 13:14:51 -0500][DEBUG] SELECT COUNT(*) FROM ot  WHERE contrato_id = '1' 
[Mon, 09 May 16 13:14:57 -0500][DEBUG] DESCRIBE `usuario`
[Mon, 09 May 16 13:14:57 -0500][DEBUG] DESCRIBE `actividad`
[Mon, 09 May 16 13:14:57 -0500][DEBUG] SELECT COUNT(*) FROM actividad  WHERE contrato_id = '1' 
[Mon, 09 May 16 13:14:57 -0500][DEBUG] DESCRIBE `contrato`
[Mon, 09 May 16 13:14:57 -0500][DEBUG] SELECT id,nombre,referencia,vigencia,vigencia_duracion,ejecucion,ejecucion_duracion,nota,cliente_id,admin_tecnico_nombre,admin_tecnico_email,admin_tecnico_telefono,porce_admon,porce_imprevistos,porce_utilidad,valor_total_contrato,registro_at FROM contrato WHERE id = 1 LIMIT 1
[Mon, 09 May 16 13:14:57 -0500][DEBUG] DESCRIBE `ot`
[Mon, 09 May 16 13:14:57 -0500][DEBUG] SELECT id,contrato_id,unidad_de_negocio_id,nombre_ot,duracion_inicio,duracion_fin,nota,registro_at FROM ot WHERE contrato_id = 1
[Mon, 09 May 16 13:14:57 -0500][DEBUG] DESCRIBE `unidad_de_negocio`
[Mon, 09 May 16 13:14:57 -0500][DEBUG] SELECT id,nombre,admin,email,telefono,ubicacion,contrato_id FROM unidad_de_negocio WHERE id = 1 LIMIT 1
[Mon, 09 May 16 13:14:57 -0500][DEBUG] DESCRIBE `actividad_asignada`
[Mon, 09 May 16 13:14:57 -0500][DEBUG] SELECT COUNT(*) FROM actividad_asignada  WHERE ot_id = 1
[Mon, 09 May 16 13:14:59 -0500][DEBUG] DESCRIBE `usuario`
[Mon, 09 May 16 13:14:59 -0500][DEBUG] DESCRIBE `usuario`
[Mon, 09 May 16 13:14:59 -0500][DEBUG] DESCRIBE `contrato`
[Mon, 09 May 16 13:14:59 -0500][DEBUG] SELECT COUNT(*) FROM contrato 
[Mon, 09 May 16 13:14:59 -0500][DEBUG] SELECT contrato.* FROM contrato ORDER BY nombre ASC LIMIT 30 OFFSET 0
[Mon, 09 May 16 13:14:59 -0500][DEBUG] DESCRIBE `cliente`
[Mon, 09 May 16 13:14:59 -0500][DEBUG] SELECT id,nombre,nit,direccion,ciudad,email,telefono,celular,nota,registro_at FROM cliente WHERE id = 8 LIMIT 1
[Mon, 09 May 16 13:14:59 -0500][DEBUG] DESCRIBE `unidad_de_negocio`
[Mon, 09 May 16 13:14:59 -0500][DEBUG] SELECT COUNT(*) FROM unidad_de_negocio  WHERE contrato_id = '1' 
[Mon, 09 May 16 13:14:59 -0500][DEBUG] DESCRIBE `actividad`
[Mon, 09 May 16 13:14:59 -0500][DEBUG] SELECT COUNT(*) FROM actividad  WHERE contrato_id = '1' 
[Mon, 09 May 16 13:14:59 -0500][DEBUG] DESCRIBE `ot`
[Mon, 09 May 16 13:14:59 -0500][DEBUG] SELECT COUNT(*) FROM ot  WHERE contrato_id = '1' 
[Mon, 09 May 16 13:16:13 -0500][DEBUG] DESCRIBE `usuario`
[Mon, 09 May 16 13:16:13 -0500][DEBUG] DESCRIBE `usuario`
[Mon, 09 May 16 13:16:13 -0500][DEBUG] DESCRIBE `contrato`
[Mon, 09 May 16 13:16:13 -0500][DEBUG] SELECT COUNT(*) FROM contrato 
[Mon, 09 May 16 13:16:13 -0500][DEBUG] SELECT contrato.* FROM contrato ORDER BY nombre ASC LIMIT 30 OFFSET 0
[Mon, 09 May 16 13:16:13 -0500][DEBUG] DESCRIBE `cliente`
[Mon, 09 May 16 13:16:13 -0500][DEBUG] SELECT id,nombre,nit,direccion,ciudad,email,telefono,celular,nota,registro_at FROM cliente WHERE id = 8 LIMIT 1
[Mon, 09 May 16 13:16:13 -0500][DEBUG] DESCRIBE `unidad_de_negocio`
[Mon, 09 May 16 13:16:13 -0500][DEBUG] SELECT COUNT(*) FROM unidad_de_negocio  WHERE contrato_id = '1' 
[Mon, 09 May 16 13:16:13 -0500][DEBUG] DESCRIBE `actividad`
[Mon, 09 May 16 13:16:13 -0500][DEBUG] SELECT COUNT(*) FROM actividad  WHERE contrato_id = '1' 
[Mon, 09 May 16 13:16:13 -0500][DEBUG] DESCRIBE `ot`
[Mon, 09 May 16 13:16:13 -0500][DEBUG] SELECT COUNT(*) FROM ot  WHERE contrato_id = '1' 
[Mon, 09 May 16 13:16:13 -0500][DEBUG] DESCRIBE `menu`
[Mon, 09 May 16 13:16:41 -0500][DEBUG] DESCRIBE `usuario`
[Mon, 09 May 16 13:16:41 -0500][DEBUG] DESCRIBE `contrato`
[Mon, 09 May 16 13:16:41 -0500][DEBUG] SELECT COUNT(*) FROM contrato 
[Mon, 09 May 16 13:16:41 -0500][DEBUG] SELECT contrato.* FROM contrato ORDER BY nombre ASC LIMIT 30 OFFSET 0
[Mon, 09 May 16 13:16:41 -0500][DEBUG] DESCRIBE `cliente`
[Mon, 09 May 16 13:16:41 -0500][DEBUG] SELECT id,nombre,nit,direccion,ciudad,email,telefono,celular,nota,registro_at FROM cliente WHERE id = 8 LIMIT 1
[Mon, 09 May 16 13:16:41 -0500][DEBUG] DESCRIBE `unidad_de_negocio`
[Mon, 09 May 16 13:16:41 -0500][DEBUG] SELECT COUNT(*) FROM unidad_de_negocio  WHERE contrato_id = '1' 
[Mon, 09 May 16 13:16:41 -0500][DEBUG] DESCRIBE `actividad`
[Mon, 09 May 16 13:16:41 -0500][DEBUG] SELECT COUNT(*) FROM actividad  WHERE contrato_id = '1' 
[Mon, 09 May 16 13:16:41 -0500][DEBUG] DESCRIBE `ot`
[Mon, 09 May 16 13:16:41 -0500][DEBUG] SELECT COUNT(*) FROM ot  WHERE contrato_id = '1' 
[Mon, 09 May 16 13:16:41 -0500][DEBUG] DESCRIBE `menu`
[Mon, 09 May 16 13:18:03 -0500][DEBUG] DESCRIBE `usuario`
[Mon, 09 May 16 13:18:03 -0500][DEBUG] DESCRIBE `contrato`
[Mon, 09 May 16 13:18:03 -0500][DEBUG] SELECT COUNT(*) FROM contrato 
[Mon, 09 May 16 13:18:03 -0500][DEBUG] SELECT contrato.* FROM contrato ORDER BY nombre ASC LIMIT 30 OFFSET 0
[Mon, 09 May 16 13:18:03 -0500][DEBUG] DESCRIBE `cliente`
[Mon, 09 May 16 13:18:03 -0500][DEBUG] SELECT id,nombre,nit,direccion,ciudad,email,telefono,celular,nota,registro_at FROM cliente WHERE id = 8 LIMIT 1
[Mon, 09 May 16 13:18:03 -0500][DEBUG] DESCRIBE `unidad_de_negocio`
[Mon, 09 May 16 13:18:03 -0500][DEBUG] SELECT COUNT(*) FROM unidad_de_negocio  WHERE contrato_id = '1' 
[Mon, 09 May 16 13:18:03 -0500][DEBUG] DESCRIBE `actividad`
[Mon, 09 May 16 13:18:03 -0500][DEBUG] SELECT COUNT(*) FROM actividad  WHERE contrato_id = '1' 
[Mon, 09 May 16 13:18:03 -0500][DEBUG] DESCRIBE `ot`
[Mon, 09 May 16 13:18:03 -0500][DEBUG] SELECT COUNT(*) FROM ot  WHERE contrato_id = '1' 
[Mon, 09 May 16 13:18:04 -0500][DEBUG] DESCRIBE `menu`
[Mon, 09 May 16 13:20:07 -0500][DEBUG] DESCRIBE `usuario`
[Mon, 09 May 16 13:20:07 -0500][DEBUG] DESCRIBE `contrato`
[Mon, 09 May 16 13:20:07 -0500][DEBUG] SELECT id,nombre,referencia,vigencia,vigencia_duracion,ejecucion,ejecucion_duracion,nota,cliente_id,admin_tecnico_nombre,admin_tecnico_email,admin_tecnico_telefono,porce_admon,porce_imprevistos,porce_utilidad,valor_total_contrato,registro_at FROM contrato WHERE id = 1 LIMIT 1
[Mon, 09 May 16 13:20:07 -0500][DEBUG] DESCRIBE `unidad_de_negocio`
[Mon, 09 May 16 13:20:07 -0500][DEBUG] SELECT id,nombre,admin,email,telefono,ubicacion,contrato_id FROM unidad_de_negocio WHERE contrato_id = 1
[Mon, 09 May 16 13:20:07 -0500][DEBUG] DESCRIBE `cliente`
[Mon, 09 May 16 13:20:07 -0500][DEBUG] SELECT id,nombre,nit,direccion,ciudad,email,telefono,celular,nota,registro_at FROM cliente WHERE id = 8 LIMIT 1
[Mon, 09 May 16 13:20:07 -0500][DEBUG] DESCRIBE `actividad`
[Mon, 09 May 16 13:20:07 -0500][DEBUG] SELECT id,contrato_id,descripcion,unidad,cantidad,acomulado,cantidad_estimada,mayores_menores,valor,valor_total,observacion,asignado,estado,actividad_at FROM actividad WHERE contrato_id = 1
[Mon, 09 May 16 13:20:07 -0500][DEBUG] DESCRIBE `logs_nota`
[Mon, 09 May 16 13:20:07 -0500][DEBUG] SELECT id,contrato_id,ot_id,nota,nota_at FROM logs_nota WHERE contrato_id = 1 ORDER BY id desc
[Mon, 09 May 16 13:20:07 -0500][DEBUG] SELECT id,contrato_id,descripcion,unidad,cantidad,acomulado,cantidad_estimada,mayores_menores,valor,valor_total,observacion,asignado,estado,actividad_at FROM actividad WHERE contrato_id = 1
[Mon, 09 May 16 13:20:07 -0500][DEBUG] SELECT SUM(valor_total) FROM actividad  WHERE contrato_id = 1
[Mon, 09 May 16 13:20:07 -0500][DEBUG] SELECT id,nombre,referencia,vigencia,vigencia_duracion,ejecucion,ejecucion_duracion,nota,cliente_id,admin_tecnico_nombre,admin_tecnico_email,admin_tecnico_telefono,porce_admon,porce_imprevistos,porce_utilidad,valor_total_contrato,registro_at FROM contrato WHERE id = 1 LIMIT 1
[Mon, 09 May 16 13:20:09 -0500][DEBUG] DESCRIBE `usuario`
[Mon, 09 May 16 13:20:09 -0500][DEBUG] DESCRIBE `cliente`
[Mon, 09 May 16 13:20:09 -0500][DEBUG] SELECT COUNT(*) FROM cliente 
[Mon, 09 May 16 13:20:09 -0500][DEBUG] DESCRIBE `contrato`
[Mon, 09 May 16 13:20:09 -0500][DEBUG] SELECT COUNT(*) FROM contrato 
[Mon, 09 May 16 13:20:09 -0500][DEBUG] DESCRIBE `ot_usuario`
[Mon, 09 May 16 13:20:09 -0500][DEBUG] SELECT COUNT(*) FROM ot_usuario  WHERE usuario_id = 2
[Mon, 09 May 16 13:20:09 -0500][DEBUG] SELECT ot_usuario.ot_id, ot.nombre_ot, ot.duracion_inicio, ot.duracion_fin, ot.nota, ot.unidad_de_negocio_id FROM ot_usuario INNER JOIN ot ON ot.id = ot_usuario.ot_id WHERE ot_usuario.usuario_id = '2'
[Mon, 09 May 16 13:20:09 -0500][DEBUG] DESCRIBE `menu`
[Mon, 09 May 16 13:20:11 -0500][DEBUG] DESCRIBE `usuario`
[Mon, 09 May 16 13:20:11 -0500][DEBUG] DESCRIBE `usuario`
[Mon, 09 May 16 13:20:11 -0500][DEBUG] DESCRIBE `contrato`
[Mon, 09 May 16 13:20:11 -0500][DEBUG] SELECT COUNT(*) FROM contrato 
[Mon, 09 May 16 13:20:11 -0500][DEBUG] SELECT contrato.* FROM contrato ORDER BY nombre ASC LIMIT 30 OFFSET 0
[Mon, 09 May 16 13:20:11 -0500][DEBUG] DESCRIBE `cliente`
[Mon, 09 May 16 13:20:11 -0500][DEBUG] SELECT id,nombre,nit,direccion,ciudad,email,telefono,celular,nota,registro_at FROM cliente WHERE id = 8 LIMIT 1
[Mon, 09 May 16 13:20:11 -0500][DEBUG] DESCRIBE `unidad_de_negocio`
[Mon, 09 May 16 13:20:11 -0500][DEBUG] SELECT COUNT(*) FROM unidad_de_negocio  WHERE contrato_id = '1' 
[Mon, 09 May 16 13:20:11 -0500][DEBUG] DESCRIBE `actividad`
[Mon, 09 May 16 13:20:11 -0500][DEBUG] SELECT COUNT(*) FROM actividad  WHERE contrato_id = '1' 
[Mon, 09 May 16 13:20:11 -0500][DEBUG] DESCRIBE `ot`
[Mon, 09 May 16 13:20:11 -0500][DEBUG] SELECT COUNT(*) FROM ot  WHERE contrato_id = '1' 
[Mon, 09 May 16 13:20:12 -0500][DEBUG] DESCRIBE `usuario`
[Mon, 09 May 16 13:20:13 -0500][DEBUG] DESCRIBE `contrato`
[Mon, 09 May 16 13:20:13 -0500][DEBUG] SELECT id,nombre,referencia,vigencia,vigencia_duracion,ejecucion,ejecucion_duracion,nota,cliente_id,admin_tecnico_nombre,admin_tecnico_email,admin_tecnico_telefono,porce_admon,porce_imprevistos,porce_utilidad,valor_total_contrato,registro_at FROM contrato WHERE id = 1 LIMIT 1
[Mon, 09 May 16 13:20:13 -0500][DEBUG] DESCRIBE `unidad_de_negocio`
[Mon, 09 May 16 13:20:13 -0500][DEBUG] SELECT id,nombre,admin,email,telefono,ubicacion,contrato_id FROM unidad_de_negocio WHERE contrato_id = 1
[Mon, 09 May 16 13:20:13 -0500][DEBUG] DESCRIBE `cliente`
[Mon, 09 May 16 13:20:13 -0500][DEBUG] SELECT id,nombre,nit,direccion,ciudad,email,telefono,celular,nota,registro_at FROM cliente WHERE id = 8 LIMIT 1
[Mon, 09 May 16 13:20:13 -0500][DEBUG] DESCRIBE `actividad`
[Mon, 09 May 16 13:20:13 -0500][DEBUG] SELECT id,contrato_id,descripcion,unidad,cantidad,acomulado,cantidad_estimada,mayores_menores,valor,valor_total,observacion,asignado,estado,actividad_at FROM actividad WHERE contrato_id = 1
[Mon, 09 May 16 13:20:13 -0500][DEBUG] DESCRIBE `logs_nota`
[Mon, 09 May 16 13:20:13 -0500][DEBUG] SELECT id,contrato_id,ot_id,nota,nota_at FROM logs_nota WHERE contrato_id = 1 ORDER BY id desc
[Mon, 09 May 16 13:20:13 -0500][DEBUG] SELECT id,contrato_id,descripcion,unidad,cantidad,acomulado,cantidad_estimada,mayores_menores,valor,valor_total,observacion,asignado,estado,actividad_at FROM actividad WHERE contrato_id = 1
[Mon, 09 May 16 13:20:13 -0500][DEBUG] SELECT SUM(valor_total) FROM actividad  WHERE contrato_id = 1
[Mon, 09 May 16 13:20:13 -0500][DEBUG] SELECT id,nombre,referencia,vigencia,vigencia_duracion,ejecucion,ejecucion_duracion,nota,cliente_id,admin_tecnico_nombre,admin_tecnico_email,admin_tecnico_telefono,porce_admon,porce_imprevistos,porce_utilidad,valor_total_contrato,registro_at FROM contrato WHERE id = 1 LIMIT 1
[Mon, 09 May 16 13:22:00 -0500][DEBUG] DESCRIBE `usuario`
[Mon, 09 May 16 13:22:00 -0500][DEBUG] DESCRIBE `usuario`
[Mon, 09 May 16 13:22:00 -0500][DEBUG] DESCRIBE `contrato`
[Mon, 09 May 16 13:22:00 -0500][DEBUG] SELECT COUNT(*) FROM contrato 
[Mon, 09 May 16 13:22:00 -0500][DEBUG] SELECT contrato.* FROM contrato ORDER BY nombre ASC LIMIT 30 OFFSET 0
[Mon, 09 May 16 13:22:00 -0500][DEBUG] DESCRIBE `cliente`
[Mon, 09 May 16 13:22:00 -0500][DEBUG] SELECT id,nombre,nit,direccion,ciudad,email,telefono,celular,nota,registro_at FROM cliente WHERE id = 8 LIMIT 1
[Mon, 09 May 16 13:22:00 -0500][DEBUG] DESCRIBE `unidad_de_negocio`
[Mon, 09 May 16 13:22:00 -0500][DEBUG] SELECT COUNT(*) FROM unidad_de_negocio  WHERE contrato_id = '1' 
[Mon, 09 May 16 13:22:00 -0500][DEBUG] DESCRIBE `actividad`
[Mon, 09 May 16 13:22:00 -0500][DEBUG] SELECT COUNT(*) FROM actividad  WHERE contrato_id = '1' 
[Mon, 09 May 16 13:22:00 -0500][DEBUG] DESCRIBE `ot`
[Mon, 09 May 16 13:22:00 -0500][DEBUG] SELECT COUNT(*) FROM ot  WHERE contrato_id = '1' 
[Mon, 09 May 16 13:22:02 -0500][DEBUG] DESCRIBE `usuario`
[Mon, 09 May 16 13:22:02 -0500][DEBUG] DESCRIBE `actividad`
[Mon, 09 May 16 13:22:02 -0500][DEBUG] SELECT COUNT(*) FROM actividad  WHERE contrato_id = '1' 
[Mon, 09 May 16 13:22:02 -0500][DEBUG] DESCRIBE `contrato`
[Mon, 09 May 16 13:22:02 -0500][DEBUG] SELECT id,nombre,referencia,vigencia,vigencia_duracion,ejecucion,ejecucion_duracion,nota,cliente_id,admin_tecnico_nombre,admin_tecnico_email,admin_tecnico_telefono,porce_admon,porce_imprevistos,porce_utilidad,valor_total_contrato,registro_at FROM contrato WHERE id = 1 LIMIT 1
[Mon, 09 May 16 13:22:02 -0500][DEBUG] DESCRIBE `ot`
[Mon, 09 May 16 13:22:02 -0500][DEBUG] SELECT id,contrato_id,unidad_de_negocio_id,nombre_ot,duracion_inicio,duracion_fin,nota,registro_at FROM ot WHERE contrato_id = 1
[Mon, 09 May 16 13:22:02 -0500][DEBUG] DESCRIBE `unidad_de_negocio`
[Mon, 09 May 16 13:22:02 -0500][DEBUG] SELECT id,nombre,admin,email,telefono,ubicacion,contrato_id FROM unidad_de_negocio WHERE id = 1 LIMIT 1
[Mon, 09 May 16 13:22:02 -0500][DEBUG] DESCRIBE `actividad_asignada`
[Mon, 09 May 16 13:22:02 -0500][DEBUG] SELECT COUNT(*) FROM actividad_asignada  WHERE ot_id = 1
[Mon, 09 May 16 13:22:05 -0500][DEBUG] DESCRIBE `usuario`
[Mon, 09 May 16 13:22:05 -0500][DEBUG] DESCRIBE `ot`
[Mon, 09 May 16 13:22:05 -0500][DEBUG] SELECT id,contrato_id,unidad_de_negocio_id,nombre_ot,duracion_inicio,duracion_fin,nota,registro_at FROM ot WHERE id = 1 LIMIT 1
[Mon, 09 May 16 13:22:05 -0500][DEBUG] DESCRIBE `contrato`
[Mon, 09 May 16 13:22:05 -0500][DEBUG] SELECT id,nombre,referencia,vigencia,vigencia_duracion,ejecucion,ejecucion_duracion,nota,cliente_id,admin_tecnico_nombre,admin_tecnico_email,admin_tecnico_telefono,porce_admon,porce_imprevistos,porce_utilidad,valor_total_contrato,registro_at FROM contrato WHERE id = 1 LIMIT 1
[Mon, 09 May 16 13:22:05 -0500][DEBUG] DESCRIBE `actividad_asignada`
[Mon, 09 May 16 13:22:05 -0500][DEBUG] SELECT actividad.descripcion, actividad.unidad, actividad.valor, actividad.valor_total, actividad.observacion, actividad_asignada.cantidad FROM actividad_asignada INNER JOIN actividad ON actividad.id = actividad_asignada.actividad_id WHERE actividad_asignada.ot_id = '1'
[Mon, 09 May 16 13:22:12 -0500][DEBUG] DESCRIBE `usuario`
[Mon, 09 May 16 13:22:12 -0500][DEBUG] DESCRIBE `usuario`
[Mon, 09 May 16 13:22:12 -0500][DEBUG] DESCRIBE `contrato`
[Mon, 09 May 16 13:22:12 -0500][DEBUG] SELECT COUNT(*) FROM contrato 
[Mon, 09 May 16 13:22:12 -0500][DEBUG] SELECT contrato.* FROM contrato ORDER BY nombre ASC LIMIT 30 OFFSET 0
[Mon, 09 May 16 13:22:12 -0500][DEBUG] DESCRIBE `cliente`
[Mon, 09 May 16 13:22:12 -0500][DEBUG] SELECT id,nombre,nit,direccion,ciudad,email,telefono,celular,nota,registro_at FROM cliente WHERE id = 8 LIMIT 1
[Mon, 09 May 16 13:22:12 -0500][DEBUG] DESCRIBE `unidad_de_negocio`
[Mon, 09 May 16 13:22:12 -0500][DEBUG] SELECT COUNT(*) FROM unidad_de_negocio  WHERE contrato_id = '1' 
[Mon, 09 May 16 13:22:12 -0500][DEBUG] DESCRIBE `actividad`
[Mon, 09 May 16 13:22:12 -0500][DEBUG] SELECT COUNT(*) FROM actividad  WHERE contrato_id = '1' 
[Mon, 09 May 16 13:22:12 -0500][DEBUG] DESCRIBE `ot`
[Mon, 09 May 16 13:22:12 -0500][DEBUG] SELECT COUNT(*) FROM ot  WHERE contrato_id = '1' 
[Mon, 09 May 16 13:22:14 -0500][DEBUG] DESCRIBE `usuario`
[Mon, 09 May 16 13:22:14 -0500][DEBUG] DESCRIBE `actividad`
[Mon, 09 May 16 13:22:14 -0500][DEBUG] SELECT COUNT(*) FROM actividad  WHERE contrato_id = '1' 
[Mon, 09 May 16 13:22:14 -0500][DEBUG] DESCRIBE `contrato`
[Mon, 09 May 16 13:22:14 -0500][DEBUG] SELECT id,nombre,referencia,vigencia,vigencia_duracion,ejecucion,ejecucion_duracion,nota,cliente_id,admin_tecnico_nombre,admin_tecnico_email,admin_tecnico_telefono,porce_admon,porce_imprevistos,porce_utilidad,valor_total_contrato,registro_at FROM contrato WHERE id = 1 LIMIT 1
[Mon, 09 May 16 13:22:14 -0500][DEBUG] DESCRIBE `ot`
[Mon, 09 May 16 13:22:14 -0500][DEBUG] SELECT id,contrato_id,unidad_de_negocio_id,nombre_ot,duracion_inicio,duracion_fin,nota,registro_at FROM ot WHERE contrato_id = 1
[Mon, 09 May 16 13:22:14 -0500][DEBUG] DESCRIBE `unidad_de_negocio`
[Mon, 09 May 16 13:22:14 -0500][DEBUG] SELECT id,nombre,admin,email,telefono,ubicacion,contrato_id FROM unidad_de_negocio WHERE id = 1 LIMIT 1
[Mon, 09 May 16 13:22:14 -0500][DEBUG] DESCRIBE `actividad_asignada`
[Mon, 09 May 16 13:22:14 -0500][DEBUG] SELECT COUNT(*) FROM actividad_asignada  WHERE ot_id = 1
[Mon, 09 May 16 13:22:17 -0500][DEBUG] DESCRIBE `usuario`
[Mon, 09 May 16 13:22:17 -0500][DEBUG] DESCRIBE `ot`
[Mon, 09 May 16 13:22:17 -0500][DEBUG] SELECT id,contrato_id,unidad_de_negocio_id,nombre_ot,duracion_inicio,duracion_fin,nota,registro_at FROM ot WHERE id = 1 LIMIT 1
[Mon, 09 May 16 13:22:17 -0500][DEBUG] DESCRIBE `contrato`
[Mon, 09 May 16 13:22:17 -0500][DEBUG] SELECT id,nombre,referencia,vigencia,vigencia_duracion,ejecucion,ejecucion_duracion,nota,cliente_id,admin_tecnico_nombre,admin_tecnico_email,admin_tecnico_telefono,porce_admon,porce_imprevistos,porce_utilidad,valor_total_contrato,registro_at FROM contrato WHERE id = 1 LIMIT 1
[Mon, 09 May 16 13:22:17 -0500][DEBUG] DESCRIBE `actividad_asignada`
[Mon, 09 May 16 13:22:17 -0500][DEBUG] SELECT actividad.descripcion, actividad.unidad, actividad.valor, actividad.valor_total, actividad.observacion, actividad_asignada.cantidad FROM actividad_asignada INNER JOIN actividad ON actividad.id = actividad_asignada.actividad_id WHERE actividad_asignada.ot_id = '1'
[Mon, 09 May 16 13:23:18 -0500][DEBUG] DESCRIBE `usuario`
[Mon, 09 May 16 13:23:18 -0500][DEBUG] DESCRIBE `usuario`
[Mon, 09 May 16 13:23:18 -0500][DEBUG] DESCRIBE `contrato`
[Mon, 09 May 16 13:23:18 -0500][DEBUG] SELECT COUNT(*) FROM contrato 
[Mon, 09 May 16 13:23:18 -0500][DEBUG] SELECT contrato.* FROM contrato ORDER BY nombre ASC LIMIT 30 OFFSET 0
[Mon, 09 May 16 13:23:18 -0500][DEBUG] DESCRIBE `cliente`
[Mon, 09 May 16 13:23:18 -0500][DEBUG] SELECT id,nombre,nit,direccion,ciudad,email,telefono,celular,nota,registro_at FROM cliente WHERE id = 8 LIMIT 1
[Mon, 09 May 16 13:23:18 -0500][DEBUG] DESCRIBE `unidad_de_negocio`
[Mon, 09 May 16 13:23:18 -0500][DEBUG] SELECT COUNT(*) FROM unidad_de_negocio  WHERE contrato_id = '1' 
[Mon, 09 May 16 13:23:18 -0500][DEBUG] DESCRIBE `actividad`
[Mon, 09 May 16 13:23:18 -0500][DEBUG] SELECT COUNT(*) FROM actividad  WHERE contrato_id = '1' 
[Mon, 09 May 16 13:23:18 -0500][DEBUG] DESCRIBE `ot`
[Mon, 09 May 16 13:23:18 -0500][DEBUG] SELECT COUNT(*) FROM ot  WHERE contrato_id = '1' 
[Mon, 09 May 16 13:23:20 -0500][DEBUG] DESCRIBE `usuario`
[Mon, 09 May 16 13:23:20 -0500][DEBUG] DESCRIBE `contrato`
[Mon, 09 May 16 13:23:20 -0500][DEBUG] SELECT id,nombre,referencia,vigencia,vigencia_duracion,ejecucion,ejecucion_duracion,nota,cliente_id,admin_tecnico_nombre,admin_tecnico_email,admin_tecnico_telefono,porce_admon,porce_imprevistos,porce_utilidad,valor_total_contrato,registro_at FROM contrato WHERE id = 1 LIMIT 1
[Mon, 09 May 16 13:23:20 -0500][DEBUG] DESCRIBE `unidad_de_negocio`
[Mon, 09 May 16 13:23:20 -0500][DEBUG] SELECT id,nombre,admin,email,telefono,ubicacion,contrato_id FROM unidad_de_negocio WHERE contrato_id = 1
[Mon, 09 May 16 13:23:20 -0500][DEBUG] DESCRIBE `cliente`
[Mon, 09 May 16 13:23:20 -0500][DEBUG] SELECT id,nombre,nit,direccion,ciudad,email,telefono,celular,nota,registro_at FROM cliente WHERE id = 8 LIMIT 1
[Mon, 09 May 16 13:23:20 -0500][DEBUG] DESCRIBE `actividad`
[Mon, 09 May 16 13:23:20 -0500][DEBUG] SELECT id,contrato_id,descripcion,unidad,cantidad,acomulado,cantidad_estimada,mayores_menores,valor,valor_total,observacion,asignado,estado,actividad_at FROM actividad WHERE contrato_id = 1
[Mon, 09 May 16 13:23:20 -0500][DEBUG] DESCRIBE `logs_nota`
[Mon, 09 May 16 13:23:20 -0500][DEBUG] SELECT id,contrato_id,ot_id,nota,nota_at FROM logs_nota WHERE contrato_id = 1 ORDER BY id desc
[Mon, 09 May 16 13:23:20 -0500][DEBUG] SELECT id,contrato_id,descripcion,unidad,cantidad,acomulado,cantidad_estimada,mayores_menores,valor,valor_total,observacion,asignado,estado,actividad_at FROM actividad WHERE contrato_id = 1
[Mon, 09 May 16 13:23:20 -0500][DEBUG] SELECT SUM(valor_total) FROM actividad  WHERE contrato_id = 1
[Mon, 09 May 16 13:23:20 -0500][DEBUG] SELECT id,nombre,referencia,vigencia,vigencia_duracion,ejecucion,ejecucion_duracion,nota,cliente_id,admin_tecnico_nombre,admin_tecnico_email,admin_tecnico_telefono,porce_admon,porce_imprevistos,porce_utilidad,valor_total_contrato,registro_at FROM contrato WHERE id = 1 LIMIT 1
[Mon, 09 May 16 13:23:28 -0500][DEBUG] DESCRIBE `usuario`
[Mon, 09 May 16 13:23:28 -0500][DEBUG] DESCRIBE `usuario`
[Mon, 09 May 16 13:23:28 -0500][DEBUG] DESCRIBE `contrato`
[Mon, 09 May 16 13:23:28 -0500][DEBUG] SELECT COUNT(*) FROM contrato 
[Mon, 09 May 16 13:23:28 -0500][DEBUG] SELECT contrato.* FROM contrato ORDER BY nombre ASC LIMIT 30 OFFSET 0
[Mon, 09 May 16 13:23:28 -0500][DEBUG] DESCRIBE `cliente`
[Mon, 09 May 16 13:23:28 -0500][DEBUG] SELECT id,nombre,nit,direccion,ciudad,email,telefono,celular,nota,registro_at FROM cliente WHERE id = 8 LIMIT 1
[Mon, 09 May 16 13:23:28 -0500][DEBUG] DESCRIBE `unidad_de_negocio`
[Mon, 09 May 16 13:23:28 -0500][DEBUG] SELECT COUNT(*) FROM unidad_de_negocio  WHERE contrato_id = '1' 
[Mon, 09 May 16 13:23:28 -0500][DEBUG] DESCRIBE `actividad`
[Mon, 09 May 16 13:23:28 -0500][DEBUG] SELECT COUNT(*) FROM actividad  WHERE contrato_id = '1' 
[Mon, 09 May 16 13:23:28 -0500][DEBUG] DESCRIBE `ot`
[Mon, 09 May 16 13:23:28 -0500][DEBUG] SELECT COUNT(*) FROM ot  WHERE contrato_id = '1' 
[Mon, 09 May 16 13:24:28 -0500][DEBUG] DESCRIBE `usuario`
[Mon, 09 May 16 13:24:28 -0500][DEBUG] DESCRIBE `contrato`
[Mon, 09 May 16 13:24:28 -0500][DEBUG] SELECT id,nombre,referencia,vigencia,vigencia_duracion,ejecucion,ejecucion_duracion,nota,cliente_id,admin_tecnico_nombre,admin_tecnico_email,admin_tecnico_telefono,porce_admon,porce_imprevistos,porce_utilidad,valor_total_contrato,registro_at FROM contrato WHERE id = 1 LIMIT 1
[Mon, 09 May 16 13:24:28 -0500][DEBUG] DESCRIBE `unidad_de_negocio`
[Mon, 09 May 16 13:24:28 -0500][DEBUG] SELECT id,nombre,admin,email,telefono,ubicacion,contrato_id FROM unidad_de_negocio WHERE contrato_id = 1
[Mon, 09 May 16 13:24:28 -0500][DEBUG] DESCRIBE `cliente`
[Mon, 09 May 16 13:24:28 -0500][DEBUG] SELECT id,nombre,nit,direccion,ciudad,email,telefono,celular,nota,registro_at FROM cliente WHERE id = 8 LIMIT 1
[Mon, 09 May 16 13:24:28 -0500][DEBUG] DESCRIBE `actividad`
[Mon, 09 May 16 13:24:28 -0500][DEBUG] SELECT id,contrato_id,descripcion,unidad,cantidad,acomulado,cantidad_estimada,mayores_menores,valor,valor_total,observacion,asignado,estado,actividad_at FROM actividad WHERE contrato_id = 1
[Mon, 09 May 16 13:24:28 -0500][DEBUG] DESCRIBE `logs_nota`
[Mon, 09 May 16 13:24:28 -0500][DEBUG] SELECT id,contrato_id,ot_id,nota,nota_at FROM logs_nota WHERE contrato_id = 1 ORDER BY id desc
[Mon, 09 May 16 13:24:28 -0500][DEBUG] SELECT id,contrato_id,descripcion,unidad,cantidad,acomulado,cantidad_estimada,mayores_menores,valor,valor_total,observacion,asignado,estado,actividad_at FROM actividad WHERE contrato_id = 1
[Mon, 09 May 16 13:24:28 -0500][DEBUG] SELECT SUM(valor_total) FROM actividad  WHERE contrato_id = 1
[Mon, 09 May 16 13:24:28 -0500][DEBUG] SELECT id,nombre,referencia,vigencia,vigencia_duracion,ejecucion,ejecucion_duracion,nota,cliente_id,admin_tecnico_nombre,admin_tecnico_email,admin_tecnico_telefono,porce_admon,porce_imprevistos,porce_utilidad,valor_total_contrato,registro_at FROM contrato WHERE id = 1 LIMIT 1
[Mon, 09 May 16 13:24:30 -0500][DEBUG] DESCRIBE `usuario`
[Mon, 09 May 16 13:24:30 -0500][DEBUG] DESCRIBE `usuario`
[Mon, 09 May 16 13:24:30 -0500][DEBUG] DESCRIBE `contrato`
[Mon, 09 May 16 13:24:30 -0500][DEBUG] SELECT COUNT(*) FROM contrato 
[Mon, 09 May 16 13:24:30 -0500][DEBUG] SELECT contrato.* FROM contrato ORDER BY nombre ASC LIMIT 30 OFFSET 0
[Mon, 09 May 16 13:24:30 -0500][DEBUG] DESCRIBE `cliente`
[Mon, 09 May 16 13:24:30 -0500][DEBUG] SELECT id,nombre,nit,direccion,ciudad,email,telefono,celular,nota,registro_at FROM cliente WHERE id = 8 LIMIT 1
[Mon, 09 May 16 13:24:30 -0500][DEBUG] DESCRIBE `unidad_de_negocio`
[Mon, 09 May 16 13:24:30 -0500][DEBUG] SELECT COUNT(*) FROM unidad_de_negocio  WHERE contrato_id = '1' 
[Mon, 09 May 16 13:24:30 -0500][DEBUG] DESCRIBE `actividad`
[Mon, 09 May 16 13:24:30 -0500][DEBUG] SELECT COUNT(*) FROM actividad  WHERE contrato_id = '1' 
[Mon, 09 May 16 13:24:30 -0500][DEBUG] DESCRIBE `ot`
[Mon, 09 May 16 13:24:30 -0500][DEBUG] SELECT COUNT(*) FROM ot  WHERE contrato_id = '1' 
[Mon, 09 May 16 13:24:32 -0500][DEBUG] DESCRIBE `usuario`
[Mon, 09 May 16 13:24:32 -0500][DEBUG] DESCRIBE `actividad`
[Mon, 09 May 16 13:24:32 -0500][DEBUG] SELECT COUNT(*) FROM actividad  WHERE contrato_id = '1' 
[Mon, 09 May 16 13:24:32 -0500][DEBUG] DESCRIBE `contrato`
[Mon, 09 May 16 13:24:32 -0500][DEBUG] SELECT id,nombre,referencia,vigencia,vigencia_duracion,ejecucion,ejecucion_duracion,nota,cliente_id,admin_tecnico_nombre,admin_tecnico_email,admin_tecnico_telefono,porce_admon,porce_imprevistos,porce_utilidad,valor_total_contrato,registro_at FROM contrato WHERE id = 1 LIMIT 1
[Mon, 09 May 16 13:24:32 -0500][DEBUG] DESCRIBE `ot`
[Mon, 09 May 16 13:24:32 -0500][DEBUG] SELECT id,contrato_id,unidad_de_negocio_id,nombre_ot,duracion_inicio,duracion_fin,nota,registro_at FROM ot WHERE contrato_id = 1
[Mon, 09 May 16 13:24:32 -0500][DEBUG] DESCRIBE `unidad_de_negocio`
[Mon, 09 May 16 13:24:32 -0500][DEBUG] SELECT id,nombre,admin,email,telefono,ubicacion,contrato_id FROM unidad_de_negocio WHERE id = 1 LIMIT 1
[Mon, 09 May 16 13:24:32 -0500][DEBUG] DESCRIBE `actividad_asignada`
[Mon, 09 May 16 13:24:32 -0500][DEBUG] SELECT COUNT(*) FROM actividad_asignada  WHERE ot_id = 1
[Mon, 09 May 16 13:27:26 -0500][DEBUG] DESCRIBE `usuario`
[Mon, 09 May 16 13:27:26 -0500][DEBUG] DESCRIBE `ot`
[Mon, 09 May 16 13:27:26 -0500][DEBUG] SELECT id,contrato_id,unidad_de_negocio_id,nombre_ot,duracion_inicio,duracion_fin,nota,registro_at FROM ot WHERE id = 1 LIMIT 1
[Mon, 09 May 16 13:27:26 -0500][DEBUG] DESCRIBE `contrato`
[Mon, 09 May 16 13:27:26 -0500][DEBUG] SELECT id,nombre,referencia,vigencia,vigencia_duracion,ejecucion,ejecucion_duracion,nota,cliente_id,admin_tecnico_nombre,admin_tecnico_email,admin_tecnico_telefono,porce_admon,porce_imprevistos,porce_utilidad,valor_total_contrato,registro_at FROM contrato WHERE id = 1 LIMIT 1
[Mon, 09 May 16 13:27:26 -0500][DEBUG] DESCRIBE `actividad_asignada`
[Mon, 09 May 16 13:27:26 -0500][DEBUG] SELECT actividad.descripcion, actividad.unidad, actividad.valor, actividad.valor_total, actividad.observacion, actividad_asignada.cantidad FROM actividad_asignada INNER JOIN actividad ON actividad.id = actividad_asignada.actividad_id WHERE actividad_asignada.ot_id = '1'
[Mon, 09 May 16 13:27:29 -0500][DEBUG] DESCRIBE `usuario`
[Mon, 09 May 16 13:27:29 -0500][DEBUG] DESCRIBE `usuario`
[Mon, 09 May 16 13:27:29 -0500][DEBUG] DESCRIBE `contrato`
[Mon, 09 May 16 13:27:30 -0500][DEBUG] SELECT COUNT(*) FROM contrato 
[Mon, 09 May 16 13:27:30 -0500][DEBUG] SELECT contrato.* FROM contrato ORDER BY nombre ASC LIMIT 30 OFFSET 0
[Mon, 09 May 16 13:27:30 -0500][DEBUG] DESCRIBE `cliente`
[Mon, 09 May 16 13:27:30 -0500][DEBUG] SELECT id,nombre,nit,direccion,ciudad,email,telefono,celular,nota,registro_at FROM cliente WHERE id = 8 LIMIT 1
[Mon, 09 May 16 13:27:30 -0500][DEBUG] DESCRIBE `unidad_de_negocio`
[Mon, 09 May 16 13:27:30 -0500][DEBUG] SELECT COUNT(*) FROM unidad_de_negocio  WHERE contrato_id = '1' 
[Mon, 09 May 16 13:27:30 -0500][DEBUG] DESCRIBE `actividad`
[Mon, 09 May 16 13:27:30 -0500][DEBUG] SELECT COUNT(*) FROM actividad  WHERE contrato_id = '1' 
[Mon, 09 May 16 13:27:30 -0500][DEBUG] DESCRIBE `ot`
[Mon, 09 May 16 13:27:30 -0500][DEBUG] SELECT COUNT(*) FROM ot  WHERE contrato_id = '1' 
[Mon, 09 May 16 13:27:31 -0500][DEBUG] DESCRIBE `usuario`
[Mon, 09 May 16 13:27:31 -0500][DEBUG] DESCRIBE `actividad`
[Mon, 09 May 16 13:27:31 -0500][DEBUG] SELECT COUNT(*) FROM actividad  WHERE contrato_id = '1' 
[Mon, 09 May 16 13:27:31 -0500][DEBUG] DESCRIBE `contrato`
[Mon, 09 May 16 13:27:31 -0500][DEBUG] SELECT id,nombre,referencia,vigencia,vigencia_duracion,ejecucion,ejecucion_duracion,nota,cliente_id,admin_tecnico_nombre,admin_tecnico_email,admin_tecnico_telefono,porce_admon,porce_imprevistos,porce_utilidad,valor_total_contrato,registro_at FROM contrato WHERE id = 1 LIMIT 1
[Mon, 09 May 16 13:27:31 -0500][DEBUG] DESCRIBE `ot`
[Mon, 09 May 16 13:27:31 -0500][DEBUG] SELECT id,contrato_id,unidad_de_negocio_id,nombre_ot,duracion_inicio,duracion_fin,nota,registro_at FROM ot WHERE contrato_id = 1
[Mon, 09 May 16 13:27:31 -0500][DEBUG] DESCRIBE `unidad_de_negocio`
[Mon, 09 May 16 13:27:31 -0500][DEBUG] SELECT id,nombre,admin,email,telefono,ubicacion,contrato_id FROM unidad_de_negocio WHERE id = 1 LIMIT 1
[Mon, 09 May 16 13:27:31 -0500][DEBUG] DESCRIBE `actividad_asignada`
[Mon, 09 May 16 13:27:31 -0500][DEBUG] SELECT COUNT(*) FROM actividad_asignada  WHERE ot_id = 1
