[Sun, 19 Jun 16 17:45:23 -0500][DEBUG] DESCRIBE `usuario`
[Sun, 19 Jun 16 17:45:23 -0500][DEBUG] DESCRIBE `usuario`
[Sun, 19 Jun 16 18:03:07 -0500][DEBUG] DESCRIBE `usuario`
[Sun, 19 Jun 16 18:03:07 -0500][DEBUG] DESCRIBE `usuario`
[Sun, 19 Jun 16 18:59:04 -0500][DEBUG] DESCRIBE `usuario`
[Sun, 19 Jun 16 18:59:04 -0500][DEBUG] DESCRIBE `usuario`
[Sun, 19 Jun 16 18:59:15 -0500][DEBUG] DESCRIBE `usuario`
[Sun, 19 Jun 16 18:59:15 -0500][DEBUG] SELECT id,nombre,apellido,login,password,perfil_id,email,tema,app_ajax,datagrid,fotografia,pool,usuario_at,usuario_in FROM usuario WHERE email = 'admin@letingel.com' AND password = '7c4a8d09ca3762af61e59520943dc26494f8941b' LIMIT 1
[Sun, 19 Jun 16 18:59:15 -0500][DEBUG] DESCRIBE `usuario`
[Sun, 19 Jun 16 19:00:04 -0500][DEBUG] DESCRIBE `usuario`
[Sun, 19 Jun 16 19:00:09 -0500][DEBUG] DESCRIBE `usuario`
[Sun, 19 Jun 16 19:00:09 -0500][DEBUG] SELECT id,nombre,apellido,login,password,perfil_id,email,tema,app_ajax,datagrid,fotografia,pool,usuario_at,usuario_in FROM usuario WHERE email = 'admin@servidigital.co' AND password = '7c4a8d09ca3762af61e59520943dc26494f8941b' LIMIT 1
[Sun, 19 Jun 16 19:00:09 -0500][DEBUG] SELECT usuario.*, perfil.perfil, estado_usuario.estado_usuario FROM usuario INNER JOIN perfil ON perfil.id = usuario.perfil_id INNER JOIN (SELECT usuario_id, estado_usuario, descripcion, estado_usuario_at FROM (SELECT * FROM estado_usuario ORDER BY estado_usuario.id DESC ) AS estado_usuario GROUP BY estado_usuario.usuario_id ) AS estado_usuario ON estado_usuario.usuario_id = usuario.id  WHERE usuario.id = '2' LIMIT 1
[Sun, 19 Jun 16 19:00:09 -0500][DEBUG] DESCRIBE `acceso`
[Sun, 19 Jun 16 19:00:09 -0500][DEBUG] INSERT INTO acceso (usuario_id,tipo_acceso,ip,acceso_at) VALUES ('2','1','::1','2016-06-19 19:00:09')
[Sun, 19 Jun 16 19:00:09 -0500][DEBUG] SELECT id,usuario_id,tipo_acceso,ip,acceso_at FROM acceso WHERE id = 1 LIMIT 1
[Sun, 19 Jun 16 19:00:09 -0500][DEBUG] DESCRIBE `usuario`
[Sun, 19 Jun 16 19:00:09 -0500][DEBUG] DESCRIBE `cliente`
[Sun, 19 Jun 16 19:00:09 -0500][ERROR] Table 'app_dbkm.cliente' doesn't exist al ejecutar <em>"DESCRIBE `cliente`"</em>
[Sun, 19 Jun 16 19:01:01 -0500][DEBUG] DESCRIBE `usuario`
[Sun, 19 Jun 16 19:01:01 -0500][DEBUG] DESCRIBE `menu`
[Sun, 19 Jun 16 19:01:40 -0500][DEBUG] DESCRIBE `usuario`
[Sun, 19 Jun 16 19:01:47 -0500][DEBUG] DESCRIBE `usuario`
[Sun, 19 Jun 16 19:01:59 -0500][DEBUG] DESCRIBE `usuario`
[Sun, 19 Jun 16 19:02:01 -0500][DEBUG] DESCRIBE `usuario`
[Sun, 19 Jun 16 19:02:01 -0500][DEBUG] DESCRIBE `menu`
[Sun, 19 Jun 16 19:02:06 -0500][DEBUG] DESCRIBE `usuario`
[Sun, 19 Jun 16 19:02:15 -0500][DEBUG] DESCRIBE `usuario`
[Sun, 19 Jun 16 19:02:20 -0500][DEBUG] DESCRIBE `usuario`
[Sun, 19 Jun 16 19:13:01 -0500][DEBUG] DESCRIBE `usuario`
[Sun, 19 Jun 16 19:13:02 -0500][DEBUG] DESCRIBE `menu`
[Sun, 19 Jun 16 19:13:16 -0500][DEBUG] DESCRIBE `usuario`
[Sun, 19 Jun 16 19:13:18 -0500][DEBUG] DESCRIBE `usuario`
[Sun, 19 Jun 16 19:13:18 -0500][DEBUG] DESCRIBE `menu`
[Sun, 19 Jun 16 19:13:21 -0500][DEBUG] DESCRIBE `usuario`
[Sun, 19 Jun 16 19:13:32 -0500][DEBUG] DESCRIBE `usuario`
[Sun, 19 Jun 16 19:13:35 -0500][DEBUG] DESCRIBE `usuario`
[Sun, 19 Jun 16 19:13:35 -0500][DEBUG] DESCRIBE `menu`
[Sun, 19 Jun 16 19:13:38 -0500][DEBUG] DESCRIBE `usuario`
[Sun, 19 Jun 16 19:28:25 -0500][DEBUG] DESCRIBE `usuario`
[Sun, 19 Jun 16 19:28:25 -0500][DEBUG] DESCRIBE `menu`
[Sun, 19 Jun 16 19:28:49 -0500][DEBUG] DESCRIBE `usuario`
[Sun, 19 Jun 16 19:28:50 -0500][DEBUG] DESCRIBE `menu`
[Sun, 19 Jun 16 19:28:54 -0500][DEBUG] DESCRIBE `usuario`
[Sun, 19 Jun 16 19:28:54 -0500][DEBUG] DESCRIBE `menu`
[Sun, 19 Jun 16 19:28:56 -0500][DEBUG] DESCRIBE `usuario`
[Sun, 19 Jun 16 19:28:56 -0500][DEBUG] DESCRIBE `menu`
[Sun, 19 Jun 16 20:35:55 -0500][DEBUG] DESCRIBE `usuario`
[Sun, 19 Jun 16 20:35:55 -0500][DEBUG] DESCRIBE `menu`
[Sun, 19 Jun 16 20:37:11 -0500][DEBUG] DESCRIBE `usuario`
[Sun, 19 Jun 16 20:37:12 -0500][DEBUG] DESCRIBE `usuario`
[Sun, 19 Jun 16 20:37:12 -0500][DEBUG] DESCRIBE `backup`
[Sun, 19 Jun 16 20:37:12 -0500][DEBUG] SELECT COUNT(*) FROM backup  INNER JOIN usuario ON usuario.id = backup.usuario_id 
[Sun, 19 Jun 16 20:37:12 -0500][DEBUG] SELECT backup.*, usuario.nombre, usuario.apellido FROM backup INNER JOIN usuario ON usuario.id = backup.usuario_id  ORDER BY backup.backup_at DESC LIMIT 30 OFFSET 0
[Sun, 19 Jun 16 20:37:13 -0500][DEBUG] DESCRIBE `usuario`
[Sun, 19 Jun 16 20:37:14 -0500][DEBUG] DESCRIBE `usuario`
[Sun, 19 Jun 16 20:37:14 -0500][DEBUG] DESCRIBE `menu`
[Sun, 19 Jun 16 20:37:14 -0500][DEBUG] SELECT id,menu_id,recurso_id,menu,url,posicion,icono,activo,visibilidad,custom FROM menu WHERE menu.menu_id IS NULL AND menu.visibilidad = 1 AND menu.activo = 1 GROUP BY menu.id ORDER BY menu.posicion ASC
[Sun, 19 Jun 16 20:37:14 -0500][DEBUG] SELECT id,menu_id,recurso_id,menu,url,posicion,icono,activo,visibilidad,custom FROM menu WHERE menu.menu_id IS NULL AND menu.visibilidad = 2 AND menu.activo = 1 GROUP BY menu.id ORDER BY menu.posicion ASC
[Sun, 19 Jun 16 20:37:14 -0500][DEBUG] SELECT menu.*, (padre.menu) AS padre, (padre.posicion) AS padre_posicion, recurso.recurso FROM menu LEFT JOIN recurso ON recurso.id = menu.recurso_id LEFT JOIN menu AS padre ON padre.id = menu.menu_id  WHERE menu.menu_id = 1 GROUP BY menu.id ORDER BY menu.posicion ASC
[Sun, 19 Jun 16 20:37:14 -0500][DEBUG] DESCRIBE `usuario`
[Sun, 19 Jun 16 20:37:15 -0500][DEBUG] DESCRIBE `usuario`
[Sun, 19 Jun 16 20:37:20 -0500][DEBUG] DESCRIBE `usuario`
[Sun, 19 Jun 16 20:37:26 -0500][DEBUG] DESCRIBE `usuario`
[Sun, 19 Jun 16 20:37:26 -0500][DEBUG] DESCRIBE `acceso`
[Sun, 19 Jun 16 20:37:26 -0500][DEBUG] INSERT INTO acceso (usuario_id,tipo_acceso,ip,acceso_at) VALUES ('2','2','::1','2016-06-19 20:37:26')
[Sun, 19 Jun 16 20:37:26 -0500][DEBUG] SELECT id,usuario_id,tipo_acceso,ip,acceso_at FROM acceso WHERE id = 2 LIMIT 1
[Sun, 19 Jun 16 20:37:26 -0500][DEBUG] DESCRIBE `usuario`
